# This file uses centimeters as units for non-parametric coordinates.

mtllib Left_Metal_Door.mtl
g default
v -2.487049 0.000000 0.250000
v 0.000000 0.000000 0.250000
v -2.487049 5.000000 0.250000
v 0.000000 5.000000 0.153473
v -2.487049 5.000000 -0.250001
v 0.000000 5.000000 -0.250001
v -2.487049 -0.000000 -0.250001
v 0.000000 0.000000 -0.250001
v -2.487049 1.677377 0.250000
v 0.000000 1.677377 0.250000
v 0.000000 1.498689 -0.250001
v -2.487049 1.498689 -0.250001
v -2.487049 3.514259 -0.250001
v 0.000000 3.514259 -0.250001
v 0.000000 3.335571 0.153473
v -2.487049 3.335571 0.250000
v -2.337304 2.098401 0.250000
v -0.450464 2.316040 0.250000
v -0.450464 2.696907 0.250000
v -2.337304 2.914546 0.250000
v -0.567047 -0.000000 0.250000
v -0.567047 -0.000000 -0.250001
v -0.567047 1.498689 -0.250001
v -0.567047 3.514259 -0.250001
v -0.567047 5.000000 -0.250001
v -0.567047 5.000000 0.250000
v -1.058038 3.335571 0.250000
v -0.998772 2.914546 0.250000
v -0.998772 2.098401 0.250000
v -0.567047 1.677377 0.250000
v -1.164924 2.842768 0.250000
v -1.164924 2.170179 0.250000
v -0.733144 2.349536 0.250000
v -0.733144 2.663411 0.250000
v -2.218990 2.170179 0.250000
v -2.218990 2.842768 0.250000
v -1.187781 2.818063 0.055733
v -1.187781 2.194884 0.055733
v -0.787720 2.361065 0.055733
v -0.787720 2.651882 0.055733
v -2.164414 2.194884 0.055733
v -2.164414 2.818063 0.055733
v -0.998772 2.026206 0.395358
v -0.567047 1.677377 0.395358
v -0.087046 1.677377 0.395358
v -0.450464 2.234940 0.395358
v -2.487049 1.677377 0.395358
v -2.337304 2.026206 0.395358
v -0.087046 3.335571 0.395358
v -1.036768 3.335571 0.395358
v -0.998772 2.996490 0.395358
v -0.450464 2.765060 0.395358
v -2.487049 3.335571 0.395358
v -2.337304 2.996490 0.395358
v -2.369617 1.604372 0.273469
v -1.188254 0.118616 0.257484
v -0.860149 0.695784 0.253127
v -1.748317 1.604372 0.268903
v -2.257364 1.518626 0.181692
v -1.220855 0.215050 0.167668
v -0.932981 0.721447 0.163844
v -1.712245 1.518627 0.177686
v -2.117064 1.409017 0.118879
v -1.287856 0.366155 0.107659
v -1.057557 0.771273 0.104600
v -1.680968 1.409017 0.115673
v -1.995471 1.314021 0.276389
v -1.345924 0.497113 0.267600
v -1.165522 0.814455 0.265205
v -1.653862 1.314022 0.273878
v -0.295953 0.756973 0.250000
v 0.000000 0.756973 0.250000
v -0.087046 0.056460 0.250000
v -0.536762 0.056460 0.250000
v -0.295953 0.727397 0.326652
v -0.087046 0.727398 0.326652
v -0.087046 0.056460 0.326652
v -0.536762 0.056460 0.326652
v -1.363369 4.777878 0.250000
v -0.225679 3.393686 0.250000
v -1.069917 3.393686 0.250000
v -2.305179 3.393686 0.250000
v -2.006889 4.200720 0.250000
v -1.274902 4.703365 0.153473
v -0.216070 4.630258 0.153473
v -0.216070 3.415116 0.153473
v -1.001791 3.415116 0.153473
v -2.151432 3.415116 0.153473
v -1.873818 4.166211 0.153473
v -0.533776 4.910090 0.153473
v -0.087046 4.910090 0.153473
v -0.087046 3.361029 0.153473
v -0.387792 3.108096 -0.250001
v -0.626330 2.760792 -0.250001
v -0.625630 2.339460 -0.250001
v -0.385962 2.005036 -0.250001
v 0.001130 1.885258 -0.250001
v -0.387792 3.108096 0.706658
v -0.626330 2.760792 0.706658
v -0.625630 2.339460 0.706658
v -0.385962 2.005036 0.706658
v 0.001130 1.885258 0.706658
v -0.291961 2.974378 0.706658
v -0.471552 2.712899 0.706658
v -0.471025 2.395686 0.706658
v -0.290584 2.143905 0.706658
v 0.000851 2.053727 0.706658
v -0.283666 2.964446 0.599582
v -0.439446 2.703986 0.599582
v -0.457992 2.401063 0.599582
v -0.271007 2.173698 0.599582
v 0.000545 2.069461 0.599582
v -0.001131 3.248715 0.706658
v -0.001131 3.248715 -0.250001
v 0.387792 2.025877 -0.250001
v 0.387792 2.025877 0.706658
v -0.000000 2.566986 -0.250001
v -0.000049 2.568024 0.599582
v -0.000945 3.046469 0.599582
v 0.272179 2.188464 0.599582
v -0.000851 3.080247 0.706658
v 0.291961 2.159595 0.706658
v -0.420988 2.618398 0.106964
v -0.420988 2.593659 0.088989
v -0.420988 2.563080 0.088989
v -0.420988 2.538340 0.106964
v -0.420988 2.528889 0.136047
v -0.420988 2.538340 0.165130
v -0.420988 2.563080 0.183104
v -0.420988 2.593659 0.183104
v -0.420988 2.618398 0.165130
v -0.420988 2.627848 0.136047
v -2.351260 2.618398 0.106964
v -2.351260 2.593659 0.088989
v -2.351260 2.563079 0.088989
v -2.351260 2.538340 0.106964
v -2.351260 2.528889 0.136047
v -2.351260 2.538340 0.165130
v -2.351260 2.563079 0.183104
v -2.351260 2.593659 0.183104
v -2.351260 2.618398 0.165130
v -2.351260 2.627848 0.136047
v -0.420988 2.578369 0.136047
v -2.351260 2.578369 0.136047
v -0.420988 2.488027 0.106964
v -0.420988 2.463288 0.088989
v -0.420988 2.432708 0.088989
v -0.420988 2.407968 0.106964
v -0.420988 2.398518 0.136047
v -0.420988 2.407968 0.165130
v -0.420988 2.432708 0.183104
v -0.420988 2.463288 0.183104
v -0.420988 2.488027 0.165130
v -0.420988 2.497477 0.136047
v -2.351260 2.488027 0.106964
v -2.351260 2.463288 0.088989
v -2.351260 2.432708 0.088989
v -2.351260 2.407968 0.106964
v -2.351260 2.398518 0.136047
v -2.351260 2.407968 0.165130
v -2.351260 2.432708 0.183104
v -2.351260 2.463288 0.183104
v -2.351260 2.488027 0.165130
v -2.351260 2.497477 0.136047
v -0.420988 2.447998 0.136047
v -2.351260 2.447998 0.136047
vt 0.285199 0.637205
vt 0.285199 0.540111
vt 0.357547 0.566003
vt 0.357547 0.611313
vt 0.397454 0.977163
vt 0.397454 0.977163
vt 0.500000 0.977163
vt 0.500000 0.977163
vt 0.397454 0.431640
vt 0.397454 0.745676
vt 0.500000 0.745676
vt 0.500000 0.431640
vt 0.397454 0.198136
vt 0.397454 0.198136
vt 0.500000 0.198136
vt 0.500000 0.198136
vt 0.500000 0.459480
vt 0.500000 0.717836
vt 0.050235 0.431640
vt 0.050235 0.459480
vt 0.050235 0.717836
vt 0.050235 0.745676
vt 0.446479 0.311468
vt 0.402931 0.206933
vt 0.484258 0.206933
vt 0.484258 0.311468
vt 0.050235 0.198136
vt 0.050235 0.198136
vt 0.269443 0.930946
vt 0.318833 0.730229
vt 0.460925 0.730229
vt 0.460925 0.919555
vt 0.050235 0.977163
vt 0.050235 0.977163
vt 0.319379 0.513830
vt 0.397454 0.459480
vt 0.484258 0.459480
vt 0.418537 0.546352
vt 0.418537 0.618329
vt 0.418537 0.558987
vt 0.484258 0.717836
vt 0.312508 0.717836
vt 0.319379 0.665005
vt 0.418537 0.628947
vt 0.077316 0.525078
vt 0.077316 0.652238
vt 0.110929 0.730229
vt 0.161134 0.847254
vt 0.050235 0.717836
vt 0.077316 0.665005
vt 0.108582 0.540111
vt 0.108582 0.637205
vt 0.050235 0.459480
vt 0.077316 0.513830
vt 0.139134 0.402868
vt 0.256600 0.275589
vt 0.289224 0.325033
vt 0.200911 0.402868
vt 0.319379 0.525078
vt 0.367416 0.564206
vt 0.289332 0.536262
vt 0.367416 0.613110
vt 0.319379 0.652238
vt 0.289332 0.641055
vt 0.098712 0.536262
vt 0.098712 0.641055
vt 0.397454 0.459480
vt 0.308662 0.717836
vt 0.285113 0.216617
vt 0.071472 0.448106
vt 0.344448 0.306543
vt 0.183830 0.448106
vt 0.279217 0.231642
vt 0.091772 0.434746
vt 0.331277 0.310541
vt 0.190353 0.434746
vt 0.267101 0.255185
vt 0.117144 0.417668
vt 0.308749 0.318304
vt 0.196009 0.417668
vt 0.446479 0.316076
vt 0.500000 0.316076
vt 0.484258 0.206933
vt 0.402931 0.206933
vt 0.403470 0.963155
vt 0.484258 0.963155
vt 0.484258 0.721802
vt 0.459188 0.726891
vt 0.306513 0.726891
vt 0.083125 0.726891
vt 0.137069 0.852631
vt 0.253445 0.942555
vt 0.499795 0.704303
vt 0.429871 0.682394
vt 0.429871 0.682394
vt 0.499795 0.704303
vt 0.386733 0.628282
vt 0.386733 0.628282
vt 0.386859 0.562636
vt 0.386859 0.562637
vt 0.430201 0.510531
vt 0.430201 0.510531
vt 0.500204 0.491869
vt 0.500204 0.491869
vt 0.570129 0.513778
vt 0.570129 0.513778
vt 0.500000 0.598086
vt 0.499991 0.598248
vt 0.499829 0.672792
vt 0.448701 0.660013
vt 0.420529 0.619432
vt 0.417175 0.572235
vt 0.450990 0.536810
vt 0.500099 0.520569
vt 0.549222 0.539110
vt 0.447201 0.661560
vt 0.499846 0.678055
vt 0.414723 0.620820
vt 0.414819 0.571397
vt 0.447450 0.532168
vt 0.500154 0.518118
vt 0.552799 0.534613
vt 0.490357 0.148625
vt 0.490357 0.142908
vt 0.041911 0.142908
vt 0.041911 0.148625
vt 0.490357 0.135840
vt 0.041911 0.135840
vt 0.490357 0.130122
vt 0.041911 0.130122
vt 0.490357 0.127938
vt 0.041911 0.127938
vt 0.490357 0.130122
vt 0.041911 0.130122
vt 0.490357 0.135840
vt 0.041911 0.135840
vt 0.490357 0.142908
vt 0.041911 0.142908
vt 0.490357 0.148625
vt 0.041911 0.148625
vt 0.490357 0.150809
vt 0.041911 0.150809
vt 0.490357 0.139374
vt 0.041911 0.139374
vt 0.487823 0.079356
vt 0.487823 0.072819
vt 0.044650 0.072819
vt 0.044650 0.079356
vt 0.487823 0.064738
vt 0.044650 0.064738
vt 0.487823 0.058200
vt 0.044650 0.058200
vt 0.487823 0.055703
vt 0.044650 0.055703
vt 0.487823 0.058200
vt 0.044650 0.058200
vt 0.487823 0.064738
vt 0.044650 0.064738
vt 0.487823 0.072819
vt 0.044650 0.072819
vt 0.487823 0.079356
vt 0.044650 0.079356
vt 0.487823 0.081854
vt 0.044650 0.081854
vt 0.487823 0.068778
vt 0.044650 0.068778
vn -0.000000 0.000000 1.000000
vn -0.000000 0.000000 1.000000
vn -0.000000 0.000000 1.000000
vn -0.000000 0.000000 1.000000
vn 0.000000 1.000000 0.000000
vn 0.000000 1.000000 0.000000
vn 0.000000 1.000000 0.000000
vn 0.000000 1.000000 0.000000
vn -0.000000 0.000000 -1.000000
vn 0.000000 0.000000 -1.000000
vn 0.000000 0.000000 -1.000000
vn -0.000000 0.000000 -1.000000
vn -0.000000 -1.000000 0.000000
vn -0.000000 -1.000000 0.000000
vn 0.000000 -1.000000 0.000000
vn 0.000000 -1.000000 0.000000
vn 1.000000 -0.000000 -0.000000
vn 1.000000 -0.000000 -0.000000
vn 1.000000 -0.000000 -0.000000
vn 1.000000 -0.000000 -0.000000
vn -1.000000 0.000000 -0.000000
vn -1.000000 0.000000 -0.000000
vn -1.000000 -0.000000 -0.000000
vn -1.000000 -0.000000 -0.000000
vn -0.000000 0.000000 1.000000
vn -0.000000 0.000000 1.000000
vn -0.000000 0.000000 1.000000
vn -0.000000 0.000000 1.000000
vn 1.000000 0.000000 0.000000
vn 1.000000 0.000000 0.000000
vn -0.000000 0.000000 -1.000000
vn -0.000000 0.000000 -1.000000
vn -1.000000 0.000000 -0.000000
vn -1.000000 0.000000 -0.000000
vn 0.000000 0.000000 -1.000000
vn 0.000000 0.000000 -1.000000
vn 1.000000 0.000000 -0.000000
vn 1.000000 0.000000 -0.000000
vn 0.000000 0.000000 1.000000
vn 0.000000 0.000000 1.000000
vn 0.000000 0.000000 1.000000
vn 0.000000 0.000000 1.000000
vn -1.000000 -0.000000 -0.000000
vn -1.000000 -0.000000 -0.000000
vn 0.000000 0.000000 1.000000
vn 0.000000 0.000000 1.000000
vn 0.000000 0.000000 1.000000
vn 0.000000 0.000000 1.000000
vn 0.106413 0.047017 0.993210
vn 0.106413 0.047017 0.993210
vn 0.106413 0.047017 0.993210
vn 0.106413 0.047017 0.993210
vn 0.000000 0.000000 1.000000
vn 0.000000 0.000000 1.000000
vn 0.000000 0.000000 1.000000
vn 0.000000 0.000000 1.000000
vn 0.000000 0.000000 1.000000
vn 0.000000 0.000000 1.000000
vn 0.000000 0.000000 1.000000
vn 0.000000 0.000000 1.000000
vn -0.000000 -1.000000 0.000000
vn -0.000000 -1.000000 0.000000
vn 0.000000 0.000000 -1.000000
vn 0.000000 0.000000 -1.000000
vn 0.000000 0.000000 -1.000000
vn 0.000000 0.000000 -1.000000
vn 0.000000 1.000000 0.000000
vn 0.000000 1.000000 0.000000
vn 0.000000 0.000000 1.000000
vn 0.000000 0.000000 1.000000
vn 0.000000 0.000000 1.000000
vn 0.000000 0.000000 1.000000
vn 0.000000 0.000000 1.000000
vn 0.000000 0.000000 1.000000
vn 0.000000 0.000000 1.000000
vn 0.000000 0.000000 1.000000
vn 0.011447 -0.003369 0.999929
vn 0.011447 -0.003369 0.999929
vn 0.011447 -0.003369 0.999929
vn 0.011447 -0.003369 0.999929
vn 0.000000 0.000000 1.000000
vn 0.000000 0.000000 1.000000
vn 0.000000 0.000000 1.000000
vn 0.000000 0.000000 1.000000
vn -0.000000 0.000000 1.000000
vn -0.000000 0.000000 1.000000
vn -0.000000 0.000000 1.000000
vn -0.000000 0.000000 1.000000
vn 0.000000 0.000000 1.000000
vn 0.000000 0.000000 1.000000
vn 0.000000 0.000000 1.000000
vn 0.000000 0.000000 1.000000
vn 0.000000 0.000000 1.000000
vn 0.000000 0.000000 1.000000
vn 0.000000 0.000000 1.000000
vn 0.000000 0.000000 1.000000
vn 0.000000 0.000000 1.000000
vn 0.000000 0.000000 1.000000
vn 0.000000 0.000000 1.000000
vn 0.000000 0.000000 1.000000
vn -0.000000 0.000000 1.000000
vn -0.000000 0.000000 1.000000
vn -0.000000 0.000000 1.000000
vn -0.000000 0.000000 1.000000
vn -0.378639 0.911528 0.160468
vn -0.378639 0.911528 0.160468
vn -0.378640 0.911528 0.160468
vn -0.378639 0.911528 0.160468
vn -0.962731 0.000000 0.270461
vn -0.962731 0.000000 0.270461
vn -0.962731 0.000000 0.270461
vn -0.962731 0.000000 0.270461
vn -0.378640 -0.911528 0.160467
vn -0.378640 -0.911528 0.160467
vn -0.378640 -0.911528 0.160467
vn -0.378640 -0.911528 0.160467
vn 0.000000 0.992011 0.126153
vn 0.000000 0.992011 0.126153
vn 0.000000 0.992011 0.126153
vn 0.000000 0.992011 0.126153
vn 0.000000 -0.992011 0.126154
vn 0.000000 -0.992011 0.126154
vn 0.000000 -0.992011 0.126154
vn 0.000000 -0.992011 0.126154
vn 0.962731 0.000000 0.270460
vn 0.962731 0.000000 0.270460
vn 0.962731 0.000000 0.270460
vn 0.962731 0.000000 0.270460
vn 0.000000 -1.000000 0.000001
vn 0.000000 -1.000000 0.000001
vn 0.000000 -1.000000 0.000001
vn 0.000000 -1.000000 0.000001
vn 0.766459 0.521480 0.374965
vn 0.766459 0.521480 0.374965
vn 0.766459 0.521480 0.374965
vn 0.766459 0.521480 0.374965
vn -0.325226 0.836472 0.441070
vn -0.325226 0.836472 0.441070
vn -0.325226 0.836472 0.441070
vn -0.325226 0.836472 0.441070
vn 0.000000 -1.000000 0.000000
vn 0.000000 -1.000000 0.000000
vn 0.000000 -1.000000 0.000000
vn 0.000000 -1.000000 0.000000
vn 0.000000 0.895618 0.444824
vn 0.000000 0.895618 0.444824
vn 0.000000 0.895618 0.444824
vn 0.000000 0.895618 0.444824
vn -0.928209 0.361093 0.089672
vn -0.928209 0.361093 0.089672
vn -0.928209 0.361093 0.089672
vn -0.928209 0.361093 0.089672
vn 0.000000 1.000000 0.000000
vn 0.000000 1.000000 0.000000
vn 0.000000 1.000000 0.000000
vn 0.000000 1.000000 0.000000
vn -0.341935 -0.835000 0.431110
vn -0.341935 -0.835000 0.431110
vn -0.341935 -0.835000 0.431110
vn -0.341935 -0.835000 0.431110
vn 0.807930 -0.521978 0.273475
vn 0.807930 -0.521978 0.273475
vn 0.807930 -0.521978 0.273475
vn 0.807930 -0.521978 0.273475
vn 0.000000 1.000000 -0.000000
vn 0.000000 1.000000 -0.000000
vn 0.000000 1.000000 -0.000000
vn 0.000000 1.000000 -0.000000
vn -0.925459 -0.364640 0.102781
vn -0.925459 -0.364640 0.102781
vn -0.925459 -0.364640 0.102781
vn -0.925459 -0.364640 0.102781
vn 0.000000 -0.871114 0.491081
vn 0.000000 -0.871114 0.491081
vn 0.000000 -0.871114 0.491081
vn 0.000000 -0.871114 0.491081
vn -0.004834 -0.018710 0.999813
vn 0.007330 -0.004789 0.999962
vn -0.001479 -0.015931 0.999872
vn -0.033652 -0.003744 0.999427
vn 0.013924 0.023309 0.999631
vn 0.012370 0.009461 0.999879
vn -0.113325 0.052505 0.992170
vn 0.012929 0.027219 0.999546
vn 0.733374 0.579298 0.355775
vn 0.733374 0.579298 0.355775
vn 0.733374 0.579298 0.355775
vn 0.733374 0.579298 0.355775
vn -0.660163 0.380176 0.647805
vn -0.660163 0.380176 0.647805
vn -0.660163 0.380176 0.647805
vn -0.660163 0.380176 0.647805
vn -0.665653 -0.656843 0.354207
vn -0.665653 -0.656843 0.354207
vn -0.665653 -0.656843 0.354207
vn -0.665653 -0.656843 0.354207
vn 0.005043 -0.727617 0.685965
vn 0.005043 -0.727617 0.685965
vn 0.005043 -0.727617 0.685965
vn 0.005043 -0.727617 0.685965
vn 0.650793 0.511426 0.561170
vn 0.650793 0.511426 0.561170
vn 0.650793 0.511426 0.561170
vn 0.650793 0.511426 0.561170
vn -0.351536 0.206733 0.913063
vn -0.351536 0.206732 0.913063
vn 0.210299 -0.112217 0.971175
vn 0.047295 -0.019346 0.998694
vn -0.527631 -0.527336 0.665975
vn -0.527631 -0.527336 0.665975
vn -0.527631 -0.527336 0.665975
vn -0.527631 -0.527336 0.665975
vn 0.006403 -0.491017 0.871126
vn 0.006403 -0.491017 0.871126
vn 0.007331 -0.071636 0.997404
vn 0.006612 0.436696 0.899585
vn -0.762133 -0.608376 0.221432
vn -0.762133 -0.608376 0.221432
vn -0.762133 -0.608376 0.221432
vn -0.762133 -0.608376 0.221432
vn 0.708141 -0.398158 0.583101
vn 0.708141 -0.398158 0.583101
vn 0.688291 0.667907 0.283118
vn 0.688291 0.667907 0.283118
vn 0.688291 0.667907 0.283118
vn 0.688291 0.667907 0.283118
vn 0.003780 0.857599 0.514305
vn 0.003780 0.857599 0.514305
vn 0.000000 0.000000 1.000000
vn 0.000000 0.000000 1.000000
vn 0.000000 0.000000 1.000000
vn 0.000000 0.000000 1.000000
vn 0.000000 -0.000000 0.000000
vn 0.000002 -0.000000 1.000000
vn 0.000002 -0.000000 1.000000
vn 0.000002 -0.000000 1.000000
vn -0.000000 -0.000001 1.000000
vn -0.000000 -0.000001 1.000000
vn -0.000000 -0.000001 1.000000
vn -0.000000 -0.000001 1.000000
vn -0.000000 0.000000 1.000000
vn -0.000000 0.000000 1.000000
vn -0.000000 0.000000 1.000000
vn -0.000000 0.000000 1.000000
vn -0.000000 0.932961 0.359979
vn -0.000000 0.932961 0.359979
vn -0.000000 0.932961 0.359979
vn -0.000000 0.932961 0.359979
vn 0.872815 -0.055397 0.484896
vn 0.872815 -0.055397 0.484896
vn 0.872815 -0.055397 0.484896
vn 0.872815 -0.055397 0.484896
vn -0.000000 -1.000000 0.000000
vn -0.000000 -1.000000 0.000000
vn -0.000000 -1.000000 0.000000
vn -0.000000 -1.000000 0.000000
vn -0.941591 0.330661 0.063792
vn -0.941591 0.330661 0.063792
vn -0.941591 0.330661 0.063792
vn -0.941591 0.330661 0.063792
vn 0.000000 0.000000 1.000000
vn 0.000000 0.000000 1.000000
vn 0.000000 0.000000 1.000000
vn 0.041013 -0.587410 0.808250
vn 0.041013 -0.587410 0.808250
vn 0.017462 -0.250100 0.968063
vn 0.023000 -0.329422 0.943903
vn 0.000000 0.000000 1.000000
vn 0.000000 0.000000 1.000000
vn 0.000000 0.000000 1.000000
vn 0.000000 0.000000 1.000000
vn 0.000000 0.000000 1.000000
vn 0.000000 0.000000 1.000000
vn 0.030100 0.976332 0.214172
vn 0.044624 0.976062 0.212866
vn 0.000000 0.976231 0.216734
vn 0.000000 0.976231 0.216734
vn 0.540822 -0.199894 0.817040
vn 0.540822 -0.199894 0.817040
vn 0.485429 -0.358522 0.797384
vn 0.504960 -0.308097 0.806283
vn 0.303847 -0.598993 0.740867
vn 0.346540 -0.561740 0.751238
vn 0.000000 0.976231 0.216734
vn 0.000000 0.976231 0.216734
vn 0.163623 -0.638169 0.752308
vn 0.152437 -0.618639 0.770745
vn 0.082605 -0.490410 0.867568
vn 0.082605 -0.490410 0.867568
vn 0.000000 0.000000 1.000000
vn 0.000000 0.000000 1.000000
vn 0.000000 0.000000 1.000000
vn 0.000000 0.000000 1.000000
vn 0.340090 0.923795 0.175903
vn 0.340090 0.923795 0.175903
vn -0.341774 0.939782 0.000000
vn -0.615241 0.788339 0.000000
vn -0.615241 0.788339 0.000000
vn -0.341774 0.939782 0.000000
vn -0.955312 0.295601 0.000000
vn -0.955312 0.295601 0.000000
vn -0.952962 -0.303089 0.000000
vn -0.952962 -0.303089 0.000000
vn -0.586799 -0.809733 0.000000
vn -0.586799 -0.809733 0.000000
vn 0.026924 -0.999637 -0.000000
vn 0.026924 -0.999637 -0.000000
vn 0.341773 -0.939783 -0.000000
vn 0.341773 -0.939783 -0.000000
vn -0.000000 0.000000 -1.000000
vn -0.000000 0.000000 -1.000000
vn 0.000000 0.000000 -1.000000
vn -0.000000 0.000000 -1.000000
vn 0.000000 0.000000 -1.000000
vn 0.000000 0.000000 -1.000000
vn 0.000000 0.000000 -1.000000
vn 0.000000 0.000000 -1.000000
vn 0.000000 0.000000 1.000000
vn 0.086116 -0.263002 0.960944
vn 0.170240 -0.218485 0.960876
vn 0.252166 -0.078424 0.964501
vn 0.263970 0.083300 0.960927
vn 0.152088 0.209023 0.966012
vn -0.007448 0.274093 0.961674
vn -0.096405 0.241255 0.965661
vn 0.000000 0.000000 1.000000
vn 0.000000 0.000000 1.000000
vn 0.000000 0.000000 1.000000
vn 0.000000 0.000000 1.000000
vn -0.000000 0.000000 1.000000
vn -0.000000 0.000000 1.000000
vn -0.000000 0.000000 1.000000
vn -0.000000 0.000000 1.000000
vn 0.000000 0.000000 1.000000
vn 0.000000 0.000000 1.000000
vn 0.000000 0.000000 1.000000
vn 0.000000 0.000000 1.000000
vn 0.000000 0.000000 1.000000
vn 0.000000 0.000000 1.000000
vn 0.000000 0.000000 1.000000
vn 0.000000 0.000000 1.000000
vn 0.000000 0.000000 1.000000
vn 0.000000 0.000000 1.000000
vn 0.000000 0.000000 1.000000
vn 0.000000 0.000000 1.000000
vn 0.000000 0.000000 1.000000
vn 0.000000 0.000000 1.000000
vn 0.000000 0.000000 1.000000
vn 0.000000 0.000000 1.000000
vn 0.304786 -0.930826 0.201663
vn 0.601925 -0.769433 0.213679
vn 0.934102 -0.287438 0.211740
vn 0.928254 0.297393 0.223388
vn 0.568688 0.789959 0.229257
vn -0.026109 0.971007 0.237621
vn -0.361768 0.905328 0.222496
vn 0.020502 0.808855 -0.587650
vn 0.020502 0.308955 -0.950856
vn -0.020502 0.308955 -0.950856
vn -0.020502 0.808855 -0.587650
vn 0.020502 -0.308950 -0.950857
vn -0.020502 -0.308950 -0.950857
vn 0.020502 -0.808843 -0.587667
vn -0.020502 -0.808843 -0.587667
vn 0.020502 -0.999790 -0.000000
vn -0.020502 -0.999790 0.000000
vn 0.020502 -0.808840 0.587671
vn -0.020502 -0.808840 0.587671
vn 0.020502 -0.308950 0.950857
vn -0.020502 -0.308950 0.950857
vn 0.020502 0.308955 0.950856
vn -0.020502 0.308955 0.950856
vn 0.020503 0.808852 0.587654
vn -0.020503 0.808852 0.587654
vn 0.020502 0.999790 0.000000
vn -0.020502 0.999790 0.000000
vn 1.000000 -0.000000 -0.000000
vn -1.000000 -0.000000 0.000000
vn 0.020502 0.808853 -0.587653
vn 0.020502 0.308957 -0.950855
vn -0.020502 0.308957 -0.950855
vn -0.020502 0.808853 -0.587653
vn 0.020502 -0.308951 -0.950857
vn -0.020502 -0.308951 -0.950857
vn 0.020502 -0.808839 -0.587672
vn -0.020502 -0.808839 -0.587673
vn 0.020502 -0.999790 -0.000000
vn -0.020502 -0.999790 0.000000
vn 0.020502 -0.808836 0.587676
vn -0.020502 -0.808836 0.587676
vn 0.020502 -0.308951 0.950857
vn -0.020502 -0.308951 0.950857
vn 0.020502 0.308957 0.950855
vn -0.020502 0.308957 0.950855
vn 0.020502 0.808850 0.587657
vn -0.020502 0.808851 0.587657
vn 0.020502 0.999790 0.000000
vn -0.020502 0.999790 0.000000
vn 1.000000 -0.000000 -0.000000
vn -1.000000 -0.000000 0.000000
vn 0.952966 0.303078 -0.000237
vn 0.952966 0.303078 -0.000237
vn 0.952966 0.303078 -0.000237
vn 0.952966 0.303078 -0.000237
vn 0.952966 0.303078 -0.000237
vn 0.952966 0.303078 -0.000237
vn 0.952966 0.303078 -0.000237
vn 0.952966 0.303078 -0.000237
vn 0.952966 0.303078 -0.000237
vn 0.952966 0.303078 -0.000237
s 1
g left_door
usemtl initialShadingGroup
f 37/1/1 38/2/2 39/3/3 40/4/4
s 2
f 25/5/5 26/6/6 4/7/7 6/8/8
s 3
f 23/9/9 24/10/10 14/11/11 11/12/12
s 4
f 21/13/13 22/14/14 8/15/15 2/16/16
s 5
f 10/17/17 11/12/18 14/11/19 15/18/20
s 6
f 12/19/21 9/20/22 16/21/23 13/22/24
s off
f 75/23/25 78/24/26 77/25/27 76/26/28
s 5
f 2/16/29 8/15/30 11/12/18 10/17/17
s 3
f 22/14/31 23/9/9 11/12/12 8/15/32
s 6
f 7/27/33 1/28/34 9/20/22 12/19/21
s 3
f 24/10/10 25/5/35 6/8/36 14/11/11
s 5
f 15/18/20 14/11/19 6/8/37 4/7/38
s 7
f 84/29/39 87/30/40 86/31/41 85/32/42
s 6
f 13/22/24 16/21/23 3/33/43 5/34/44
s 8
f 43/35/45 44/36/46 45/37/47 46/38/48
s off
f 10/17/49 15/18/50 19/39/51 18/40/52
s 9
f 49/41/53 50/42/54 51/43/55 52/44/56
s off
f 16/21/57 9/20/58 17/45/59 20/46/60
s 4
f 7/27/61 22/14/14 21/13/13 1/28/62
s 3
f 12/19/63 23/9/9 22/14/31 7/27/64
f 13/22/65 24/10/10 23/9/9 12/19/63
f 5/34/66 25/5/35 24/10/10 13/22/65
s 2
f 3/33/67 26/6/6 25/5/5 5/34/68
s 7
f 88/47/69 87/30/40 84/29/39 89/48/70
s 9
f 51/43/55 50/42/54 53/49/71 54/50/72
s 1
f 41/51/73 38/2/2 37/1/1 42/52/74
s 8
f 47/53/75 44/36/46 43/35/45 48/54/76
s off
f 67/55/77 68/56/78 69/57/79 70/58/80
f 29/59/81 18/40/82 33/60/83 32/61/84
f 18/40/85 19/39/86 34/62/87 33/60/88
f 19/39/89 28/63/90 31/64/91 34/62/92
f 17/45/93 29/59/94 32/61/95 35/65/96
f 28/63/97 20/46/98 36/66/99 31/64/100
f 20/46/101 17/45/102 35/65/103 36/66/104
f 32/61/105 33/60/106 39/3/107 38/2/108
f 33/60/109 34/62/110 40/4/111 39/3/112
f 34/62/113 31/64/114 37/1/115 40/4/116
f 35/65/117 32/61/118 38/2/119 41/51/120
f 31/64/121 36/66/122 42/52/123 37/1/124
f 36/66/125 35/65/126 41/51/127 42/52/128
f 30/67/129 10/17/130 45/37/131 44/36/132
f 10/17/133 18/40/134 46/38/135 45/37/136
f 18/40/137 29/59/138 43/35/139 46/38/140
f 9/20/141 30/67/142 44/36/143 47/53/144
f 29/59/145 17/45/146 48/54/147 43/35/148
f 17/45/149 9/20/150 47/53/151 48/54/152
f 15/18/153 27/68/154 50/42/155 49/41/156
f 28/63/157 19/39/158 52/44/159 51/43/160
f 19/39/161 15/18/162 49/41/163 52/44/164
f 27/68/165 16/21/166 53/49/167 50/42/168
f 16/21/169 20/46/170 54/50/171 53/49/172
f 20/46/173 28/63/174 51/43/175 54/50/176
s 10
f 1/28/177 21/13/178 56/69/179 55/70/180
f 21/13/178 30/67/181 57/71/182 56/69/179
f 30/67/181 9/20/183 58/72/184 57/71/182
f 9/20/183 1/28/177 55/70/180 58/72/184
s off
f 55/70/185 56/69/186 60/73/187 59/74/188
f 56/69/189 57/71/190 61/75/191 60/73/192
f 57/71/193 58/72/194 62/76/195 61/75/196
f 58/72/197 55/70/198 59/74/199 62/76/200
f 59/74/201 60/73/202 64/77/203 63/78/204
s 11
f 60/73/205 61/75/206 65/79/207 64/77/208
s off
f 61/75/209 62/76/210 66/80/211 65/79/212
s 12
f 62/76/213 59/74/214 63/78/215 66/80/216
s off
f 63/78/217 64/77/218 68/56/219 67/55/220
s 11
f 64/77/208 65/79/207 69/57/221 68/56/222
s off
f 65/79/223 66/80/224 70/58/225 69/57/226
s 12
f 66/80/216 63/78/215 67/55/227 70/58/228
s off
f 30/67/229 71/81/230 72/82/231 10/17/232
f 10/17/233 72/82/234 73/83/235 2/16/236
f 2/16/237 73/83/238 74/84/239 21/13/240
f 21/13/241 74/84/242 71/81/243 30/67/244
f 71/81/245 75/23/246 76/26/247 72/82/248
f 72/82/249 76/26/250 77/25/251 73/83/252
f 73/83/253 77/25/254 78/24/255 74/84/256
f 74/84/257 78/24/258 75/23/259 71/81/260
s 7
f 90/85/261 84/29/39 85/32/42 91/86/262
f 91/86/262 85/32/42 86/31/41 92/87/263
s 13
f 15/18/264 80/88/265 81/89/266 27/68/267
f 16/21/268 82/90/269 83/91/270 3/33/271
f 3/33/271 83/91/270 79/92/272 26/6/273
f 27/68/267 81/89/266 82/90/269 16/21/268
s 14
f 80/88/274 86/31/275 87/30/276 81/89/277
s 15
f 82/90/278 88/47/279 89/48/280 83/91/281
f 83/91/281 89/48/280 84/29/282 79/92/283
s 14
f 81/89/277 87/30/276 88/47/284 82/90/285
s 15
f 26/6/286 90/85/287 91/86/288 4/7/289
f 79/92/283 84/29/282 90/85/287 26/6/286
s off
f 4/7/290 91/86/291 92/87/292 15/18/293
s 14
f 15/18/294 92/87/295 86/31/275 80/88/274
s 16
f 114/93/296 93/94/297 98/95/298 113/96/299
f 93/94/297 94/97/300 99/98/301 98/95/298
f 94/97/300 95/99/302 100/100/303 99/98/301
f 95/99/302 96/101/304 101/102/305 100/100/303
f 96/101/304 97/103/306 102/104/307 101/102/305
f 97/103/306 115/105/308 116/106/309 102/104/307
s 17
f 93/94/310 114/93/311 117/107/312 94/97/313
f 95/99/314 94/97/313 117/107/312 96/101/315
f 97/103/316 96/101/315 117/107/312 115/105/317
s 18
f 118/108/318 119/109/319 108/110/320 109/111/321
f 118/108/318 109/111/321 110/112/322 111/113/323
f 118/108/318 111/113/323 112/114/324 120/115/325
s off
f 113/96/326 98/95/327 103/116/328 121/117/329
f 98/95/330 99/98/331 104/118/332 103/116/333
f 99/98/334 100/100/335 105/119/336 104/118/337
f 100/100/338 101/102/339 106/120/340 105/119/341
f 101/102/342 102/104/343 107/121/344 106/120/345
f 102/104/346 116/106/347 122/122/348 107/121/349
s 18
f 121/117/350 103/116/351 108/110/320 119/109/319
f 103/116/351 104/118/352 109/111/321 108/110/320
f 104/118/352 105/119/353 110/112/322 109/111/321
f 105/119/353 106/120/354 111/113/323 110/112/322
f 106/120/354 107/121/355 112/114/324 111/113/323
f 107/121/355 122/122/356 120/115/325 112/114/324
s 19
f 123/123/357 124/124/358 134/125/359 133/126/360
f 124/124/358 125/127/361 135/128/362 134/125/359
f 125/127/361 126/129/363 136/130/364 135/128/362
f 126/129/363 127/131/365 137/132/366 136/130/364
f 127/131/365 128/133/367 138/134/368 137/132/366
f 128/133/367 129/135/369 139/136/370 138/134/368
f 129/135/369 130/137/371 140/138/372 139/136/370
f 130/137/371 131/139/373 141/140/374 140/138/372
f 131/139/373 132/141/375 142/142/376 141/140/374
f 132/141/375 123/123/357 133/126/360 142/142/376
f 124/124/358 123/123/357 143/143/377 125/127/361
f 126/129/363 125/127/361 143/143/377 127/131/365
f 128/133/367 127/131/365 143/143/377 129/135/369
f 130/137/371 129/135/369 143/143/377 131/139/373
f 132/141/375 131/139/373 143/143/377 123/123/357
f 144/144/378 133/126/360 134/125/359 135/128/362
f 144/144/378 135/128/362 136/130/364 137/132/366
f 144/144/378 137/132/366 138/134/368 139/136/370
f 144/144/378 139/136/370 140/138/372 141/140/374
f 144/144/378 141/140/374 142/142/376 133/126/360
s 20
f 145/145/379 146/146/380 156/147/381 155/148/382
f 146/146/380 147/149/383 157/150/384 156/147/381
f 147/149/383 148/151/385 158/152/386 157/150/384
f 148/151/385 149/153/387 159/154/388 158/152/386
f 149/153/387 150/155/389 160/156/390 159/154/388
f 150/155/389 151/157/391 161/158/392 160/156/390
f 151/157/391 152/159/393 162/160/394 161/158/392
f 152/159/393 153/161/395 163/162/396 162/160/394
f 153/161/395 154/163/397 164/164/398 163/162/396
f 154/163/397 145/145/379 155/148/382 164/164/398
f 146/146/380 145/145/379 165/165/399 147/149/383
f 148/151/385 147/149/383 165/165/399 149/153/387
f 150/155/389 149/153/387 165/165/399 151/157/391
f 152/159/393 151/157/391 165/165/399 153/161/395
f 154/163/397 153/161/395 165/165/399 145/145/379
f 166/166/400 155/148/382 156/147/381 157/150/384
f 166/166/400 157/150/384 158/152/386 159/154/388
f 166/166/400 159/154/388 160/156/390 161/158/392
f 166/166/400 161/158/392 162/160/394 163/162/396
f 166/166/400 163/162/396 164/164/398 155/148/382
s off
f 113/96/401 121/117/402 119/109/403 118/108/404 120/115/405 122/122/406 116/106/407 115/105/408 117/107/409 114/93/410
