# File produced by Open Asset Import Library (http://www.assimp.sf.net)
# (assimp v3.1.151580502)

mtllib Chair.mtl

# 474 vertex positions
v  0.0663734 1.29658 0.0911283
v  0.0663734 0.95643 0.0774721
v  0.166235 0.95643 0.150793
v  0.166235 1.29658 0.0911283
v  0.0663734 1.29008 0.0279721
v  0.166235 1.29079 0.0236366
v  0.0663734 0.95643 -0.062629
v  0.0663734 1.30242 -0.0967918
v  0.166235 1.30242 -0.0967918
v  0.166235 0.95643 -0.16422
v  -0.903425 0.853582 -0.417796
v  -0.903425 0.853582 0.417796
v  -0.928402 0.878559 0.417796
v  -0.928402 0.878559 -0.417796
v  0.22105 0.878559 0.442774
v  -0.903425 0.878559 0.442774
v  0.22105 0.853582 0.417796
v  -0.928402 0.928524 0.417796
v  -0.903425 0.928524 0.442774
v  0.246027 0.878559 -0.417796
v  0.246027 0.878559 0.417796
v  0.22105 0.853582 -0.417796
v  0.22105 0.928524 0.442774
v  0.246027 0.928524 0.417796
v  -0.928402 0.928524 -0.417796
v  -0.903425 0.953501 0.417796
v  -0.903425 0.953501 -0.417796
v  0.22105 0.953501 0.417796
v  0.22105 0.953501 -0.417796
v  0.246027 0.928524 -0.417796
v  -0.903425 0.928524 -0.442774
v  -0.903425 0.878559 -0.442774
v  0.22105 0.928524 -0.442774
v  0.22105 0.878559 -0.442774
v  -0.735365 0.788794 -0.252617
v  -0.818088 0.114076 -0.356971
v  -0.818455 0.114447 -0.475821
v  -0.735732 0.793712 -0.371467
v  -0.85477 0.792633 -0.250011
v  -0.855137 0.79899 -0.368862
v  -0.937492 0.115035 -0.354365
v  -0.937859 0.115392 -0.473215
v  -0.876972 0.856199 0.396243
v  -0.90969 0.793425 0.410643
v  0.242594 0.793425 0.410643
v  0.2314 0.859033 0.449462
v  -0.903016 0.852022 -0.41975
v  0.219915 0.861156 -0.441283
v  -0.90969 0.793425 -0.427775
v  0.242594 0.793425 -0.410643
v  -0.725927 0.788794 0.258527
v  -0.830455 0.114076 0.341029
v  -0.949306 0.114447 0.341145
v  -0.844778 0.793712 0.258643
v  -0.723574 0.792633 0.377937
v  -0.842425 0.79899 0.378053
v  -0.828102 0.115035 0.460439
v  -0.946953 0.115392 0.460554
v  0.0901307 0.788794 -0.26375
v  0.195885 0.114076 -0.344674
v  0.314724 0.114447 -0.343006
v  0.20897 0.793712 -0.262082
v  0.0895696 0.792633 -0.383181
v  0.208409 0.79899 -0.381514
v  0.195324 0.115035 -0.464105
v  0.314163 0.115392 -0.462437
v  0.0892209 0.79099 0.379416
v  0.145227 0.445248 0.42529
v  0.201234 0.111351 0.471164
v  0.26055 0.114234 0.471164
v  0.319866 0.117187 0.471164
v  0.26386 0.465147 0.42529
v  0.207853 0.799045 0.379416
v  0.148537 0.793566 0.379416
v  0.149873 0.781131 0.319816
v  0.0905568 0.792048 0.319816
v  0.261886 0.113336 0.411564
v  0.20257 0.110634 0.411564
v  0.203906 0.110002 0.351964
v  0.263222 0.111815 0.351964
v  0.321202 0.114823 0.411564
v  0.322538 0.113859 0.351964
v  0.266532 0.449218 0.30609
v  0.210525 0.792177 0.260216
v  0.209189 0.793953 0.319816
v  0.151209 0.793155 0.260216
v  0.0918927 0.792587 0.260216
v  0.147899 0.429319 0.30609
v  0.0950516 1.5743 0.412484
v  0.101651 1.65927 0.433498
v  0.0881199 1.65946 0.432768
v  0.0793617 1.57691 0.412595
v  0.0771224 1.65957 0.405369
v  0.0673095 1.58012 0.387463
v  0.0675577 1.5041 0.373292
v  0.0535017 1.50793 0.351353
v  0.0866811 1.50006 0.372662
v  0.098538 2.05626 0.0719405
v  0.098538 2.05626 -0.00142949
v  0.0829647 2.05626 -0.00142949
v  0.0829647 2.05626 0.0719405
v  0.0709526 2.03061 -0.00158759
v  0.0711822 2.02986 0.0748145
v  0.0829647 2.05626 0.143881
v  0.0714751 2.02915 0.149645
v  0.098538 2.05626 0.143881
v  0.0960043 1.75432 -0.424825
v  0.0938408 1.66345 -0.445704
v  0.0762528 1.66363 -0.445871
v  0.0792754 1.75445 -0.424659
v  0.0631412 1.66342 -0.418353
v  0.066719 1.75383 -0.398491
v  0.0804875 1.85432 -0.386928
v  0.0682218 1.85354 -0.363137
v  0.0968224 1.85387 -0.387177
v  0.0748764 1.29205 -0.0948245
v  0.0748858 1.26987 -0.00972591
v  0.0472034 1.2691 -0.0109765
v  0.0472033 1.29127 -0.0957954
v  0.0291355 1.29295 -0.0112229
v  0.0290774 1.31372 -0.0969117
v  0.0471848 1.33103 -0.18297
v  0.0290993 1.35108 -0.185095
v  0.0748301 1.33182 -0.182295
v  0.18865 1.5752 0.209783
v  0.191216 1.65892 0.221305
v  0.191298 1.66082 0.331835
v  0.188661 1.58129 0.317618
v  0.187592 1.66277 0.414307
v  0.184975 1.58472 0.399038
v  0.189258 1.50572 0.289669
v  0.185544 1.51392 0.365346
v  0.189242 1.49258 0.190011
v  0.050906 1.57517 -0.214807
v  0.0588121 1.65858 -0.224374
v  0.0587943 1.66127 -0.335136
v  0.0507997 1.58449 -0.324413
v  0.0553905 1.59033 -0.407716
v  0.0405475 1.51369 -0.303106
v  0.0456182 1.52627 -0.382542
v  0.040707 1.49457 -0.199388
v  0.144482 1.51494 0.385467
v  0.127831 1.51244 0.382534
v  0.127136 1.44375 0.346251
v  0.144681 1.44568 0.349135
v  0.126771 1.38521 0.299659
v  0.144873 1.38623 0.30218
v  0.159738 1.44617 0.351228
v  0.160036 1.38689 0.304493
v  0.159394 1.51527 0.387214
v  0.166335 1.76451 0.412676
v  0.160744 1.66459 0.438896
v  0.176146 1.66419 0.440494
v  0.183854 1.7616 0.414964
v  0.196569 1.75586 0.392046
v  0.193928 1.86512 0.370301
v  0.208717 1.85629 0.351121
v  0.173361 1.86971 0.367645
v  0.11546 1.85753 0.370788
v  0.131593 1.85809 0.371218
v  0.132176 1.95769 0.329274
v  0.114777 1.95734 0.32909
v  0.132552 2.03162 0.280155
v  0.114278 2.03153 0.280109
v  0.0999365 1.95814 0.328413
v  0.0988876 2.03173 0.27994
v  0.101363 1.85869 0.369617
v  0.157228 2.05626 0.143881
v  0.132677 2.05626 0.143881
v  0.132677 2.05626 0.215821
v  0.157228 2.05626 0.215822
v  0.156585 2.03272 0.27977
v  0.184771 2.05626 0.215822
v  0.183411 2.03354 0.279508
v  0.184771 2.05626 0.143881
v  0.184771 2.05626 -0.0776584
v  0.184771 2.05626 -0.00142949
v  0.212314 2.05626 -0.00142949
v  0.212314 2.05626 -0.0776584
v  0.229661 2.03071 -0.00126627
v  0.229596 2.03024 -0.0803391
v  0.212314 2.05626 -0.155317
v  0.229527 2.02973 -0.160552
v  0.184771 2.05626 -0.155317
v  0.114111 2.05626 -0.155317
v  0.132677 2.05626 -0.155317
v  0.132677 2.05626 -0.232975
v  0.114111 2.05626 -0.232975
v  0.13248 2.03161 -0.300563
v  0.113995 2.03102 -0.300777
v  0.098538 2.05626 -0.232975
v  0.0983216 2.03088 -0.300818
v  0.098538 2.05626 -0.155317
v  0.151729 1.86606 -0.38279
v  0.131015 1.85833 -0.385644
v  0.131889 1.95764 -0.348008
v  0.154655 1.96276 -0.346106
v  0.156584 2.03289 -0.300087
v  0.179328 1.96606 -0.344893
v  0.18341 2.03371 -0.299784
v  0.173357 1.87106 -0.380971
v  0.159085 1.59614 -0.435869
v  0.160736 1.66921 -0.445251
v  0.176143 1.66886 -0.445568
v  0.173881 1.5968 -0.435925
v  0.187597 1.66711 -0.417906
v  0.184979 1.59499 -0.407538
v  0.174347 1.5362 -0.409683
v  0.18555 1.53217 -0.382394
v  0.159411 1.53537 -0.409599
v  0.106139 1.52825 -0.407359
v  0.127443 1.53315 -0.409187
v  0.126975 1.47288 -0.383223
v  0.103958 1.4693 -0.382004
v  0.12673 1.41812 -0.341882
v  0.102632 1.41659 -0.341638
v  0.0786525 1.46663 -0.381173
v  0.0756442 1.4153 -0.3415
v  0.0832553 1.52471 -0.406112
v  0.145152 1.33436 -0.180702
v  0.126884 1.3335 -0.1812
v  0.126746 1.37332 -0.269342
v  0.145028 1.37418 -0.269112
v  0.144874 1.41913 -0.341907
v  0.16021 1.37502 -0.268847
v  0.160038 1.41991 -0.341827
v  0.160304 1.33519 -0.180151
v  0.160361 1.28592 0.0771367
v  0.160376 1.27301 -0.0047738
v  0.175445 1.27377 -0.00354811
v  0.175442 1.28665 0.0786292
v  0.186588 1.29841 -0.00230814
v  0.186584 1.31088 0.0813221
v  0.175419 1.31713 0.158438
v  0.186575 1.33972 0.163214
v  0.160308 1.31641 0.156656
v  0.10242 1.31408 0.150802
v  0.126885 1.31486 0.15276
v  0.126746 1.34536 0.231583
v  0.10229 1.34461 0.22935
v  0.102792 1.38338 0.296709
v  0.0747288 1.34387 0.227152
v  0.0760247 1.38193 0.293965
v  0.0748313 1.31332 0.148897
v  0.189273 1.47784 -0.0950729
v  0.189278 1.46675 -2.07559e-05
v  0.189891 1.37083 -0.00103753
v  0.189887 1.38749 -0.0910375
v  0.186586 1.3193 -0.0900374
v  0.189881 1.41781 -0.184634
v  0.186578 1.3568 -0.180398
v  0.189263 1.49843 -0.194079
v  0.200189 1.75062 -0.213964
v  0.19125 1.66081 -0.221514
v  0.191321 1.66406 -0.333649
v  0.200466 1.75301 -0.319493
v  0.196589 1.75791 -0.397512
v  0.213135 1.85054 -0.291813
v  0.208748 1.85781 -0.361865
v  0.212719 1.84717 -0.196154
v  0.21301 1.84887 0.0968934
v  0.213519 1.85298 -0.000188119
v  0.226614 1.95405 -0.000776618
v  0.226274 1.95134 0.0848935
v  0.229576 2.03003 0.0751787
v  0.225956 1.94879 0.168643
v  0.229496 2.0294 0.150072
v  0.212533 1.84501 0.191976
v  0.043149 1.47242 0.0875536
v  0.0410385 1.46327 -0.00709127
v  0.0303148 1.36604 -0.00945849
v  0.0314363 1.37759 0.0774201
v  0.0294159 1.30557 0.0705019
v  0.0327905 1.40175 0.163749
v  0.0297499 1.33453 0.150354
v  0.0457513 1.48945 0.182816
v  0.0694983 1.74671 0.207005
v  0.0669349 1.65692 0.214537
v  0.0708721 1.65841 0.323616
v  0.0728953 1.74873 0.309596
v  0.0787413 1.75273 0.385831
v  0.0711098 1.84685 0.280017
v  0.0762604 1.85318 0.347412
v  0.0688697 1.84331 0.188482
v  0.0640627 1.84926 -0.100621
v  0.0647352 1.85223 -0.00274564
v  0.0660627 1.95364 -0.0020619
v  0.0657095 1.95167 -0.0895409
v  0.0708643 2.03011 -0.080629
v  0.0656742 1.9494 -0.177208
v  0.0708555 2.02955 -0.16079
v  0.0640098 1.84583 -0.197896
v  0.0398985 1.43654 0.316276
v  0.0569958 1.43739 0.337304
v  0.0377619 1.3913 0.282428
v  0.0495588 1.382 0.292065
v  0.0801738 1.43496 0.337813
v  0.104594 1.43863 0.341636
v  0.107668 1.50516 0.377004
v  0.12884 1.58273 0.419682
v  0.111984 1.57778 0.415687
v  0.129924 1.6617 0.437058
v  0.115502 1.66016 0.435241
v  0.0717533 2.02976 0.223972
v  0.0829647 2.05626 0.215821
v  0.0754192 2.01104 0.273076
v  0.0835069 2.03149 0.279954
v  0.098538 2.05626 0.215821
v  0.114111 2.05626 0.215821
v  0.114111 2.05626 0.143881
v  0.132677 2.05626 0.0719405
v  0.114111 2.05626 0.0719405
v  0.132677 2.05626 -0.00142949
v  0.114111 2.05626 -0.00142949
v  0.0697476 1.95457 -0.327299
v  0.0817208 1.95507 -0.348864
v  0.0736297 2.01107 -0.292154
v  0.0826537 2.03097 -0.300777
v  0.0976722 1.95474 -0.34903
v  0.113645 1.95528 -0.348864
v  0.113189 1.85474 -0.386928
v  0.129971 1.75764 -0.423803
v  0.112754 1.75507 -0.424659
v  0.128937 1.66616 -0.445961
v  0.111617 1.66446 -0.445871
v  0.0290588 1.38824 -0.274305
v  0.0471291 1.37082 -0.270209
v  0.0360182 1.42045 -0.329058
v  0.0488294 1.41498 -0.341794
v  0.074728 1.37163 -0.269864
v  0.10229 1.37247 -0.269584
v  0.10242 1.33265 -0.181718
v  0.127005 1.29368 -0.0930547
v  0.102512 1.29286 -0.0939187
v  0.127063 1.27144 -0.00723495
v  0.102549 1.27065 -0.00847756
v  0.186123 1.44255 0.332336
v  0.189878 1.42762 0.264304
v  0.183497 1.39669 0.29818
v  0.186565 1.36792 0.24573
v  0.189867 1.40615 0.174113
v  0.189878 1.38213 0.0865062
v  0.189258 1.47562 0.0942275
v  0.188674 1.56187 0.00045771
v  0.188661 1.56657 0.104532
v  0.191386 1.65732 0.000515851
v  0.191298 1.65761 0.110944
v  0.0359755 1.46297 -0.358794
v  0.0300828 1.44207 -0.285837
v  0.0301891 1.41273 -0.190026
v  0.0300828 1.38257 -0.0982536
v  0.0405475 1.47421 -0.101727
v  0.0516028 1.55959 -0.0055292
v  0.0507997 1.56503 -0.10924
v  0.0597972 1.65592 -0.00445016
v  0.0587943 1.65679 -0.11422
v  0.175196 1.38761 0.306821
v  0.174814 1.44693 0.353469
v  0.174335 1.51601 0.389184
v  0.173876 1.58538 0.425046
v  0.15908 1.58479 0.423423
v  0.145171 1.66347 0.438014
v  0.144303 1.58448 0.421948
v  0.220849 1.95637 0.310399
v  0.203297 1.96228 0.328353
v  0.222228 2.01187 0.273843
v  0.21006 2.03277 0.279925
v  0.17933 1.96537 0.326685
v  0.154659 1.9621 0.327733
v  0.151738 1.86476 0.36906
v  0.130842 1.75646 0.414025
v  0.148112 1.76105 0.413103
v  0.0851333 1.95717 0.328473
v  0.073774 1.9545 0.308674
v  0.0873204 1.85718 0.369552
v  0.0895443 1.75542 0.411369
v  0.102844 1.75657 0.411927
v  0.116181 1.75594 0.413223
v  0.212314 2.05626 0.215822
v  0.229576 2.02999 0.224488
v  0.212314 2.05626 0.143881
v  0.212314 2.05626 0.0719405
v  0.184771 2.05626 0.0719405
v  0.157228 2.05626 -0.00142949
v  0.157228 2.05626 0.0719405
v  0.229596 2.03028 -0.240417
v  0.212314 2.05626 -0.232975
v  0.222237 2.01222 -0.291789
v  0.21006 2.03294 -0.300087
v  0.184771 2.05626 -0.232975
v  0.157228 2.05626 -0.232975
v  0.157228 2.05626 -0.155317
v  0.132677 2.05626 -0.0776584
v  0.157228 2.05626 -0.0776584
v  0.0829647 2.05626 -0.232975
v  0.0708643 2.03008 -0.240549
v  0.0829647 2.05626 -0.155317
v  0.0829647 2.05626 -0.0776584
v  0.098538 2.05626 -0.0776584
v  0.114111 2.05626 -0.0776584
v  0.203296 1.96297 -0.346106
v  0.220869 1.95717 -0.326477
v  0.193926 1.86648 -0.38279
v  0.183849 1.7636 -0.421901
v  0.166326 1.76648 -0.420688
v  0.145155 1.66802 -0.445568
v  0.148097 1.76297 -0.421901
v  0.186127 1.46926 -0.358463
v  0.174822 1.47586 -0.383554
v  0.183499 1.42637 -0.328171
v  0.175198 1.42074 -0.341754
v  0.15975 1.47499 -0.383497
v  0.144687 1.47439 -0.383554
v  0.144488 1.53494 -0.409683
v  0.128095 1.59445 -0.435594
v  0.144298 1.59575 -0.435925
v  0.0540786 1.46784 -0.382004
v  0.0614679 1.52699 -0.407359
v  0.0695881 1.59003 -0.434376
v  0.0889546 1.58861 -0.433545
v  0.109052 1.59108 -0.434376
v  0.175365 1.37582 -0.268499
v  0.186567 1.39413 -0.271922
v  0.175416 1.33597 -0.179477
v  0.17544 1.29608 -0.0903715
v  0.160358 1.29531 -0.0913315
v  0.145293 1.27223 -0.00600156
v  0.14525 1.2945 -0.0922092
v  0.175367 1.34756 0.238157
v  0.160213 1.34686 0.236039
v  0.14503 1.34612 0.23383
v  0.145155 1.31565 0.154737
v  0.127006 1.28436 0.0739287
v  0.145252 1.28515 0.0755535
v  0.0471297 1.34316 0.22501
v  0.0299684 1.36277 0.230424
v  0.0471857 1.3126 0.147075
v  0.0472039 1.28206 0.0691967
v  0.0748772 1.28281 0.070726
v  0.102513 1.28358 0.0723115
v  0.189887 1.44749 -0.282966
v  0.189273 1.51806 -0.30019
v  0.18867 1.588 -0.322149
v  0.188664 1.57809 -0.210629
v  0.191321 1.65848 -0.110214
v  0.18867 1.56755 -0.103844
v  0.226357 1.95233 -0.262742
v  0.22608 1.95011 -0.176257
v  0.226357 1.95216 -0.0883811
v  0.213135 1.8502 -0.0984082
v  0.200722 1.75421 0.000271639
v  0.200466 1.7525 -0.107044
v  0.226274 1.95117 0.250487
v  0.21301 1.84854 0.284199
v  0.200383 1.75083 0.316005
v  0.200065 1.74862 0.212449
v  0.200383 1.75133 0.106987
v  0.0337207 1.42303 0.250896
v  0.0477176 1.50217 0.279305
v  0.0612904 1.57842 0.308532
v  0.058076 1.57284 0.20311
v  0.062877 1.65603 0.105158
v  0.0544375 1.56438 0.0985048
v  0.0692654 1.95024 0.248423
v  0.0681527 1.94781 0.166937
v  0.0669811 1.95065 0.0834366
v  0.0665412 1.84767 0.0939252
v  0.0634108 1.75323 -0.00353201
v  0.0660424 1.74996 0.102399
v  0.0657095 1.95153 -0.263271
v  0.0640627 1.84898 -0.292764
v  0.0624865 1.75083 -0.320653
v  0.0624512 1.74885 -0.216177
v  0.0624865 1.75125 -0.110097

# 612 UV coordinates
vt 0.608224 0.411571 0
vt 0.612077 0.294856 0
vt 0.654575 0.294856 0
vt 0.642462 0.412701 0
vt 0.722139 0.10024 0
vt 0.721902 0.00888634 0
vt 0.866317 0.00888634 0
vt 0.866043 0.106452 0
vt 0.00207931 0.351868 0
vt 0.0208582 0.00655426 0
vt 0.123174 0.00655426 0
vt 0.144627 0.362278 0
vt 0.881757 0.540136 0
vt 0.881757 0.509472 0
vt 0.903614 0.487237 0
vt 0.903614 0.556184 0
vt 0.188978 0.314225 0
vt 0.136507 0.0150872 0
vt 0.41354 0.0150872 0
vt 0.354242 0.31936 0
vt 0.248333 0.309136 0
vt 0.705242 0.0113083 0
vt 0.680218 0.245259 0
vt 0.585407 0.244487 0
vt 0.578039 0.0142241 0
vt 0.620743 0.0189715 0
vt 0.722082 0.280789 0
vt 0.866152 0.280783 0
vt 0.821954 0.653013 0
vt 0.821881 0.444898 0
vt 0.830642 0.445052 0
vt 0.830588 0.652871 0
vt 0.587186 0.340832 0
vt 0.587185 0.510707 0
vt 0.581853 0.510714 0
vt 0.581853 0.340826 0
vt 0.842958 0.445063 0
vt 0.829492 0.436254 0
vt 0.844157 0.436275 0
vt 0.406384 0.218343 0
vt 0.406343 0.395057 0
vt 0.399001 0.395178 0
vt 0.398933 0.218211 0
vt 0.417405 0.40159 0
vt 0.406343 0.400369 0
vt 0.416727 0.394963 0
vt 0.84279 0.652763 0
vt 0.851716 0.444914 0
vt 0.851497 0.652915 0
vt 0.0313699 0.375693 0
vt 0.0313699 0.764266 0
vt 0.0191636 0.764264 0
vt 0.0191636 0.375695 0
vt 0.424312 0.21822 0
vt 0.424138 0.395094 0
vt 0.416863 0.218345 0
vt 0.843647 0.660584 0
vt 0.830588 0.659117 0
vt 0.33139 0.37633 0
vt 0.33139 0.763629 0
vt 0.319233 0.763643 0
vt 0.319233 0.376317 0
vt 0.405324 0.210901 0
vt 0.417946 0.210916 0
vt 0.45559 0.340552 0
vt 0.45559 0.510987 0
vt 0.450236 0.510987 0
vt 0.450236 0.340553 0
vt 0.978968 0.692622 0
vt 0.963181 0.692622 0
vt 0.963181 0.337335 0
vt 0.978968 0.337335 0
vt 0.941981 0.654599 0
vt 0.928155 0.654599 0
vt 0.928155 0.343449 0
vt 0.941981 0.343449 0
vt 0.888756 0.320736 0
vt 0.889987 0.0134662 0
vt 0.928913 0.00941253 0
vt 0.927903 0.318729 0
vt 0.88809 0.322556 0
vt 0.927307 0.321196 0
vt 0.889181 0.0139901 0
vt 0.928106 0.00993019 0
vt 0.862243 0.410582 0
vt 0.856496 0.414196 0
vt 0.847468 0.309716 0
vt 0.852526 0.306752 0
vt 0.772657 0.420588 0
vt 0.696105 0.424831 0
vt 0.682057 0.321586 0
vt 0.765483 0.315388 0
vt 0.778241 0.420864 0
vt 0.770623 0.316794 0
vt 0.914399 0.466887 0
vt 0.910881 0.471239 0
vt 0.572975 0.309568 0
vt 0.546641 0.013582 0
vt 0.546604 0.0137448 0
vt 0.572938 0.311726 0
vt 0.53486 0.311252 0
vt 0.534823 0.314041 0
vt 0.508527 0.0140026 0
vt 0.50849 0.0141593 0
vt 0.948876 0.311585 0
vt 0.948327 0.0144741 0
vt 0.947811 0.0146835 0
vt 0.948538 0.313781 0
vt 0.986997 0.309878 0
vt 0.986714 0.312702 0
vt 0.986336 0.0115086 0
vt 0.985819 0.0117119 0
vt 0.461006 0.291101 0
vt 0.447219 0.148291 0
vt 0.433432 0.0103742 0
vt 0.433432 0.0115651 0
vt 0.433432 0.0127849 0
vt 0.447219 0.156511 0
vt 0.461006 0.294428 0
vt 0.461006 0.292165 0
vt 0.478919 0.287028 0
vt 0.478919 0.291538 0
vt 0.451344 0.0111942 0
vt 0.451344 0.0100782 0
vt 0.469257 0.00981717 0
vt 0.469257 0.010566 0
vt 0.451344 0.0118085 0
vt 0.469257 0.0114103 0
vt 0.483044 0.149931 0
vt 0.496831 0.291591 0
vt 0.478919 0.292325 0
vt 0.496831 0.291995 0
vt 0.496831 0.291761 0
vt 0.483044 0.141712 0
vt 0.376563 0.503489 0
vt 0.379269 0.544558 0
vt 0.372877 0.544626 0
vt 0.369269 0.504586 0
vt 0.678174 0.456915 0
vt 0.698566 0.452001 0
vt 0.698515 0.459312 0
vt 0.678779 0.463835 0
vt 0.659742 0.466419 0
vt 0.66061 0.472939 0
vt 0.372734 0.464993 0
vt 0.364024 0.466732 0
vt 0.549977 0.707173 0
vt 0.549238 0.734976 0
vt 0.543338 0.734973 0
vt 0.544153 0.707034 0
vt 0.79828 0.542285 0
vt 0.798317 0.560626 0
vt 0.791237 0.560673 0
vt 0.79105 0.541585 0
vt 0.79823 0.52429 0
vt 0.79085 0.522884 0
vt 0.550473 0.680611 0
vt 0.544764 0.680539 0
vt 0.475598 0.640527 0
vt 0.473887 0.68673 0
vt 0.465197 0.686633 0
vt 0.467371 0.640347 0
vt 0.722528 0.666995 0
vt 0.699786 0.672213 0
vt 0.699517 0.664602 0
vt 0.722107 0.659749 0
vt 0.747557 0.657625 0
vt 0.74704 0.650928 0
vt 0.476452 0.588613 0
vt 0.468513 0.588308 0
vt 0.254673 0.35405 0
vt 0.270752 0.354946 0
vt 0.270349 0.360055 0
vt 0.254255 0.359028 0
vt 0.605345 0.584552 0
vt 0.600073 0.563063 0
vt 0.607536 0.563071 0
vt 0.612559 0.58435 0
vt 0.614975 0.606646 0
vt 0.62176 0.60642 0
vt 0.237704 0.353098 0
vt 0.237372 0.357853 0
vt 0.0991106 0.92215 0
vt 0.118546 0.924919 0
vt 0.119029 0.950464 0
vt 0.100533 0.947173 0
vt 0.119473 0.969627 0
vt 0.101322 0.966124 0
vt 0.0829848 0.940652 0
vt 0.0848338 0.958283 0
vt 0.0799323 0.917519 0
vt 0.677668 0.61371 0
vt 0.698447 0.616152 0
vt 0.69902 0.643795 0
vt 0.679836 0.641011 0
vt 0.681234 0.661826 0
vt 0.662168 0.635585 0
vt 0.665153 0.655388 0
vt 0.657558 0.609853 0
vt 0.399093 0.473575 0
vt 0.391496 0.472008 0
vt 0.391077 0.436907 0
vt 0.399033 0.438254 0
vt 0.341622 0.344523 0
vt 0.341068 0.347182 0
vt 0.329465 0.346973 0
vt 0.329954 0.344119 0
vt 0.341934 0.342235 0
vt 0.330386 0.341744 0
vt 0.405882 0.474009 0
vt 0.405856 0.438842 0
vt 0.409698 0.595088 0
vt 0.407261 0.546984 0
vt 0.414419 0.546747 0
vt 0.417851 0.593458 0
vt 0.142438 0.970477 0
vt 0.119665 0.976274 0
vt 0.141162 0.964375 0
vt 0.166715 0.960344 0
vt 0.164574 0.954763 0
vt 0.413197 0.648209 0
vt 0.422714 0.645717 0
vt 0.386288 0.642619 0
vt 0.393786 0.642728 0
vt 0.394492 0.692714 0
vt 0.386463 0.692674 0
vt 0.556081 0.596795 0
vt 0.562383 0.5968 0
vt 0.562893 0.629034 0
vt 0.556226 0.629076 0
vt 0.550707 0.597219 0
vt 0.550621 0.629199 0
vt 0.379739 0.643391 0
vt 0.37961 0.693211 0
vt 0.572094 0.68076 0
vt 0.563031 0.680719 0
vt 0.563056 0.65429 0
vt 0.572061 0.654256 0
vt 0.57166 0.629306 0
vt 0.582184 0.654196 0
vt 0.581423 0.629445 0
vt 0.582289 0.680775 0
vt 0.582166 0.763528 0
vt 0.582031 0.735007 0
vt 0.592331 0.735011 0
vt 0.592448 0.763474 0
vt 0.211998 0.855293 0
vt 0.212007 0.873035 0
vt 0.204845 0.873068 0
vt 0.204747 0.854688 0
vt 0.211968 0.837208 0
vt 0.204598 0.836054 0
vt 0.582311 0.792472 0
vt 0.592553 0.792482 0
vt 0.556165 0.792584 0
vt 0.56302 0.792531 0
vt 0.563026 0.821107 0
vt 0.556219 0.821084 0
vt 0.562832 0.847525 0
vt 0.556063 0.847658 0
vt 0.550504 0.82108 0
vt 0.550322 0.847659 0
vt 0.550438 0.79264 0
vt 0.503206 0.582425 0
vt 0.493105 0.586399 0
vt 0.49369 0.534842 0
vt 0.504712 0.532219 0
vt 0.570538 0.877742 0
vt 0.562214 0.879579 0
vt 0.57165 0.847195 0
vt 0.57954 0.876609 0
vt 0.581436 0.847039 0
vt 0.513734 0.579862 0
vt 0.516662 0.530535 0
vt 0.506444 0.720243 0
vt 0.507281 0.683935 0
vt 0.514877 0.684129 0
vt 0.513717 0.71993 0
vt 0.103965 0.771515 0
vt 0.120746 0.769276 0
vt 0.120473 0.776241 0
vt 0.103701 0.778618 0
vt 0.0898199 0.777568 0
vt 0.089081 0.784478 0
vt 0.506613 0.752661 0
vt 0.513923 0.752289 0
vt 0.480576 0.756304 0
vt 0.490977 0.753736 0
vt 0.490704 0.785683 0
vt 0.479553 0.7875 0
vt 0.197963 0.346295 0
vt 0.197666 0.342718 0
vt 0.208263 0.343419 0
vt 0.208255 0.347231 0
vt 0.198057 0.350236 0
vt 0.208152 0.351517 0
vt 0.469425 0.758173 0
vt 0.467295 0.78888 0
vt 0.238211 0.34093 0
vt 0.238119 0.344105 0
vt 0.221825 0.343803 0
vt 0.221849 0.340794 0
vt 0.208279 0.340558 0
vt 0.221844 0.338303 0
vt 0.208292 0.338186 0
vt 0.238278 0.338291 0
vt 0.287598 0.339407 0
vt 0.272123 0.339016 0
vt 0.272405 0.336226 0
vt 0.287998 0.336626 0
vt 0.0314634 0.891765 0
vt 0.0285264 0.872523 0
vt 0.0348208 0.872836 0
vt 0.0376904 0.892264 0
vt 0.0384475 0.910458 0
vt 0.044373 0.911343 0
vt 0.303176 0.340109 0
vt 0.303674 0.337452 0
vt 0.301696 0.350326 0
vt 0.302179 0.345999 0
vt 0.31673 0.346578 0
vt 0.316224 0.350661 0
vt 0.328853 0.350789 0
vt 0.315789 0.355287 0
vt 0.328345 0.355083 0
vt 0.301283 0.355212 0
vt 0.0764793 0.85126 0
vt 0.0739087 0.87336 0
vt 0.0516436 0.873127 0
vt 0.055499 0.852199 0
vt 0.0396332 0.852444 0
vt 0.0625524 0.830436 0
vt 0.0483253 0.831388 0
vt 0.081275 0.828257 0
vt 0.139838 0.823697 0
vt 0.118949 0.821904 0
vt 0.119768 0.795854 0
vt 0.1405 0.799206 0
vt 0.141641 0.781065 0
vt 0.163207 0.805739 0
vt 0.164927 0.789462 0
vt 0.162302 0.827883 0
vt 0.162658 0.895831 0
vt 0.163595 0.873313 0
vt 0.187104 0.873177 0
vt 0.186474 0.893046 0
vt 0.204686 0.890833 0
vt 0.185878 0.912422 0
vt 0.204499 0.908227 0
vt 0.161811 0.917861 0
vt 0.652097 0.538496 0
vt 0.649849 0.562038 0
vt 0.625596 0.562641 0
vt 0.62841 0.541031 0
vt 0.610543 0.5428 0
vt 0.634359 0.519581 0
vt 0.617619 0.522832 0
vt 0.656258 0.514832 0
vt 0.720381 0.508652 0
vt 0.698042 0.506806 0
vt 0.698317 0.479658 0
vt 0.720829 0.483116 0
vt 0.721776 0.464173 0
vt 0.745307 0.490428 0
vt 0.746865 0.473548 0
vt 0.744449 0.513252 0
vt 0.745927 0.585371 0
vt 0.746676 0.560953 0
vt 0.771977 0.560792 0
vt 0.771473 0.582628 0
vt 0.791112 0.580421 0
vt 0.770884 0.604502 0
vt 0.790942 0.600456 0
vt 0.745062 0.60964 0
vt 0.642915 0.481996 0
vt 0.642746 0.475277 0
vt 0.631693 0.490149 0
vt 0.628671 0.486828 0
vt 0.339173 0.35439 0
vt 0.339454 0.358028 0
vt 0.328153 0.359352 0
vt 0.359353 0.432498 0
vt 0.36982 0.431658 0
vt 0.339978 0.350611 0
vt 0.382293 0.467954 0
vt 0.38085 0.433927 0
vt 0.392296 0.508241 0
vt 0.384443 0.505514 0
vt 0.392906 0.545697 0
vt 0.386107 0.544996 0
vt 0.790886 0.504375 0
vt 0.79812 0.506226 0
vt 0.78633 0.492099 0
vt 0.791758 0.490077 0
vt 0.550561 0.654317 0
vt 0.544875 0.654316 0
vt 0.545017 0.629171 0
vt 0.556259 0.654305 0
vt 0.556196 0.680667 0
vt 0.562735 0.707387 0
vt 0.555801 0.707281 0
vt 0.56241 0.734988 0
vt 0.555347 0.734976 0
vt 0.77218 0.641879 0
vt 0.772768 0.64802 0
vt 0.786327 0.633209 0
vt 0.791683 0.635659 0
vt 0.549747 0.880521 0
vt 0.543944 0.880325 0
vt 0.544596 0.847588 0
vt 0.469367 0.536059 0
vt 0.477098 0.536277 0
vt 0.55556 0.880389 0
vt 0.484421 0.588217 0
vt 0.484847 0.536033 0
vt 0.4923 0.638963 0
vt 0.483838 0.640226 0
vt 0.491584 0.685407 0
vt 0.483029 0.686209 0
vt 0.631223 0.628388 0
vt 0.624927 0.628585 0
vt 0.639037 0.642062 0
vt 0.636805 0.646239 0
vt 0.221566 0.352362 0
vt 0.221324 0.356902 0
vt 0.207859 0.355781 0
vt 0.221736 0.347828 0
vt 0.237957 0.348334 0
vt 0.255298 0.344643 0
vt 0.255022 0.349067 0
vt 0.271519 0.34515 0
vt 0.271152 0.349644 0
vt 0.0683354 0.950498 0
vt 0.0648748 0.934748 0
vt 0.0576043 0.942698 0
vt 0.0510471 0.930452 0
vt 0.0598595 0.913831 0
vt 0.0542653 0.893476 0
vt 0.0759807 0.895268 0
vt 0.0959699 0.873472 0
vt 0.0970914 0.897679 0
vt 0.118102 0.87349 0
vt 0.118241 0.899209 0
vt 0.649562 0.649125 0
vt 0.644383 0.631254 0
vt 0.637126 0.607571 0
vt 0.629664 0.584739 0
vt 0.652548 0.58558 0
vt 0.673862 0.56163 0
vt 0.675202 0.587442 0
vt 0.697833 0.561354 0
vt 0.698038 0.588702 0
vt 0.330842 0.339402 0
vt 0.342309 0.339953 0
vt 0.0688843 0.956143 0
vt 0.0550463 0.945107 0
vt 0.0850508 0.964446 0
vt 0.412699 0.439564 0
vt 0.412675 0.47465 0
vt 0.101282 0.972706 0
vt 0.406234 0.509589 0
vt 0.413017 0.510003 0
vt 0.400017 0.546495 0
vt 0.39944 0.509298 0
vt 0.187626 0.945037 0
vt 0.189462 0.950724 0
vt 0.200407 0.936727 0
vt 0.205838 0.938868 0
vt 0.579514 0.599399 0
vt 0.588201 0.597997 0
vt 0.591128 0.629027 0
vt 0.427377 0.694611 0
vt 0.416299 0.696296 0
vt 0.570549 0.59834 0
vt 0.403157 0.645901 0
vt 0.404886 0.694792 0
vt 0.393135 0.591376 0
vt 0.401206 0.593522 0
vt 0.545331 0.596953 0
vt 0.773185 0.477601 0
vt 0.772169 0.483272 0
vt 0.747992 0.467395 0
vt 0.372757 0.692861 0
vt 0.373196 0.642817 0
vt 0.722571 0.457355 0
vt 0.379978 0.591778 0
vt 0.373701 0.591383 0
vt 0.386259 0.591284 0
vt 0.592333 0.654102 0
vt 0.211735 0.923742 0
vt 0.204391 0.9253 0
vt 0.211937 0.906857 0
vt 0.592518 0.680761 0
vt 0.211977 0.890107 0
vt 0.582173 0.707572 0
vt 0.592449 0.707626 0
vt 0.571687 0.734999 0
vt 0.571898 0.70749 0
vt 0.204487 0.817715 0
vt 0.211761 0.819007 0
vt 0.200502 0.805821 0
vt 0.205842 0.803208 0
vt 0.58219 0.821203 0
vt 0.592352 0.821297 0
vt 0.591165 0.847416 0
vt 0.572052 0.82114 0
vt 0.572098 0.792489 0
vt 0.562713 0.763705 0
vt 0.571882 0.763606 0
vt 0.54481 0.821068 0
vt 0.79819 0.618605 0
vt 0.790946 0.620323 0
vt 0.798291 0.599114 0
vt 0.544709 0.792707 0
vt 0.798318 0.579685 0
vt 0.549939 0.76391 0
vt 0.5441 0.764039 0
vt 0.555765 0.763806 0
vt 0.58825 0.877907 0
vt 0.18954 0.791946 0
vt 0.187825 0.797949 0
vt 0.166963 0.783511 0
vt 0.528278 0.532139 0
vt 0.523743 0.582275 0
vt 0.142871 0.774648 0
vt 0.510166 0.634469 0
vt 0.518765 0.636009 0
vt 0.499594 0.684502 0
vt 0.501211 0.636251 0
vt 0.0745358 0.790137 0
vt 0.0756942 0.783662 0
vt 0.0645129 0.797035 0
vt 0.062783 0.793507 0
vt 0.197706 0.337687 0
vt 0.197718 0.335385 0
vt 0.208281 0.335815 0
vt 0.514018 0.784358 0
vt 0.50667 0.784739 0
vt 0.197633 0.339992 0
vt 0.499313 0.752833 0
vt 0.499321 0.784978 0
vt 0.491206 0.721104 0
vt 0.499166 0.72043 0
vt 0.197489 0.354047 0
vt 0.65033 0.656472 0
vt 0.66539 0.662769 0
vt 0.455363 0.788231 0
vt 0.45881 0.756979 0
vt 0.681329 0.669364 0
vt 0.471941 0.724231 0
vt 0.462408 0.723554 0
vt 0.481829 0.722891 0
vt 0.221835 0.335806 0
vt 0.0520595 0.810526 0
vt 0.057116 0.81017 0
vt 0.0428126 0.831322 0
vt 0.238345 0.335656 0
vt 0.033633 0.85219 0
vt 0.255674 0.3386 0
vt 0.255848 0.335859 0
vt 0.271831 0.341802 0
vt 0.255498 0.341347 0
vt 0.0455259 0.929088 0
vt 0.317772 0.341052 0
vt 0.318304 0.338571 0
vt 0.317253 0.343548 0
vt 0.302678 0.342784 0
vt 0.286781 0.34554 0
vt 0.287194 0.34219 0
vt 0.315443 0.359939 0
vt 0.618252 0.503461 0
vt 0.624828 0.503149 0
vt 0.610545 0.523071 0
vt 0.300961 0.360128 0
vt 0.603159 0.542787 0
vt 0.285974 0.355141 0
vt 0.285633 0.360265 0
vt 0.286364 0.350044 0
vt 0.0694891 0.807623 0
vt 0.0858517 0.803625 0
vt 0.102085 0.798508 0
vt 0.0997579 0.824418 0
vt 0.118366 0.847745 0
vt 0.0972852 0.849221 0
vt 0.186742 0.812599 0
vt 0.186198 0.832514 0
vt 0.186672 0.852855 0
vt 0.162957 0.85053 0
vt 0.140615 0.873424 0
vt 0.140221 0.848501 0
vt 0.186464 0.931261 0
vt 0.162749 0.939204 0
vt 0.140006 0.946708 0
vt 0.1394 0.922709 0
vt 0.139983 0.898219 0
vt 0.639531 0.49805 0
vt 0.65925 0.490903 0
vt 0.678348 0.483494 0
vt 0.677088 0.509718 0
vt 0.697856 0.534045 0
vt 0.67504 0.535739 0
vt 0.771108 0.498314 0
vt 0.770514 0.518618 0
vt 0.771235 0.539451 0
vt 0.745545 0.536835 0
vt 0.722021 0.561135 0
vt 0.72121 0.534721 0
vt 0.771386 0.625941 0
vt 0.745851 0.633319 0
vt 0.721366 0.640256 0
vt 0.720907 0.614166 0
vt 0.721521 0.587708 0

# 568 vertex normals
vn -0.343929 0.0633598 0.936855
vn -0.343929 0.0633598 0.936855
vn -0.343929 0.0633598 0.936855
vn -0.00295437 0.999585 0.0286442
vn -0.00559455 0.99559 -0.09364
vn -0.00285012 0.999437 0.0334223
vn -0.452958 0.0428089 -0.890503
vn -0.452958 0.0428089 -0.890503
vn 0 -1 0
vn 1 0 0
vn -1 1.67983e-08 0
vn -0.00144913 0.995257 0.0972732
vn -0.707108 -0.707105 0
vn 0 -0.707107 0.707107
vn -0.707108 0 0.707106
vn 0.707107 -0.707107 0
vn 0.707107 0 0.707107
vn -0.707108 0.707105 0
vn 0 0.707107 0.707107
vn 0.707107 0.707107 0
vn -0.707108 0 -0.707106
vn 0 0.707107 -0.707107
vn 0.707107 0 -0.707107
vn 0 -0.707107 -0.707107
vn 0 0 1
vn 0 1 0
vn 0 0 -1
vn -1 0 0
vn -0.577351 -0.57735 0.57735
vn 0.57735 -0.577349 0.577352
vn -0.577351 0.57735 0.57735
vn 0.57735 0.577349 0.577352
vn -0.57735 0.57735 -0.57735
vn 0.577349 0.57735 -0.577352
vn -0.57735 -0.57735 -0.57735
vn 0.577349 -0.57735 -0.577352
vn 0.992707 -0.120415 -0.00574588
vn 0.992707 -0.120415 -0.00574588
vn 0.992707 -0.120415 -0.00574589
vn 0.992707 -0.120415 -0.00574588
vn 0.039131 0.998117 0.0472266
vn 0.039131 0.998118 0.0472266
vn 0.039131 0.998117 0.0472266
vn 0.039131 0.998118 0.0472266
vn -0.992792 0.119679 0.0064469
vn -0.992792 0.119679 0.0064469
vn -0.992792 0.119679 0.0064469
vn -0.992792 0.119679 0.0064469
vn -0.00803709 -0.999963 -0.00303846
vn -0.00803709 -0.999963 -0.00303846
vn -0.00803709 -0.999963 -0.00303846
vn -0.00803709 -0.999963 -0.00303846
vn -0.0175641 0.153433 -0.988003
vn -0.0175641 0.153433 -0.988003
vn -0.0175641 0.153433 -0.988003
vn -0.017564 0.153433 -0.988003
vn 0.0184487 -0.154705 0.987788
vn 0.0184487 -0.154705 0.987788
vn 0.0184487 -0.154705 0.987788
vn -0.0229078 -0.183094 0.982828
vn -0.0229078 -0.183094 0.982828
vn -0.0229078 -0.183094 0.982828
vn -0.0229078 -0.183094 0.982828
vn -0.00534792 0.999985 -0.00108605
vn -0.00534792 0.999985 -0.00108605
vn -0.0011963 -0.176366 -0.984324
vn -0.0011963 -0.176366 -0.984324
vn -0.0011963 -0.176366 -0.984324
vn -0.0011963 -0.176366 -0.984324
vn 0.969106 0.246565 -0.0061958
vn 0.969106 0.246565 -0.0061958
vn 0.969107 0.246565 -0.0061958
vn -0.950846 0.309339 0.0141873
vn -0.950846 0.309339 0.0141873
vn -0.950846 0.309339 0.0141873
vn -0.950846 0.309339 0.0141873
vn -0.00364496 -0.120415 -0.992717
vn -0.00364496 -0.120415 -0.992717
vn -0.00364496 -0.120415 -0.992717
vn -0.00364496 -0.120415 -0.992717
vn 0.0473087 0.998117 -0.0390308
vn 0.0473087 0.998118 -0.0390308
vn 0.0473087 0.998117 -0.0390308
vn 0.0473087 0.998118 -0.0390308
vn 0.00434564 0.11968 0.992803
vn 0.00434564 0.11968 0.992803
vn 0.00434564 0.11968 0.992803
vn 0.00434564 0.11968 0.992803
vn -0.00305541 -0.999963 0.00803066
vn -0.00305541 -0.999963 0.00803066
vn -0.00305541 -0.999963 0.00803066
vn -0.00305541 -0.999963 0.00803066
vn -0.988038 0.153433 0.0154725
vn -0.988038 0.153433 0.0154725
vn -0.988038 0.153433 0.0154725
vn -0.988038 0.153433 0.0154725
vn 0.987825 -0.154705 -0.0163581
vn 0.987825 -0.154705 -0.0163581
vn 0.987825 -0.154705 -0.0163581
vn -0.0112513 -0.120415 0.99266
vn -0.0112513 -0.120415 0.99266
vn -0.0112513 -0.120415 0.99266
vn -0.047889 0.998118 0.0383167
vn -0.047889 0.998118 0.0383167
vn -0.047889 0.998117 0.0383167
vn -0.047889 0.998118 0.0383167
vn 0.0105516 0.119679 -0.992756
vn 0.0105516 0.119679 -0.992757
vn 0.0105516 0.11968 -0.992757
vn 0.0105516 0.119679 -0.992757
vn 0.00317557 -0.999963 -0.00798393
vn 0.00317557 -0.999963 -0.00798393
vn 0.00317557 -0.999963 -0.00798393
vn 0.988159 0.153433 -0.000645724
vn 0.988159 0.153433 -0.000645724
vn 0.988159 0.153433 -0.000645724
vn -0.98796 -0.154705 0.00153417
vn -0.98796 -0.154705 0.00153417
vn -0.987959 -0.154705 0.00153417
vn -0.98796 -0.154705 0.00153417
vn -0.0148539 0.131286 0.991233
vn -0.0148539 0.131286 0.991233
vn -0.0148539 0.131286 0.991233
vn -0.0148539 0.131286 0.991233
vn -0.0148539 0.131286 0.991233
vn -0.0148539 0.131286 0.991233
vn 0.0698374 0.993192 -0.0932323
vn 0.0698374 0.993192 -0.0932323
vn 0.0698374 0.993192 -0.0932323
vn 0.0698374 0.993192 -0.0932323
vn 0.0380213 -0.999098 0.0188978
vn 0.0380213 -0.999098 0.0188978
vn 0.0380213 -0.999098 0.0188978
vn 0.0380213 -0.999098 0.0188978
vn 0.986492 0.16363 0.00767968
vn 0.986492 0.16363 0.00767968
vn 0.986492 0.16363 0.00767968
vn 0.986492 0.16363 0.00767968
vn 0.986492 0.16363 0.00767968
vn 0.986492 0.16363 0.00767968
vn 0.986492 0.16363 0.00767968
vn 0.986492 0.16363 0.00767968
vn -0.150806 0.977556 -0.147114
vn -0.150806 0.977556 -0.147114
vn -0.150806 0.977556 -0.147114
vn -0.150806 0.977556 -0.147114
vn -0.0990052 0.991617 0.0830281
vn -0.0990051 0.991617 0.0830281
vn -0.0990051 0.991617 0.0830281
vn -0.0990052 0.991617 0.0830281
vn 0.0864177 0.990568 0.106336
vn 0.0864177 0.990568 0.106336
vn 0.0864177 0.990568 0.106336
vn 0.0864178 0.990568 0.106336
vn 0.0119921 -0.131592 -0.991231
vn 0.0119921 -0.131592 -0.991231
vn 0.0119921 -0.131592 -0.991232
vn 0.0119921 -0.131592 -0.991231
vn 0.0119921 -0.131592 -0.991231
vn 0.0119921 -0.131592 -0.991231
vn 0.0119921 -0.131592 -0.991232
vn 0.0119921 -0.131592 -0.991232
vn 0.0297475 -0.999326 0.0214973
vn 0.0297475 -0.999326 0.0214973
vn 0.0297475 -0.999326 0.0214973
vn 0.0297475 -0.999326 0.0214973
vn 0.0373881 -0.998904 0.0281745
vn 0.0373881 -0.998904 0.0281745
vn 0.0373881 -0.998904 0.0281745
vn 0.0373881 -0.998904 0.0281745
vn 0.0470197 -0.998788 0.0145835
vn 0.0470197 -0.998788 0.0145835
vn 0.0470197 -0.998788 0.0145835
vn 0.0470197 -0.998788 0.0145835
vn -0.986445 -0.163707 -0.0112577
vn -0.986445 -0.163707 -0.0112577
vn -0.986445 -0.163707 -0.0112577
vn -0.986445 -0.163707 -0.0112577
vn -0.986445 -0.163707 -0.0112577
vn -0.986445 -0.163707 -0.0112577
vn -0.986445 -0.163707 -0.0112577
vn -0.986445 -0.163707 -0.0112577
vn -0.0748356 -0.375414 0.923831
vn -0.0868904 -0.00782853 0.996187
vn -0.692494 0.0373434 0.720457
vn -0.654103 -0.18711 0.732897
vn -0.981664 0.0637226 0.179653
vn -0.979996 0.0730934 0.185106
vn -0.578784 -0.300679 0.758025
vn -0.976754 0.0791601 0.199211
vn -0.0692962 -0.465459 0.882353
vn -6.24662e-13 1 -8.74527e-13
vn 8.49457e-13 1 2.42702e-13
vn -0.689691 0.724103 0.000982183
vn -0.698042 0.716051 0.00275841
vn -0.987907 0.154996 0.0041241
vn -0.98941 0.144928 0.00797296
vn -0.706719 0.707493 0.00167233
vn -0.991047 0.133301 0.00756792
vn 0 1 -1.00939e-12
vn -0.00529333 0.292368 -0.956291
vn -0.000925811 0.0435168 -0.999052
vn -0.619393 0.0755553 -0.781437
vn -0.633956 0.236702 -0.736255
vn -0.981606 0.0758803 -0.17519
vn -0.983204 0.0763393 -0.165779
vn -0.621955 0.281043 -0.730881
vn -0.983174 0.0740641 -0.16698
vn -0.0045408 0.353767 -0.935322
vn 0.0378573 -0.940547 -0.337548
vn 0.0293454 -0.998014 -0.0557325
vn -0.417141 -0.907444 -0.0503852
vn -0.38682 -0.870849 -0.303303
vn -0.979326 -0.202099 -0.0086934
vn -0.977809 -0.196768 -0.0719223
vn -0.343151 -0.85701 -0.384423
vn -0.974975 -0.20331 -0.0899397
vn 0.0359621 -0.909738 -0.413623
vn 0.999917 -0.0128868 0.000344347
vn 0.997825 -0.0659095 0.000913721
vn 0.99748 -0.0668658 0.0237307
vn 0.999565 -0.0209079 0.0207946
vn 0.983844 -0.0560715 0.17002
vn 0.986384 -0.0678743 0.149797
vn 0.999804 -0.000311158 0.0197919
vn 0.98678 -0.0626462 0.149471
vn 0.999972 0.00743218 -0.00113992
vn -0.993694 0.111546 0.0113714
vn -0.997765 0.0667713 0.0027376
vn -0.997293 0.0702118 -0.0218529
vn -0.993258 0.115165 -0.0132674
vn -0.982276 0.0692946 -0.174162
vn -0.990517 0.137389 -0.000865144
vn -0.980969 0.073605 -0.179672
vn -0.991178 0.130074 0.025446
vn -0.0891092 -0.462728 0.88201
vn -0.0794447 -0.464632 0.881933
vn -0.0664777 -0.543094 0.837036
vn -0.0873778 -0.540138 0.837028
vn -0.0311388 -0.760819 0.648216
vn -0.053792 -0.756458 0.651826
vn -0.0954058 -0.540325 0.83603
vn -0.0622533 -0.756322 0.651231
vn -0.0934955 -0.460225 0.882865
vn -0.0510855 0.343673 0.937699
vn -0.0761253 0.0772786 0.994099
vn 0.610821 0.0148443 0.791629
vn 0.569598 0.216801 0.792815
vn 0.981664 -0.0424898 0.185824
vn 0.496698 0.292924 0.816998
vn 0.975251 -0.0290851 0.21918
vn -0.0288639 0.394965 0.918242
vn -0.0421253 0.385003 0.921953
vn -0.0355654 0.388362 0.92082
vn -0.0233332 0.462961 0.886072
vn -0.0205596 0.4624 0.886433
vn -0.0190046 0.758535 0.651356
vn -0.00498726 0.75576 0.65483
vn -0.0232014 0.464765 0.88513
vn -0.00805639 0.757137 0.653206
vn -0.0444372 0.381832 0.923163
vn 4.52628e-13 1 -7.5438e-14
vn 9.11453e-13 1 0
vn -0.00575087 0.984521 0.17517
vn -0.00752949 0.98544 0.169855
vn -0.0231336 0.770765 0.6367
vn -0.00035233 0.986025 0.166596
vn -0.0043085 0.779355 0.626567
vn 1.4268e-13 1 0
vn 4.00207e-13 1 -1.31836e-06
vn 0 1 2.74453e-13
vn 0.503615 0.863928 0.000257169
vn 0.50585 0.86262 -0.00126939
vn 0.991857 0.127359 0.000262239
vn 0.992073 0.125649 -0.00163807
vn 0.509517 0.860461 -9.65877e-05
vn 0.992447 0.122676 -6.43379e-05
vn 6.60873e-13 1 1.25566e-12
vn -3.49189e-06 1 0
vn -1.68869e-13 1 0
vn -0.0086457 0.9862 -0.165335
vn -0.00425363 0.985395 -0.170229
vn -0.0235114 0.762069 -0.647069
vn -0.0115808 0.753301 -0.657574
vn -0.00038536 0.985134 -0.171788
vn -0.00167218 0.750916 -0.660396
vn -7.01301e-13 1 0
vn -0.00350371 0.354821 -0.934928
vn -0.00389159 0.354443 -0.93507
vn -0.0127048 0.439675 -0.898067
vn -0.0141221 0.451158 -0.892332
vn -0.0225153 0.776339 -0.629913
vn -0.00219768 0.459999 -0.887917
vn -0.000744883 0.784649 -0.61994
vn -0.00336474 0.355225 -0.934775
vn 0.00981196 -0.258616 -0.96593
vn -0.00143719 0.101215 -0.994864
vn 0.659343 0.0259886 -0.751393
vn 0.691813 -0.188635 -0.697002
vn 0.985327 -0.0561984 -0.16116
vn 0.988507 -0.0559555 -0.140435
vn 0.681312 -0.280944 -0.675932
vn 0.989674 -0.0446325 -0.136212
vn 0.0167217 -0.396671 -0.917808
vn 0.0116256 -0.395474 -0.918404
vn 0.0133495 -0.395748 -0.918262
vn 0.0261414 -0.504658 -0.862923
vn 0.0252472 -0.512676 -0.858211
vn 0.0420075 -0.754118 -0.655394
vn 0.037776 -0.759662 -0.649221
vn 0.0162136 -0.518558 -0.854889
vn 0.0253161 -0.762905 -0.646015
vn 0.0111247 -0.395273 -0.918496
vn 0.0589185 -0.91016 -0.410046
vn 0.0462383 -0.910285 -0.411392
vn 0.0437684 -0.884284 -0.464894
vn 0.0524646 -0.883922 -0.464683
vn 0.0423949 -0.752187 -0.657584
vn 0.0570962 -0.884187 -0.463631
vn 0.0443029 -0.753072 -0.656445
vn 0.064852 -0.910317 -0.408799
vn 0.0206191 -0.965408 0.259929
vn 0.053265 -0.997033 -0.0555774
vn 0.663431 -0.74736 -0.0362148
vn 0.647572 -0.737682 0.190985
vn 0.985921 -0.167014 -0.00810978
vn 0.986162 -0.160281 0.0423603
vn 0.605014 -0.745453 0.279746
vn 0.984671 -0.164641 0.0575912
vn 0.00177267 -0.933694 0.358067
vn 0.000675727 -0.932064 0.362294
vn 0.000994222 -0.932584 0.360952
vn -0.00789786 -0.902489 0.43064
vn -0.00529304 -0.903415 0.428735
vn -0.0212492 -0.769642 0.638122
vn -0.0100202 -0.903539 0.428389
vn -0.0347078 -0.774089 0.632125
vn 0.000516562 -0.931532 0.36366
vn 0.999975 0.00692068 0.00107517
vn 0.999979 0.00654081 0.000157777
vn 0.999832 -0.0182912 -0.00076664
vn 0.999822 -0.0179266 -0.00592147
vn 0.984885 -0.16406 -0.0555442
vn 0.9998 -0.0186372 -0.00719634
vn 0.982111 -0.173982 -0.072033
vn 0.999968 0.00782546 0.00153168
vn 0.993516 -0.113685 -0.000854997
vn 0.997752 -0.0669964 -0.00161594
vn 0.997354 -0.0687455 -0.0236535
vn 0.993977 -0.106309 -0.0265975
vn 0.982404 -0.0527561 -0.179161
vn 0.992619 -0.117075 -0.031635
vn 0.976404 -0.0435706 -0.211511
vn 0.991688 -0.128663 -0.000225927
vn 0.991721 -0.12841 -0.000233867
vn 0.99171 -0.128493 -0.000234681
vn 0.99572 -0.092424 -3.02479e-05
vn 0.995616 -0.0935311 0.000574121
vn 0.992454 0.122599 0.00211055
vn 0.995517 -0.0945783 -0.000222002
vn 0.992945 0.118578 8.91484e-05
vn 0.991732 -0.128329 -0.000231436
vn -0.992296 0.123721 0.00647719
vn -0.993474 0.113161 0.0142688
vn -0.997526 0.0697141 0.00910035
vn -0.996498 0.0836186 0.00020271
vn -0.982365 -0.177734 0.0580516
vn -0.994195 0.107193 -0.00926306
vn -0.984107 -0.163058 0.0703206
vn -0.989306 0.14585 0.00112195
vn -0.999367 0.0154007 0.0320679
vn -0.997336 0.0651843 0.0327486
vn -0.996378 0.0668363 0.052569
vn -0.998524 0.0159325 0.0519308
vn -0.984166 0.0506904 0.169847
vn -0.998901 -0.00145679 0.046843
vn -0.983898 0.0442055 0.173177
vn -0.999694 -0.00179469 0.0246626
vn -0.999879 0.0151946 0.0032165
vn -0.999849 0.012052 0.0125445
vn -0.99944 0.0324672 0.0080596
vn -0.999367 0.0355315 0.00176098
vn -0.987511 0.157549 7.98696e-05
vn -0.999356 0.0358775 1.78915e-05
vn -0.987669 0.156555 -7.27595e-05
vn -0.999871 0.0160729 -2.34301e-05
vn -0.975312 0.0188533 0.220026
vn -0.470732 -0.422541 0.774513
vn -0.931016 -0.226597 0.286118
vn -0.330212 -0.715608 0.61552
vn -0.059142 -0.561426 0.825411
vn -0.0520294 -0.553941 0.830929
vn -0.0717471 -0.465451 0.882161
vn -0.0958617 -0.338317 0.936137
vn -0.0979162 -0.35909 0.928153
vn -0.0915046 0.0324562 0.995276
vn -0.121006 0.00555873 0.992636
vn -0.988805 0.142327 0.0448076
vn -0.669621 0.73365 0.115606
vn -0.969909 0.165123 0.178917
vn -0.55421 0.634729 0.538489
vn -0.000772204 0.984101 0.177606
vn 0.000219667 0.984118 0.177515
vn -1.49648e-12 1 9.78466e-13
vn -1.39601e-06 1 5.94594e-07
vn 4.55925e-13 1 1.08282e-12
vn -2.76482e-06 1 1.73265e-06
vn -1.77931e-06 1 7.29426e-07
vn -0.979754 0.103438 -0.171414
vn -0.579526 0.352776 -0.734642
vn -0.965669 0.196966 -0.169371
vn -0.535664 0.647957 -0.541494
vn -0.00289209 0.435961 -0.899961
vn -0.00725807 0.43615 -0.899844
vn -0.00436398 0.35409 -0.935201
vn 6.68683e-05 0.298455 -0.954424
vn -0.00725019 0.293783 -0.955845
vn 0.00202816 0.0709466 -0.997478
vn -0.0114496 0.0520331 -0.99858
vn -0.969173 -0.209512 -0.129647
vn -0.293758 -0.850776 -0.43576
vn -0.915168 -0.27531 -0.294401
vn -0.266823 -0.715834 -0.645281
vn 0.0317811 -0.885028 -0.464451
vn 0.0369313 -0.884913 -0.464289
vn 0.0380688 -0.910141 -0.412547
vn 0.0489658 -0.940702 -0.335682
vn 0.0402402 -0.940776 -0.336634
vn 0.0385735 -0.997705 -0.0556547
vn 0.0314917 -0.99795 -0.0557065
vn 0.981733 -0.0983379 0.162881
vn 0.999322 -0.0251584 0.0268921
vn 0.950342 -0.233931 0.205247
vn 0.979967 -0.178657 0.0880107
vn 0.999843 -0.0168909 0.00544463
vn 0.999845 -0.0170098 0.00452509
vn 0.999977 0.00676159 -0.000747637
vn 0.999936 -0.0113212 3.34679e-05
vn 0.999929 -0.0119119 0.000488519
vn 0.998008 -0.0630953 -0.000128452
vn 0.997963 -0.0637861 0.00124337
vn -0.978374 0.00472893 -0.206792
vn -0.995976 0.0893296 -0.00725794
vn -0.99616 0.0846412 0.0223914
vn -0.997229 0.072587 0.0162985
vn -0.993006 0.116145 0.0212125
vn -0.994888 0.0995078 0.0172162
vn -0.994745 0.101675 0.0120438
vn -0.997949 0.0614085 0.0180531
vn -0.997988 0.063117 0.00597524
vn 0.388321 -0.689439 0.611458
vn 0.50922 -0.440396 0.739423
vn 0.596346 -0.360059 0.717446
vn 0.630088 -0.248978 0.735526
vn -0.0859977 -0.326538 0.941264
vn -0.0596309 0.0611501 0.996346
vn -0.0790113 -0.329352 0.940896
vn 0.966766 0.0275207 0.254176
vn 0.42092 0.389683 0.81913
vn 0.944488 0.192164 0.266487
vn 0.386268 0.712578 0.585687
vn -0.014136 0.486172 0.873749
vn -0.0246713 0.475441 0.879402
vn -0.0304687 0.391623 0.919621
vn -0.0588929 0.315358 0.947144
vn -0.0440864 0.331531 0.942414
vn -0.605793 0.344206 0.717312
vn -0.980983 0.0733 0.179722
vn -0.674234 0.26412 0.689673
vn -0.706848 0.208238 0.67602
vn -0.0694239 0.309808 0.948261
vn -0.0795138 0.309482 0.947575
vn 0.480557 0.866647 0.134119
vn 0.987956 0.143098 0.0588683
vn 0.514654 0.857398 0.000252523
vn 0.509374 0.860543 0.00177417
vn -8.47658e-13 1 1.39618e-06
vn 1.16604e-06 1 9.56038e-07
vn -6.72263e-13 1 1.47638e-06
vn 0.987945 0.144291 -0.0560827
vn 0.479994 0.867997 -0.127225
vn 0.950535 0.181551 -0.252038
vn 0.404136 0.707898 -0.57927
vn -0.000148346 0.987827 -0.155559
vn -0.00807882 0.987259 -0.158914
vn 2.28835e-06 1 -5.59069e-13
vn -1.36957e-06 1 -5.61455e-07
vn 2.28836e-06 1 -1.39409e-06
vn -0.653596 0.748693 -0.110776
vn -0.984461 0.171752 -0.0365673
vn -0.693775 0.720192 -0.000160988
vn -0.690367 0.723458 -0.000851993
vn -8.25785e-13 1 1.17969e-13
vn -3.49189e-06 1 1.07629e-13
vn 0.452802 0.352516 -0.818965
vn 0.969442 0.0125333 -0.244998
vn 0.533151 0.245088 -0.809742
vn 0.610451 0.181412 -0.770999
vn -0.00526197 0.314108 -0.949373
vn 0.0148006 0.0912029 -0.995722
vn 0.00236249 0.30752 -0.951539
vn 0.984845 -0.0840224 -0.151724
vn 0.609173 -0.374267 -0.699166
vn 0.95112 -0.235896 -0.199307
vn 0.461284 -0.657642 -0.595587
vn 0.0258309 -0.506897 -0.86162
vn 0.0250795 -0.50429 -0.86317
vn 0.0156863 -0.396152 -0.918051
vn 0.00507731 -0.265991 -0.963962
vn 0.0160649 -0.259018 -0.965739
vn -0.427475 -0.39561 -0.81287
vn -0.531718 -0.263114 -0.805014
vn -0.58972 -0.152414 -0.793095
vn 0.0081738 -0.288774 -0.957362
vn -0.000507179 -0.280101 -0.95997
vn 0.537892 -0.753078 -0.378875
vn 0.977085 -0.188177 -0.0994684
vn 0.606399 -0.727656 -0.320621
vn 0.649955 -0.71957 -0.244495
vn 0.0683047 -0.940209 -0.333678
vn 0.0491154 -0.997244 -0.0555987
vn 0.0623584 -0.940279 -0.334644
vn 0.530185 -0.772028 0.350538
vn -0.0179728 -0.902434 0.430453
vn -0.015142 -0.90206 0.431344
vn 0.00145444 -0.933136 0.359519
vn 0.0149026 -0.964961 0.261969
vn 0.0190663 -0.965156 0.26098
vn -0.356148 -0.849262 0.389759
vn -0.981235 -0.158746 0.109441
vn -0.397708 -0.856005 0.330276
vn -0.423396 -0.876356 0.229643
vn 0.0110456 -0.964437 0.264082
vn 0.012009 -0.964724 0.262989
vn 0.999342 -0.0247505 -0.0265174
vn 0.999845 0.00263935 -0.0173869
vn 0.999603 -0.0200325 -0.0197912
vn 0.999914 -0.0130668 -0.000494843
vn 0.997935 -0.0642095 -0.00160067
vn 0.999929 -0.0119413 -0.000469932
vn 0.995969 -0.0821863 -0.0359334
vn 0.995562 -0.0941057 -4.80774e-05
vn 0.995652 -0.0931533 -0.000673997
vn 0.991699 -0.128578 -0.000229448
vn 0.993666 -0.112369 -0.000245315
vn 0.993632 -0.112669 -0.000887392
vn 0.996069 -0.0803643 0.0372444
vn 0.99287 -0.114721 0.0323901
vn 0.994224 -0.103937 0.0267332
vn 0.993601 -0.112944 0.000211157
vn 0.993672 -0.112324 0.0003711
vn -0.993003 0.115992 0.0221731
vn -0.987267 0.156604 0.0279126
vn -0.990826 0.127689 0.0442561
vn -0.99235 0.121447 0.0222022
vn -0.99761 0.0622735 0.0299522
vn -0.99409 0.106304 0.0220228
vn -0.999075 0.0163481 0.0397757
vn -0.999757 0.0157115 0.0154639
vn -0.999586 0.0250718 0.0141368
vn -0.999746 0.00618325 0.021668
vn -0.999566 0.0245197 0.0163398
vn -0.999379 0.0207383 0.0284824
vn -0.998765 0.0432523 -0.024456
vn -0.99942 0.0236822 -0.024465
vn -0.999114 0.0347275 -0.0237817
vn -0.9996 0.0282751 0.000166402
vn -0.999624 0.0271018 0.00404266

# Mesh 'Chair_Chair' with 916 faces
g Chair_Chair
usemtl lambert1
f  1/1/1 2/2/2 3/3/3
f  3/3/3 4/4/1 1/1/1
f  5/5/4 1/6/5 4/7/5
f  4/7/5 6/8/6 5/5/4
f  7/9/7 8/10/8 9/11/8
f  9/11/8 10/12/7 7/9/7
f  2/13/9 7/14/9 10/15/9
f  10/15/9 3/16/9 2/13/9
f  4/17/10 3/18/10 10/19/10
f  10/19/10 9/20/10 6/21/10
f  10/19/10 6/21/10 4/17/10
f  8/22/11 7/23/11 2/24/11
f  2/24/11 1/25/11 5/26/11
f  2/24/11 5/26/11 8/22/11
f  8/27/12 5/5/4 6/8/6
f  6/8/6 9/28/12 8/27/12
f  11/29/13 12/30/13 13/31/13
f  13/31/13 14/32/13 11/29/13
f  15/33/14 16/34/14 12/35/14
f  12/35/14 17/36/14 15/33/14
f  18/37/15 13/31/15 16/38/15
f  16/38/15 19/39/15 18/37/15
f  20/40/16 21/41/16 17/42/16
f  17/42/16 22/43/16 20/40/16
f  23/44/17 15/45/17 21/41/17
f  21/41/17 24/46/17 23/44/17
f  25/47/18 18/37/18 26/48/18
f  26/48/18 27/49/18 25/47/18
f  28/50/19 26/51/19 19/52/19
f  19/52/19 23/53/19 28/50/19
f  29/54/20 28/55/20 24/46/20
f  24/46/20 30/56/20 29/54/20
f  14/32/21 25/47/21 31/57/21
f  31/57/21 32/58/21 14/32/21
f  33/59/22 31/60/22 27/61/22
f  27/61/22 29/62/22 33/59/22
f  34/63/23 33/64/23 30/56/23
f  30/56/23 20/40/23 34/63/23
f  22/65/24 11/66/24 32/67/24
f  32/67/24 34/68/24 22/65/24
f  19/69/25 16/70/25 15/71/25
f  15/71/25 23/72/25 19/69/25
f  27/61/26 26/51/26 28/50/26
f  28/50/26 29/62/26 27/61/26
f  32/73/27 31/74/27 33/75/27
f  33/75/27 34/76/27 32/73/27
f  12/35/9 11/66/9 22/65/9
f  22/65/9 17/36/9 12/35/9
f  24/46/10 21/41/10 20/40/10
f  20/40/10 30/56/10 24/46/10
f  25/47/28 14/32/28 13/31/28
f  13/31/28 18/37/28 25/47/28
f  12/30/29 16/38/29 13/31/29
f  21/41/30 15/45/30 17/42/30
f  18/37/31 19/39/31 26/48/31
f  28/55/32 23/44/32 24/46/32
f  25/47/33 27/49/33 31/57/33
f  33/64/34 29/54/34 30/56/34
f  14/32/35 32/58/35 11/29/35
f  22/43/36 34/63/36 20/40/36
f  35/77/37 36/78/38 37/79/39
f  37/79/39 38/80/40 35/77/37
f  39/81/41 35/77/42 38/80/43
f  38/80/43 40/82/44 39/81/41
f  41/83/45 39/81/46 40/82/47
f  40/82/47 42/84/48 41/83/45
f  36/78/49 41/83/50 42/84/51
f  42/84/51 37/79/52 36/78/49
f  38/80/53 37/79/54 42/84/55
f  42/84/55 40/82/56 38/80/53
f  39/81/57 41/83/58 36/78/59
f  36/78/59 35/77/59 39/81/57
f  43/85/60 44/86/61 45/87/62
f  45/87/62 46/88/63 43/85/60
f  47/89/64 43/90/65 46/91/64
f  46/91/64 48/92/65 47/89/64
f  49/93/66 47/89/67 48/92/68
f  48/92/68 50/94/69 49/93/66
f  44/86/9 49/93/9 50/94/9
f  50/94/9 45/87/9 44/86/9
f  46/88/70 45/87/71 50/94/72
f  50/94/72 48/92/70 46/88/70
f  47/95/73 49/96/74 44/86/75
f  44/86/75 43/85/76 47/95/73
f  51/97/77 52/98/78 53/99/79
f  53/99/79 54/100/80 51/97/77
f  55/101/81 51/97/82 54/100/83
f  54/100/83 56/102/84 55/101/81
f  57/103/85 55/101/86 56/102/87
f  56/102/87 58/104/88 57/103/85
f  52/98/89 57/103/90 58/104/91
f  58/104/91 53/99/92 52/98/89
f  54/100/93 53/99/94 58/104/95
f  58/104/95 56/102/96 54/100/93
f  55/101/97 57/103/98 52/98/97
f  52/98/97 51/97/99 55/101/97
f  59/105/100 60/106/100 61/107/101
f  61/107/101 62/108/102 59/105/100
f  63/109/103 59/105/104 62/108/105
f  62/108/105 64/110/106 63/109/103
f  65/111/107 63/109/108 64/110/109
f  64/110/109 66/112/110 65/111/107
f  60/106/111 65/111/112 66/112/113
f  66/112/113 61/107/112 60/106/111
f  62/108/114 61/107/115 66/112/116
f  66/112/116 64/110/114 62/108/114
f  63/109/117 65/111/118 60/106/119
f  60/106/119 59/105/120 63/109/117
f  67/113/121 68/114/122 69/115/123
f  67/113/121 69/115/123 70/116/124
f  67/113/121 70/116/124 71/117/125
f  67/113/121 71/117/125 72/118/122
f  72/118/122 73/119/123 74/120/126
f  72/118/122 74/120/126 67/113/121
f  75/121/127 76/122/128 67/113/129
f  67/113/129 74/120/130 75/121/127
f  77/123/131 78/124/132 79/125/133
f  79/125/133 80/126/134 77/123/131
f  73/119/135 72/118/136 71/117/137
f  73/119/135 71/117/137 81/127/138
f  73/119/135 81/127/138 82/128/139
f  73/119/135 82/128/139 83/129/140
f  83/129/140 84/130/141 85/131/142
f  83/129/140 85/131/142 73/119/135
f  75/121/143 74/120/144 73/119/145
f  73/119/145 85/131/146 75/121/143
f  75/121/147 85/131/148 84/130/149
f  84/130/149 86/132/150 75/121/147
f  75/121/151 86/132/152 87/133/153
f  87/133/153 76/122/154 75/121/151
f  83/129/155 82/128/156 80/126/157
f  83/129/155 80/126/157 79/125/158
f  83/129/155 79/125/158 88/134/159
f  83/129/155 88/134/159 87/133/160
f  83/129/155 87/133/160 86/132/161
f  83/129/155 86/132/161 84/130/162
f  77/123/163 80/126/164 82/128/165
f  82/128/165 81/127/166 77/123/163
f  77/123/167 81/127/168 71/117/169
f  71/117/169 70/116/170 77/123/167
f  77/123/171 70/116/172 69/115/173
f  69/115/173 78/124/174 77/123/171
f  68/114/175 67/113/176 76/122/177
f  68/114/175 76/122/177 87/133/178
f  68/114/175 87/133/178 88/134/179
f  68/114/175 88/134/179 79/125/180
f  68/114/175 79/125/180 78/124/181
f  68/114/175 78/124/181 69/115/182
f  89/135/183 90/136/184 91/137/185
f  91/137/185 92/138/186 89/135/183
f  92/139/186 91/140/185 93/141/187
f  93/141/187 94/142/188 92/139/186
f  95/143/189 92/139/186 94/142/188
f  94/142/188 96/144/190 95/143/189
f  97/145/191 89/135/183 92/138/186
f  92/138/186 95/146/189 97/145/191
f  98/147/192 99/148/193 100/149/194
f  100/149/194 101/150/195 98/147/192
f  101/151/195 100/152/194 102/153/196
f  102/153/196 103/154/197 101/151/195
f  104/155/198 101/151/195 103/154/197
f  103/154/197 105/156/199 104/155/198
f  106/157/200 98/147/192 101/150/195
f  101/150/195 104/158/198 106/157/200
f  107/159/201 108/160/202 109/161/203
f  109/161/203 110/162/204 107/159/201
f  110/163/204 109/164/203 111/165/205
f  111/165/205 112/166/206 110/163/204
f  113/167/207 110/163/204 112/166/206
f  112/166/206 114/168/208 113/167/207
f  115/169/209 107/159/201 110/162/204
f  110/162/204 113/170/207 115/169/209
f  116/171/210 117/172/211 118/173/212
f  118/173/212 119/174/213 116/171/210
f  119/175/213 118/176/212 120/177/214
f  120/177/214 121/178/215 119/175/213
f  122/179/216 119/175/213 121/178/215
f  121/178/215 123/180/217 122/179/216
f  124/181/218 116/171/210 119/174/213
f  119/174/213 122/182/216 124/181/218
f  125/183/219 126/184/220 127/185/221
f  127/185/221 128/186/222 125/183/219
f  128/186/222 127/185/221 129/187/223
f  129/187/223 130/188/224 128/186/222
f  131/189/225 128/186/222 130/188/224
f  130/188/224 132/190/226 131/189/225
f  133/191/227 125/183/219 128/186/222
f  128/186/222 131/189/225 133/191/227
f  134/192/228 135/193/229 136/194/230
f  136/194/230 137/195/231 134/192/228
f  137/195/231 136/194/230 111/165/205
f  111/165/205 138/196/232 137/195/231
f  139/197/233 137/195/231 138/196/232
f  138/196/232 140/198/234 139/197/233
f  141/199/235 134/192/228 137/195/231
f  137/195/231 139/197/233 141/199/235
f  142/200/236 143/201/237 144/202/238
f  144/202/238 145/203/239 142/200/236
f  145/204/239 144/205/238 146/206/240
f  146/206/240 147/207/241 145/204/239
f  148/208/242 145/204/239 147/207/241
f  147/207/241 149/209/243 148/208/242
f  150/210/244 142/200/236 145/203/239
f  145/203/239 148/211/242 150/210/244
f  151/212/245 152/213/246 153/214/247
f  153/214/247 154/215/248 151/212/245
f  154/216/248 153/217/247 129/187/223
f  129/187/223 155/218/249 154/216/248
f  156/219/250 154/216/248 155/218/249
f  155/218/249 157/220/251 156/219/250
f  158/221/252 151/212/245 154/215/248
f  154/215/248 156/222/250 158/221/252
f  159/223/253 160/224/254 161/225/255
f  161/225/255 162/226/256 159/223/253
f  162/227/256 161/228/255 163/229/257
f  163/229/257 164/230/258 162/227/256
f  165/231/259 162/227/256 164/230/258
f  164/230/258 166/232/260 165/231/259
f  167/233/261 159/223/253 162/226/256
f  162/226/256 165/234/259 167/233/261
f  168/235/262 169/236/263 170/237/264
f  170/237/264 171/238/265 168/235/262
f  171/238/265 170/237/264 163/229/257
f  163/229/257 172/239/266 171/238/265
f  173/240/267 171/238/265 172/239/266
f  172/239/266 174/241/268 173/240/267
f  175/242/269 168/235/262 171/238/265
f  171/238/265 173/240/267 175/242/269
f  176/243/270 177/244/271 178/245/272
f  178/245/272 179/246/273 176/243/270
f  179/247/273 178/248/272 180/249/274
f  180/249/274 181/250/275 179/247/273
f  182/251/276 179/247/273 181/250/275
f  181/250/275 183/252/277 182/251/276
f  184/253/278 176/243/270 179/246/273
f  179/246/273 182/254/276 184/253/278
f  185/255/279 186/256/280 187/257/281
f  187/257/281 188/258/282 185/255/279
f  188/258/282 187/257/281 189/259/283
f  189/259/283 190/260/284 188/258/282
f  191/261/285 188/258/282 190/260/284
f  190/260/284 192/262/286 191/261/285
f  193/263/287 185/255/279 188/258/282
f  188/258/282 191/261/285 193/263/287
f  194/264/288 195/265/289 196/266/290
f  196/266/290 197/267/291 194/264/288
f  197/268/291 196/269/290 189/259/283
f  189/259/283 198/270/292 197/268/291
f  199/271/293 197/268/291 198/270/292
f  198/270/292 200/272/294 199/271/293
f  201/273/295 194/264/288 197/267/291
f  197/267/291 199/274/293 201/273/295
f  202/275/296 203/276/297 204/277/298
f  204/277/298 205/278/299 202/275/296
f  205/279/299 204/280/298 206/281/300
f  206/281/300 207/282/301 205/279/299
f  208/283/302 205/279/299 207/282/301
f  207/282/301 209/284/303 208/283/302
f  210/285/304 202/275/296 205/278/299
f  205/278/299 208/286/302 210/285/304
f  211/287/305 212/288/306 213/289/307
f  213/289/307 214/290/308 211/287/305
f  214/291/308 213/292/307 215/293/309
f  215/293/309 216/294/310 214/291/308
f  217/295/311 214/291/308 216/294/310
f  216/294/310 218/296/312 217/295/311
f  219/297/313 211/287/305 214/290/308
f  214/290/308 217/298/311 219/297/313
f  220/299/314 221/300/315 222/301/316
f  222/301/316 223/302/317 220/299/314
f  223/302/317 222/301/316 215/293/309
f  215/293/309 224/303/318 223/302/317
f  225/304/319 223/302/317 224/303/318
f  224/303/318 226/305/320 225/304/319
f  227/306/321 220/299/314 223/302/317
f  223/302/317 225/304/319 227/306/321
f  228/307/322 229/308/323 230/309/324
f  230/309/324 231/310/325 228/307/322
f  231/311/325 230/312/324 232/313/326
f  232/313/326 233/314/327 231/311/325
f  234/315/328 231/311/325 233/314/327
f  233/314/327 235/316/329 234/315/328
f  236/317/330 228/307/322 231/310/325
f  231/310/325 234/318/328 236/317/330
f  237/319/331 238/320/332 239/321/333
f  239/321/333 240/322/334 237/319/331
f  240/322/334 239/321/333 146/206/240
f  146/206/240 241/323/335 240/322/334
f  242/324/336 240/322/334 241/323/335
f  241/323/335 243/325/337 242/324/336
f  244/326/338 237/319/331 240/322/334
f  240/322/334 242/324/336 244/326/338
f  245/327/339 246/328/340 247/329/341
f  247/329/341 248/330/342 245/327/339
f  248/330/342 247/329/341 232/313/326
f  232/313/326 249/331/343 248/330/342
f  250/332/344 248/330/342 249/331/343
f  249/331/343 251/333/345 250/332/344
f  252/334/346 245/327/339 248/330/342
f  248/330/342 250/332/344 252/334/346
f  253/335/347 254/336/348 255/337/349
f  255/337/349 256/338/350 253/335/347
f  256/338/350 255/337/349 206/281/300
f  206/281/300 257/339/351 256/338/350
f  258/340/352 256/338/350 257/339/351
f  257/339/351 259/341/353 258/340/352
f  260/342/354 253/335/347 256/338/350
f  256/338/350 258/340/352 260/342/354
f  261/343/355 262/344/356 263/345/357
f  263/345/357 264/346/358 261/343/355
f  264/346/358 263/345/357 180/249/274
f  180/249/274 265/347/359 264/346/358
f  266/348/360 264/346/358 265/347/359
f  265/347/359 267/349/361 266/348/360
f  268/350/362 261/343/355 264/346/358
f  264/346/358 266/348/360 268/350/362
f  269/351/363 270/352/364 271/353/365
f  271/353/365 272/354/366 269/351/363
f  272/354/366 271/353/365 120/177/214
f  120/177/214 273/355/367 272/354/366
f  274/356/368 272/354/366 273/355/367
f  273/355/367 275/357/369 274/356/368
f  276/358/370 269/351/363 272/354/366
f  272/354/366 274/356/368 276/358/370
f  277/359/371 278/360/372 279/361/373
f  279/361/373 280/362/374 277/359/371
f  280/362/374 279/361/373 93/141/187
f  93/141/187 281/363/375 280/362/374
f  282/364/376 280/362/374 281/363/375
f  281/363/375 283/365/377 282/364/376
f  284/366/378 277/359/371 280/362/374
f  280/362/374 282/364/376 284/366/378
f  285/367/379 286/368/380 287/369/381
f  287/369/381 288/370/382 285/367/379
f  288/370/382 287/369/381 102/153/196
f  102/153/196 289/371/383 288/370/382
f  290/372/384 288/370/382 289/371/383
f  289/371/383 291/373/385 290/372/384
f  292/374/386 285/367/379 288/370/382
f  288/370/382 290/372/384 292/374/386
f  95/143/189 96/144/190 293/375/387
f  293/375/387 294/376/388 95/143/189
f  294/376/388 293/375/387 295/377/389
f  295/377/389 296/378/390 294/376/388
f  297/379/391 294/380/388 296/381/390
f  296/381/390 243/325/337 297/379/391
f  97/145/191 95/146/189 294/382/388
f  294/382/388 297/383/391 97/145/191
f  297/379/391 243/325/337 241/323/335
f  241/323/335 298/384/392 297/379/391
f  298/384/392 241/323/335 146/206/240
f  146/206/240 144/205/238 298/384/392
f  299/385/393 298/386/392 144/202/238
f  144/202/238 143/201/237 299/385/393
f  97/145/191 297/383/391 298/386/392
f  298/386/392 299/385/393 97/145/191
f  299/385/393 143/201/237 300/387/394
f  300/387/394 301/388/395 299/385/393
f  301/388/395 300/387/394 302/389/396
f  302/389/396 303/390/397 301/388/395
f  89/135/183 301/388/395 303/390/397
f  303/390/397 90/136/184 89/135/183
f  97/145/191 299/385/393 301/388/395
f  301/388/395 89/135/183 97/145/191
f  104/155/198 105/156/199 304/391/398
f  304/391/398 305/392/399 104/155/198
f  305/392/399 304/391/398 306/393/400
f  306/393/400 307/394/401 305/392/399
f  308/395/402 305/396/399 307/397/401
f  307/397/401 166/232/260 308/395/402
f  106/157/200 104/158/198 305/396/399
f  305/396/399 308/395/402 106/157/200
f  308/395/402 166/232/260 164/230/258
f  164/230/258 309/398/403 308/395/402
f  309/398/403 164/230/258 163/229/257
f  163/229/257 170/237/264 309/398/403
f  310/399/404 309/398/403 170/237/264
f  170/237/264 169/236/263 310/399/404
f  106/157/200 308/395/402 309/398/403
f  309/398/403 310/399/404 106/157/200
f  310/399/404 169/236/263 311/400/405
f  311/400/405 312/401/406 310/399/404
f  312/401/406 311/400/405 313/402/407
f  313/402/407 314/403/408 312/401/406
f  98/147/192 312/401/406 314/403/408
f  314/403/408 99/148/193 98/147/192
f  106/157/200 310/399/404 312/401/406
f  312/401/406 98/147/192 106/157/200
f  113/167/207 114/168/208 315/404/409
f  315/404/409 316/405/410 113/167/207
f  316/405/410 315/404/409 317/406/411
f  317/406/411 318/407/412 316/405/410
f  319/408/413 316/409/410 318/410/412
f  318/410/412 192/262/286 319/408/413
f  115/169/209 113/170/207 316/411/410
f  316/411/410 319/412/413 115/169/209
f  319/408/413 192/262/286 190/260/284
f  190/260/284 320/413/414 319/408/413
f  320/413/414 190/260/284 189/259/283
f  189/259/283 196/269/290 320/413/414
f  321/414/415 320/415/414 196/266/290
f  196/266/290 195/265/289 321/414/415
f  115/169/209 319/412/413 320/415/414
f  320/415/414 321/414/415 115/169/209
f  321/414/415 195/265/289 322/416/416
f  322/416/416 323/417/417 321/414/415
f  323/417/417 322/416/416 324/418/418
f  324/418/418 325/419/419 323/417/417
f  107/159/201 323/417/417 325/419/419
f  325/419/419 108/160/202 107/159/201
f  115/169/209 321/414/415 323/417/417
f  323/417/417 107/159/201 115/169/209
f  122/179/216 123/180/217 326/420/420
f  326/420/420 327/421/421 122/179/216
f  327/421/421 326/420/420 328/422/422
f  328/422/422 329/423/423 327/421/421
f  330/424/424 327/425/421 329/426/423
f  329/426/423 218/296/312 330/424/424
f  124/181/218 122/182/216 327/425/421
f  327/425/421 330/424/424 124/181/218
f  330/424/424 218/296/312 216/294/310
f  216/294/310 331/427/425 330/424/424
f  331/427/425 216/294/310 215/293/309
f  215/293/309 222/301/316 331/427/425
f  332/428/426 331/427/425 222/301/316
f  222/301/316 221/300/315 332/428/426
f  124/181/218 330/424/424 331/427/425
f  331/427/425 332/428/426 124/181/218
f  332/428/426 221/300/315 333/429/427
f  333/429/427 334/430/428 332/428/426
f  334/430/428 333/429/427 335/431/429
f  335/431/429 336/432/430 334/430/428
f  116/171/210 334/430/428 336/432/430
f  336/432/430 117/172/211 116/171/210
f  124/181/218 332/428/426 334/430/428
f  334/430/428 116/171/210 124/181/218
f  131/189/225 132/190/226 337/433/431
f  337/433/431 338/434/432 131/189/225
f  338/434/432 337/433/431 339/435/433
f  339/435/433 340/436/434 338/434/432
f  341/437/435 338/434/432 340/436/434
f  340/436/434 235/316/329 341/437/435
f  133/191/227 131/189/225 338/434/432
f  338/434/432 341/437/435 133/191/227
f  341/437/435 235/316/329 233/314/327
f  233/314/327 342/438/436 341/437/435
f  342/438/436 233/314/327 232/313/326
f  232/313/326 247/329/341 342/438/436
f  343/439/437 342/438/436 247/329/341
f  247/329/341 246/328/340 343/439/437
f  133/191/227 341/437/435 342/438/436
f  342/438/436 343/439/437 133/191/227
f  343/439/437 246/328/340 344/440/438
f  344/440/438 345/441/439 343/439/437
f  345/441/439 344/440/438 346/442/440
f  346/442/440 347/443/441 345/441/439
f  125/183/219 345/441/439 347/443/441
f  347/443/441 126/184/220 125/183/219
f  133/191/227 343/439/437 345/441/439
f  345/441/439 125/183/219 133/191/227
f  139/197/233 140/198/234 348/444/442
f  348/444/442 349/445/443 139/197/233
f  349/445/443 348/444/442 328/422/422
f  328/422/422 326/420/420 349/445/443
f  350/446/444 349/445/443 326/420/420
f  326/420/420 123/180/217 350/446/444
f  141/199/235 139/197/233 349/445/443
f  349/445/443 350/446/444 141/199/235
f  350/446/444 123/180/217 121/178/215
f  121/178/215 351/447/445 350/446/444
f  351/447/445 121/178/215 120/177/214
f  120/177/214 271/353/365 351/447/445
f  352/448/446 351/447/445 271/353/365
f  271/353/365 270/352/364 352/448/446
f  141/199/235 350/446/444 351/447/445
f  351/447/445 352/448/446 141/199/235
f  352/448/446 270/352/364 353/449/447
f  353/449/447 354/450/448 352/448/446
f  354/450/448 353/449/447 355/451/449
f  355/451/449 356/452/450 354/450/448
f  134/192/228 354/450/448 356/452/450
f  356/452/450 135/193/229 134/192/228
f  141/199/235 352/448/446 354/450/448
f  354/450/448 134/192/228 141/199/235
f  148/208/242 149/209/243 357/453/451
f  357/453/451 358/454/452 148/208/242
f  358/455/452 357/456/451 339/435/433
f  339/435/433 337/433/431 358/455/452
f  359/457/453 358/455/452 337/433/431
f  337/433/431 132/190/226 359/457/453
f  150/210/244 148/211/242 358/458/452
f  358/458/452 359/459/453 150/210/244
f  359/457/453 132/190/226 130/188/224
f  130/188/224 360/460/454 359/457/453
f  360/460/454 130/188/224 129/187/223
f  129/187/223 153/217/247 360/460/454
f  361/461/455 360/462/454 153/214/247
f  153/214/247 152/213/246 361/461/455
f  150/210/244 359/459/453 360/462/454
f  360/462/454 361/461/455 150/210/244
f  361/461/455 152/213/246 362/463/456
f  362/463/456 363/464/457 361/461/455
f  363/464/457 362/463/456 302/389/396
f  302/389/396 300/387/394 363/464/457
f  142/200/236 363/464/457 300/387/394
f  300/387/394 143/201/237 142/200/236
f  150/210/244 361/461/455 363/464/457
f  363/464/457 142/200/236 150/210/244
f  156/219/250 157/220/251 364/465/458
f  364/465/458 365/466/459 156/219/250
f  365/466/459 364/465/458 366/467/460
f  366/467/460 367/468/461 365/466/459
f  368/469/462 365/470/459 367/471/461
f  367/471/461 174/241/268 368/469/462
f  158/221/252 156/222/250 365/472/459
f  365/472/459 368/473/462 158/221/252
f  368/469/462 174/241/268 172/239/266
f  172/239/266 369/474/463 368/469/462
f  369/474/463 172/239/266 163/229/257
f  163/229/257 161/228/255 369/474/463
f  370/475/464 369/476/463 161/225/255
f  161/225/255 160/224/254 370/475/464
f  158/221/252 368/473/462 369/476/463
f  369/476/463 370/475/464 158/221/252
f  370/475/464 160/224/254 371/477/465
f  371/477/465 372/478/466 370/475/464
f  372/478/466 371/477/465 302/389/396
f  302/389/396 362/463/456 372/478/466
f  151/212/245 372/478/466 362/463/456
f  362/463/456 152/213/246 151/212/245
f  158/221/252 370/475/464 372/478/466
f  372/478/466 151/212/245 158/221/252
f  165/231/259 166/232/260 307/397/401
f  307/397/401 373/479/467 165/231/259
f  373/480/467 307/394/401 306/393/400
f  306/393/400 374/481/468 373/480/467
f  375/482/469 373/480/467 374/481/468
f  374/481/468 283/365/377 375/482/469
f  167/233/261 165/234/259 373/483/467
f  373/483/467 375/484/469 167/233/261
f  375/482/469 283/365/377 281/363/375
f  281/363/375 376/485/470 375/482/469
f  376/485/470 281/363/375 93/141/187
f  93/141/187 91/140/185 376/485/470
f  377/486/471 376/487/470 91/137/185
f  91/137/185 90/136/184 377/486/471
f  167/233/261 375/484/469 376/487/470
f  376/487/470 377/486/471 167/233/261
f  377/486/471 90/136/184 303/390/397
f  303/390/397 378/488/472 377/486/471
f  378/488/472 303/390/397 302/389/396
f  302/389/396 371/477/465 378/488/472
f  159/223/253 378/488/472 371/477/465
f  371/477/465 160/224/254 159/223/253
f  167/233/261 377/486/471 378/488/472
f  378/488/472 159/223/253 167/233/261
f  173/240/267 174/241/268 367/471/461
f  367/471/461 379/489/473 173/240/267
f  379/490/473 367/468/461 366/467/460
f  366/467/460 380/491/474 379/490/473
f  381/492/475 379/490/473 380/491/474
f  380/491/474 267/349/361 381/492/475
f  175/242/269 173/240/267 379/489/473
f  379/489/473 381/493/475 175/242/269
f  381/492/475 267/349/361 265/347/359
f  265/347/359 382/494/476 381/492/475
f  382/494/476 265/347/359 180/249/274
f  180/249/274 178/248/272 382/494/476
f  383/495/477 382/496/476 178/245/272
f  178/245/272 177/244/271 383/495/477
f  175/242/269 381/493/475 382/496/476
f  382/496/476 383/495/477 175/242/269
f  383/495/477 177/244/271 384/497/478
f  384/497/478 385/498/479 383/495/477
f  385/498/479 384/497/478 313/402/407
f  313/402/407 311/400/405 385/498/479
f  168/235/262 385/498/479 311/400/405
f  311/400/405 169/236/263 168/235/262
f  175/242/269 383/495/477 385/498/479
f  385/498/479 168/235/262 175/242/269
f  182/251/276 183/252/277 386/499/480
f  386/499/480 387/500/481 182/251/276
f  387/500/481 386/499/480 388/501/482
f  388/501/482 389/502/483 387/500/481
f  390/503/484 387/504/481 389/505/483
f  389/505/483 200/272/294 390/503/484
f  184/253/278 182/254/276 387/504/481
f  387/504/481 390/503/484 184/253/278
f  390/503/484 200/272/294 198/270/292
f  198/270/292 391/506/485 390/503/484
f  391/506/485 198/270/292 189/259/283
f  189/259/283 187/257/281 391/506/485
f  392/507/486 391/506/485 187/257/281
f  187/257/281 186/256/280 392/507/486
f  184/253/278 390/503/484 391/506/485
f  391/506/485 392/507/486 184/253/278
f  392/507/486 186/256/280 393/508/487
f  393/508/487 394/509/488 392/507/486
f  394/509/488 393/508/487 313/402/407
f  313/402/407 384/497/478 394/509/488
f  176/243/270 394/509/488 384/497/478
f  384/497/478 177/244/271 176/243/270
f  184/253/278 392/507/486 394/509/488
f  394/509/488 176/243/270 184/253/278
f  191/261/285 192/262/286 318/410/412
f  318/410/412 395/510/489 191/261/285
f  395/511/489 318/407/412 317/406/411
f  317/406/411 396/512/490 395/511/489
f  397/513/491 395/511/489 396/512/490
f  396/512/490 291/373/385 397/513/491
f  193/263/287 191/261/285 395/510/489
f  395/510/489 397/514/491 193/263/287
f  397/513/491 291/373/385 289/371/383
f  289/371/383 398/515/492 397/513/491
f  398/515/492 289/371/383 102/153/196
f  102/153/196 100/152/194 398/515/492
f  399/516/493 398/517/492 100/149/194
f  100/149/194 99/148/193 399/516/493
f  193/263/287 397/514/491 398/517/492
f  398/517/492 399/516/493 193/263/287
f  399/516/493 99/148/193 314/403/408
f  314/403/408 400/518/494 399/516/493
f  400/518/494 314/403/408 313/402/407
f  313/402/407 393/508/487 400/518/494
f  185/255/279 400/518/494 393/508/487
f  393/508/487 186/256/280 185/255/279
f  193/263/287 399/516/493 400/518/494
f  400/518/494 185/255/279 193/263/287
f  199/271/293 200/272/294 389/505/483
f  389/505/483 401/519/495 199/271/293
f  401/520/495 389/502/483 388/501/482
f  388/501/482 402/521/496 401/520/495
f  403/522/497 401/520/495 402/521/496
f  402/521/496 259/341/353 403/522/497
f  201/273/295 199/274/293 401/523/495
f  401/523/495 403/524/497 201/273/295
f  403/522/497 259/341/353 257/339/351
f  257/339/351 404/525/498 403/522/497
f  404/525/498 257/339/351 206/281/300
f  206/281/300 204/280/298 404/525/498
f  405/526/499 404/527/498 204/277/298
f  204/277/298 203/276/297 405/526/499
f  201/273/295 403/524/497 404/527/498
f  404/527/498 405/526/499 201/273/295
f  405/526/499 203/276/297 406/528/500
f  406/528/500 407/529/501 405/526/499
f  407/529/501 406/528/500 324/418/418
f  324/418/418 322/416/416 407/529/501
f  194/264/288 407/529/501 322/416/416
f  322/416/416 195/265/289 194/264/288
f  201/273/295 405/526/499 407/529/501
f  407/529/501 194/264/288 201/273/295
f  208/283/302 209/284/303 408/530/502
f  408/530/502 409/531/503 208/283/302
f  409/531/503 408/530/502 410/532/504
f  410/532/504 411/533/505 409/531/503
f  412/534/506 409/535/503 411/536/505
f  411/536/505 226/305/320 412/534/506
f  210/285/304 208/286/302 409/537/503
f  409/537/503 412/538/506 210/285/304
f  412/534/506 226/305/320 224/303/318
f  224/303/318 413/539/507 412/534/506
f  413/539/507 224/303/318 215/293/309
f  215/293/309 213/292/307 413/539/507
f  414/540/508 413/541/507 213/289/307
f  213/289/307 212/288/306 414/540/508
f  210/285/304 412/538/506 413/541/507
f  413/541/507 414/540/508 210/285/304
f  414/540/508 212/288/306 415/542/509
f  415/542/509 416/543/510 414/540/508
f  416/543/510 415/542/509 324/418/418
f  324/418/418 406/528/500 416/543/510
f  202/275/296 416/543/510 406/528/500
f  406/528/500 203/276/297 202/275/296
f  210/285/304 414/540/508 416/543/510
f  416/543/510 202/275/296 210/285/304
f  217/295/311 218/296/312 329/426/423
f  329/426/423 417/544/511 217/295/311
f  417/545/511 329/423/423 328/422/422
f  328/422/422 348/444/442 417/545/511
f  418/546/512 417/545/511 348/444/442
f  348/444/442 140/198/234 418/546/512
f  219/297/313 217/298/311 417/547/511
f  417/547/511 418/548/512 219/297/313
f  418/546/512 140/198/234 138/196/232
f  138/196/232 419/549/513 418/546/512
f  419/549/513 138/196/232 111/165/205
f  111/165/205 109/164/203 419/549/513
f  420/550/514 419/551/513 109/161/203
f  109/161/203 108/160/202 420/550/514
f  219/297/313 418/548/512 419/551/513
f  419/551/513 420/550/514 219/297/313
f  420/550/514 108/160/202 325/419/419
f  325/419/419 421/552/515 420/550/514
f  421/552/515 325/419/419 324/418/418
f  324/418/418 415/542/509 421/552/515
f  211/287/305 421/552/515 415/542/509
f  415/542/509 212/288/306 211/287/305
f  219/297/313 420/550/514 421/552/515
f  421/552/515 211/287/305 219/297/313
f  225/304/319 226/305/320 411/536/505
f  411/536/505 422/553/516 225/304/319
f  422/554/516 411/533/505 410/532/504
f  410/532/504 423/555/517 422/554/516
f  424/556/518 422/554/516 423/555/517
f  423/555/517 251/333/345 424/556/518
f  227/306/321 225/304/319 422/553/516
f  422/553/516 424/557/518 227/306/321
f  424/556/518 251/333/345 249/331/343
f  249/331/343 425/558/519 424/556/518
f  425/558/519 249/331/343 232/313/326
f  232/313/326 230/312/324 425/558/519
f  426/559/520 425/560/519 230/309/324
f  230/309/324 229/308/323 426/559/520
f  227/306/321 424/557/518 425/560/519
f  425/560/519 426/559/520 227/306/321
f  426/559/520 229/308/323 427/561/521
f  427/561/521 428/562/522 426/559/520
f  428/562/522 427/561/521 335/431/429
f  335/431/429 333/429/427 428/562/522
f  220/299/314 428/562/522 333/429/427
f  333/429/427 221/300/315 220/299/314
f  227/306/321 426/559/520 428/562/522
f  428/562/522 220/299/314 227/306/321
f  234/315/328 235/316/329 340/436/434
f  340/436/434 429/563/523 234/315/328
f  429/563/523 340/436/434 339/435/433
f  339/435/433 357/456/451 429/563/523
f  430/564/524 429/565/523 357/453/451
f  357/453/451 149/209/243 430/564/524
f  236/317/330 234/318/328 429/565/523
f  429/565/523 430/564/524 236/317/330
f  430/564/524 149/209/243 147/207/241
f  147/207/241 431/566/525 430/564/524
f  431/566/525 147/207/241 146/206/240
f  146/206/240 239/321/333 431/566/525
f  432/567/526 431/566/525 239/321/333
f  239/321/333 238/320/332 432/567/526
f  236/317/330 430/564/524 431/566/525
f  431/566/525 432/567/526 236/317/330
f  432/567/526 238/320/332 433/568/527
f  433/568/527 434/569/528 432/567/526
f  434/569/528 433/568/527 335/431/429
f  335/431/429 427/561/521 434/569/528
f  228/307/322 434/569/528 427/561/521
f  427/561/521 229/308/323 228/307/322
f  236/317/330 432/567/526 434/569/528
f  434/569/528 228/307/322 236/317/330
f  242/324/336 243/325/337 296/381/390
f  296/381/390 435/570/529 242/324/336
f  435/571/529 296/378/390 295/377/389
f  295/377/389 436/572/530 435/571/529
f  437/573/531 435/571/529 436/572/530
f  436/572/530 275/357/369 437/573/531
f  244/326/338 242/324/336 435/570/529
f  435/570/529 437/574/531 244/326/338
f  437/573/531 275/357/369 273/355/367
f  273/355/367 438/575/532 437/573/531
f  438/575/532 273/355/367 120/177/214
f  120/177/214 118/176/212 438/575/532
f  439/576/533 438/577/532 118/173/212
f  118/173/212 117/172/211 439/576/533
f  244/326/338 437/574/531 438/577/532
f  438/577/532 439/576/533 244/326/338
f  439/576/533 117/172/211 336/432/430
f  336/432/430 440/578/534 439/576/533
f  440/578/534 336/432/430 335/431/429
f  335/431/429 433/568/527 440/578/534
f  237/319/331 440/578/534 433/568/527
f  433/568/527 238/320/332 237/319/331
f  244/326/338 439/576/533 440/578/534
f  440/578/534 237/319/331 244/326/338
f  250/332/344 251/333/345 423/555/517
f  423/555/517 441/579/535 250/332/344
f  441/579/535 423/555/517 410/532/504
f  410/532/504 408/530/502 441/579/535
f  442/580/536 441/579/535 408/530/502
f  408/530/502 209/284/303 442/580/536
f  252/334/346 250/332/344 441/579/535
f  441/579/535 442/580/536 252/334/346
f  442/580/536 209/284/303 207/282/301
f  207/282/301 443/581/537 442/580/536
f  443/581/537 207/282/301 206/281/300
f  206/281/300 255/337/349 443/581/537
f  444/582/538 443/581/537 255/337/349
f  255/337/349 254/336/348 444/582/538
f  252/334/346 442/580/536 443/581/537
f  443/581/537 444/582/538 252/334/346
f  444/582/538 254/336/348 445/583/539
f  445/583/539 446/584/540 444/582/538
f  446/584/540 445/583/539 346/442/440
f  346/442/440 344/440/438 446/584/540
f  245/327/339 446/584/540 344/440/438
f  344/440/438 246/328/340 245/327/339
f  252/334/346 444/582/538 446/584/540
f  446/584/540 245/327/339 252/334/346
f  258/340/352 259/341/353 402/521/496
f  402/521/496 447/585/541 258/340/352
f  447/585/541 402/521/496 388/501/482
f  388/501/482 386/499/480 447/585/541
f  448/586/542 447/585/541 386/499/480
f  386/499/480 183/252/277 448/586/542
f  260/342/354 258/340/352 447/585/541
f  447/585/541 448/586/542 260/342/354
f  448/586/542 183/252/277 181/250/275
f  181/250/275 449/587/543 448/586/542
f  449/587/543 181/250/275 180/249/274
f  180/249/274 263/345/357 449/587/543
f  450/588/544 449/587/543 263/345/357
f  263/345/357 262/344/356 450/588/544
f  260/342/354 448/586/542 449/587/543
f  449/587/543 450/588/544 260/342/354
f  450/588/544 262/344/356 451/589/545
f  451/589/545 452/590/546 450/588/544
f  452/590/546 451/589/545 346/442/440
f  346/442/440 445/583/539 452/590/546
f  253/335/347 452/590/546 445/583/539
f  445/583/539 254/336/348 253/335/347
f  260/342/354 450/588/544 452/590/546
f  452/590/546 253/335/347 260/342/354
f  266/348/360 267/349/361 380/491/474
f  380/491/474 453/591/547 266/348/360
f  453/591/547 380/491/474 366/467/460
f  366/467/460 364/465/458 453/591/547
f  454/592/548 453/591/547 364/465/458
f  364/465/458 157/220/251 454/592/548
f  268/350/362 266/348/360 453/591/547
f  453/591/547 454/592/548 268/350/362
f  454/592/548 157/220/251 155/218/249
f  155/218/249 455/593/549 454/592/548
f  455/593/549 155/218/249 129/187/223
f  129/187/223 127/185/221 455/593/549
f  456/594/550 455/593/549 127/185/221
f  127/185/221 126/184/220 456/594/550
f  268/350/362 454/592/548 455/593/549
f  455/593/549 456/594/550 268/350/362
f  456/594/550 126/184/220 347/443/441
f  347/443/441 457/595/551 456/594/550
f  457/595/551 347/443/441 346/442/440
f  346/442/440 451/589/545 457/595/551
f  261/343/355 457/595/551 451/589/545
f  451/589/545 262/344/356 261/343/355
f  268/350/362 456/594/550 457/595/551
f  457/595/551 261/343/355 268/350/362
f  274/356/368 275/357/369 436/572/530
f  436/572/530 458/596/552 274/356/368
f  458/596/552 436/572/530 295/377/389
f  295/377/389 293/375/387 458/596/552
f  459/597/553 458/596/552 293/375/387
f  293/375/387 96/144/190 459/597/553
f  276/358/370 274/356/368 458/596/552
f  458/596/552 459/597/553 276/358/370
f  459/597/553 96/144/190 94/142/188
f  94/142/188 460/598/554 459/597/553
f  460/598/554 94/142/188 93/141/187
f  93/141/187 279/361/373 460/598/554
f  461/599/555 460/598/554 279/361/373
f  279/361/373 278/360/372 461/599/555
f  276/358/370 459/597/553 460/598/554
f  460/598/554 461/599/555 276/358/370
f  461/599/555 278/360/372 462/600/556
f  462/600/556 463/601/557 461/599/555
f  463/601/557 462/600/556 355/451/449
f  355/451/449 353/449/447 463/601/557
f  269/351/363 463/601/557 353/449/447
f  353/449/447 270/352/364 269/351/363
f  276/358/370 461/599/555 463/601/557
f  463/601/557 269/351/363 276/358/370
f  282/364/376 283/365/377 374/481/468
f  374/481/468 464/602/558 282/364/376
f  464/602/558 374/481/468 306/393/400
f  306/393/400 304/391/398 464/602/558
f  465/603/559 464/602/558 304/391/398
f  304/391/398 105/156/199 465/603/559
f  284/366/378 282/364/376 464/602/558
f  464/602/558 465/603/559 284/366/378
f  465/603/559 105/156/199 103/154/197
f  103/154/197 466/604/560 465/603/559
f  466/604/560 103/154/197 102/153/196
f  102/153/196 287/369/381 466/604/560
f  467/605/561 466/604/560 287/369/381
f  287/369/381 286/368/380 467/605/561
f  284/366/378 465/603/559 466/604/560
f  466/604/560 467/605/561 284/366/378
f  467/605/561 286/368/380 468/606/562
f  468/606/562 469/607/563 467/605/561
f  469/607/563 468/606/562 355/451/449
f  355/451/449 462/600/556 469/607/563
f  277/359/371 469/607/563 462/600/556
f  462/600/556 278/360/372 277/359/371
f  284/366/378 467/605/561 469/607/563
f  469/607/563 277/359/371 284/366/378
f  290/372/384 291/373/385 396/512/490
f  396/512/490 470/608/564 290/372/384
f  470/608/564 396/512/490 317/406/411
f  317/406/411 315/404/409 470/608/564
f  471/609/565 470/608/564 315/404/409
f  315/404/409 114/168/208 471/609/565
f  292/374/386 290/372/384 470/608/564
f  470/608/564 471/609/565 292/374/386
f  471/609/565 114/168/208 112/166/206
f  112/166/206 472/610/566 471/609/565
f  472/610/566 112/166/206 111/165/205
f  111/165/205 136/194/230 472/610/566
f  473/611/567 472/610/566 136/194/230
f  136/194/230 135/193/229 473/611/567
f  292/374/386 471/609/565 472/610/566
f  472/610/566 473/611/567 292/374/386
f  473/611/567 135/193/229 356/452/450
f  356/452/450 474/612/568 473/611/567
f  474/612/568 356/452/450 355/451/449
f  355/451/449 468/606/562 474/612/568
f  285/367/379 474/612/568 468/606/562
f  468/606/562 286/368/380 285/367/379
f  292/374/386 473/611/567 474/612/568
f  474/612/568 285/367/379 292/374/386

