# This file uses centimeters as units for non-parametric coordinates.

mtllib Wooden_Door.mtl
g default
v 1.123462 1.256031 -0.123661
v 1.131749 1.265085 -0.123661
v 1.131749 1.276278 -0.123661
v 1.123462 1.285333 -0.123661
v 1.110053 1.288792 -0.123661
v 1.096644 1.285333 -0.123661
v 1.088357 1.276278 -0.123661
v 1.088357 1.265085 -0.123661
v 1.096644 1.256031 -0.123661
v 1.110053 1.252572 -0.123661
v 1.123462 1.256031 -0.105157
v 1.131749 1.265085 -0.105157
v 1.131749 1.276278 -0.105157
v 1.123462 1.285333 -0.105157
v 1.110053 1.288792 -0.105157
v 1.096644 1.285333 -0.105157
v 1.088357 1.276278 -0.105157
v 1.088357 1.265085 -0.105157
v 1.096644 1.256031 -0.105157
v 1.110053 1.252572 -0.105157
v 1.110053 1.270682 -0.105157
v 1.075666 1.285333 -0.157080
v 1.075666 1.276278 -0.163659
v 1.075666 1.265085 -0.163659
v 1.075666 1.256031 -0.157080
v 1.075666 1.252572 -0.146436
v 1.075666 1.256031 -0.135791
v 1.075666 1.265085 -0.129212
v 1.075666 1.276278 -0.129212
v 1.075666 1.285333 -0.135791
v 1.075666 1.288792 -0.146436
v 0.956048 1.285333 -0.157080
v 0.956048 1.276278 -0.163659
v 0.956048 1.265085 -0.163659
v 0.956048 1.256031 -0.157080
v 0.956048 1.252572 -0.146436
v 0.956048 1.256031 -0.135791
v 0.956048 1.265085 -0.129212
v 0.956048 1.276278 -0.129212
v 0.956048 1.285333 -0.135791
v 0.956048 1.288792 -0.146436
v 0.904229 1.285333 -0.116440
v 0.895942 1.276278 -0.116440
v 0.895942 1.265085 -0.116440
v 0.904229 1.256031 -0.116440
v 0.917638 1.252572 -0.116440
v 0.931047 1.256031 -0.116440
v 0.939334 1.265085 -0.116440
v 0.939334 1.276278 -0.116440
v 0.931047 1.285333 -0.116440
v 0.917638 1.288792 -0.116440
v 0.906861 1.282457 -0.103407
v 0.900200 1.275179 -0.103407
v 0.900200 1.266184 -0.103407
v 0.906861 1.258906 -0.103407
v 0.917638 1.256127 -0.103407
v 0.928415 1.258906 -0.103407
v 0.935075 1.266184 -0.103407
v 0.935075 1.275179 -0.103407
v 0.928415 1.282457 -0.103407
v 0.917638 1.285237 -0.103407
v 0.917638 1.270682 -0.095067
v 1.129212 1.265085 -0.138108
v 1.121349 1.256031 -0.136623
v 1.108625 1.252572 -0.134221
v 1.095901 1.256031 -0.131818
v 1.088038 1.265085 -0.130333
v 1.088038 1.276278 -0.130333
v 1.095901 1.285333 -0.131818
v 1.108625 1.288792 -0.134221
v 1.121349 1.285333 -0.136623
v 1.129212 1.276278 -0.138108
v 1.114407 1.265085 -0.155020
v 1.109518 1.256031 -0.150044
v 1.101606 1.252572 -0.141992
v 1.093694 1.256031 -0.133940
v 1.088804 1.265085 -0.128964
v 1.088804 1.276278 -0.128964
v 1.093694 1.285333 -0.133940
v 1.101606 1.288792 -0.141992
v 1.109518 1.285333 -0.150044
v 1.114407 1.276278 -0.155020
v 1.092530 1.265085 -0.162669
v 1.091394 1.256031 -0.156215
v 1.089557 1.252572 -0.145771
v 1.087720 1.256031 -0.135326
v 1.086585 1.265085 -0.128872
v 1.086585 1.276278 -0.128872
v 1.087720 1.285333 -0.135326
v 1.089557 1.288792 -0.145771
v 1.091394 1.285333 -0.156215
v 1.092530 1.276278 -0.162669
v 0.927664 1.276278 -0.159588
v 0.927664 1.265085 -0.159588
v 0.930345 1.256031 -0.153673
v 0.934683 1.252572 -0.144101
v 0.939021 1.256031 -0.134529
v 0.941702 1.265085 -0.128613
v 0.941702 1.276278 -0.128613
v 0.939021 1.285333 -0.134529
v 0.934683 1.288792 -0.144101
v 0.930345 1.285333 -0.153673
v 0.901349 1.276278 -0.139054
v 0.901349 1.265085 -0.139054
v 0.908745 1.256031 -0.136855
v 0.920710 1.252572 -0.133297
v 0.932676 1.256031 -0.129738
v 0.940071 1.265085 -0.127539
v 0.940071 1.276278 -0.127539
v 0.932676 1.285333 -0.129738
v 0.920710 1.288792 -0.133297
v 0.908745 1.285333 -0.136855
v 1.123462 1.256031 0.123661
v 1.131749 1.265085 0.123661
v 1.131749 1.276278 0.123661
v 1.123462 1.285333 0.123661
v 1.110053 1.288792 0.123661
v 1.096644 1.285333 0.123661
v 1.088357 1.276278 0.123661
v 1.088357 1.265085 0.123661
v 1.096644 1.256031 0.123661
v 1.110053 1.252572 0.123661
v 1.123462 1.256031 0.105157
v 1.131749 1.265085 0.105157
v 1.131749 1.276278 0.105157
v 1.123462 1.285333 0.105157
v 1.110053 1.288792 0.105157
v 1.096644 1.285333 0.105157
v 1.088357 1.276278 0.105157
v 1.088357 1.265085 0.105157
v 1.096644 1.256031 0.105157
v 1.110053 1.252572 0.105157
v 1.110053 1.270682 0.105157
v 1.075666 1.285333 0.157080
v 1.075666 1.276278 0.163659
v 1.075666 1.265085 0.163659
v 1.075666 1.256031 0.157080
v 1.075666 1.252572 0.146436
v 1.075666 1.256031 0.135791
v 1.075666 1.265085 0.129212
v 1.075666 1.276278 0.129212
v 1.075666 1.285333 0.135791
v 1.075666 1.288792 0.146436
v 0.956048 1.285333 0.157080
v 0.956048 1.276278 0.163659
v 0.956048 1.265085 0.163659
v 0.956048 1.256031 0.157080
v 0.956048 1.252572 0.146436
v 0.956048 1.256031 0.135791
v 0.956048 1.265085 0.129212
v 0.956048 1.276278 0.129212
v 0.956048 1.285333 0.135791
v 0.956048 1.288792 0.146436
v 0.904229 1.285333 0.116440
v 0.895942 1.276278 0.116440
v 0.895942 1.265085 0.116440
v 0.904229 1.256031 0.116440
v 0.917638 1.252572 0.116440
v 0.931047 1.256031 0.116440
v 0.939334 1.265085 0.116440
v 0.939334 1.276278 0.116440
v 0.931047 1.285333 0.116440
v 0.917638 1.288792 0.116440
v 0.906861 1.282457 0.103407
v 0.900200 1.275179 0.103407
v 0.900200 1.266184 0.103407
v 0.906861 1.258906 0.103407
v 0.917638 1.256127 0.103407
v 0.928415 1.258906 0.103407
v 0.935075 1.266184 0.103407
v 0.935075 1.275179 0.103407
v 0.928415 1.282457 0.103407
v 0.917638 1.285237 0.103407
v 0.917638 1.270682 0.095067
v 1.129212 1.265085 0.138108
v 1.121349 1.256031 0.136623
v 1.108625 1.252572 0.134221
v 1.095901 1.256031 0.131818
v 1.088038 1.265085 0.130333
v 1.088038 1.276278 0.130333
v 1.095901 1.285333 0.131818
v 1.108625 1.288792 0.134221
v 1.121349 1.285333 0.136623
v 1.129212 1.276278 0.138108
v 1.114407 1.265085 0.155020
v 1.109518 1.256031 0.150044
v 1.101606 1.252572 0.141992
v 1.093694 1.256031 0.133940
v 1.088804 1.265085 0.128964
v 1.088804 1.276278 0.128964
v 1.093694 1.285333 0.133940
v 1.101606 1.288792 0.141992
v 1.109518 1.285333 0.150044
v 1.114407 1.276278 0.155020
v 1.092530 1.265085 0.162669
v 1.091394 1.256031 0.156215
v 1.089557 1.252572 0.145771
v 1.087720 1.256031 0.135326
v 1.086585 1.265085 0.128872
v 1.086585 1.276278 0.128872
v 1.087720 1.285333 0.135326
v 1.089557 1.288792 0.145771
v 1.091394 1.285333 0.156215
v 1.092530 1.276278 0.162669
v 0.927664 1.276278 0.159588
v 0.927664 1.265085 0.159588
v 0.930345 1.256031 0.153673
v 0.934683 1.252572 0.144101
v 0.939021 1.256031 0.134529
v 0.941702 1.265085 0.128613
v 0.941702 1.276278 0.128613
v 0.939021 1.285333 0.134529
v 0.934683 1.288792 0.144101
v 0.930345 1.285333 0.153673
v 0.901349 1.276278 0.139054
v 0.901349 1.265085 0.139054
v 0.908745 1.256031 0.136855
v 0.920710 1.252572 0.133297
v 0.932676 1.256031 0.129738
v 0.940071 1.265085 0.127539
v 0.940071 1.276278 0.127539
v 0.932676 1.285333 0.129738
v 0.920710 1.288792 0.133297
v 0.908745 1.285333 0.136855
v 1.046461 0.913796 0.096519
v 1.174625 0.913796 0.096519
v 1.046461 1.348313 0.096519
v 1.174625 1.348313 0.096519
v 1.046461 1.348313 -0.096519
v 1.174625 1.348313 -0.096519
v 1.046461 0.913796 -0.096519
v 1.174625 0.913796 -0.096519
v 1.110543 0.863774 0.116883
v 1.110543 0.863774 -0.116883
v 1.110543 1.398335 -0.116883
v 1.110543 1.398335 0.116883
v 0.000000 0.000000 0.075000
v 1.200000 0.000000 0.075000
v 0.000000 2.500000 0.075000
v 1.200000 2.500000 0.075000
v 0.000000 2.500000 -0.075000
v 1.200000 2.500000 -0.075000
v 0.000000 0.000000 -0.075000
v 1.200000 0.000000 -0.075000
v 0.000000 2.428014 0.075000
v 1.200000 2.428014 0.075000
v 1.200000 2.428014 -0.075000
v 0.000000 2.428014 -0.075000
v 0.120000 0.000000 0.075000
v 0.120000 0.000000 -0.075000
v 0.120000 2.426938 -0.075000
v 0.120000 2.500000 -0.075000
v 0.120000 2.500000 0.075000
v 0.120000 2.426937 0.075000
v 1.092000 2.426937 -0.075000
v 1.092000 0.000000 -0.075000
v 1.092000 0.000000 0.075000
v 1.092000 2.426938 0.075000
v 1.092000 2.500000 0.075000
v 1.092000 2.500000 -0.075000
v 0.000000 1.180100 0.075000
v 0.120000 1.176937 0.075000
v 1.092000 1.176938 0.075000
v 1.200000 1.180100 0.075000
v 1.200000 1.180100 -0.075000
v 1.092000 1.176937 -0.075000
v 0.120000 1.176938 -0.075000
v 0.000000 1.180100 -0.075000
v 0.000000 1.071838 0.075000
v 0.120000 1.099481 0.075000
v 1.092000 1.099481 0.075000
v 1.200000 1.071838 0.075000
v 1.200000 1.071838 -0.075000
v 1.092000 1.099481 -0.075000
v 0.120000 1.099481 -0.075000
v 0.000000 1.071838 -0.075000
v 0.000000 0.929148 0.075000
v 0.120000 0.899835 0.075000
v 1.092000 0.899836 0.075000
v 1.200000 0.929148 0.075000
v 1.200000 0.929148 -0.075000
v 1.092000 0.899835 -0.075000
v 0.120000 0.899836 -0.075000
v 0.000000 0.929148 -0.075000
v 0.000000 0.141750 0.075000
v 0.120000 0.100224 0.075000
v 1.092000 0.100224 0.075000
v 1.200000 0.141750 0.075000
v 1.200000 0.141750 -0.075000
v 1.092000 0.100224 -0.075000
v 0.120000 0.100224 -0.075000
v 0.000000 0.141750 -0.075000
v 0.120000 0.840320 0.075000
v 0.000000 0.815748 0.075000
v 0.000000 0.815748 -0.075000
v 0.120000 0.840320 -0.075000
v 1.092000 0.840320 -0.075000
v 1.200000 0.815748 -0.075000
v 1.200000 0.815748 0.075000
v 1.092000 0.840320 0.075000
v 0.181058 2.317215 0.075000
v 0.181058 1.286660 0.075000
v 1.030942 1.286660 0.075000
v 1.030942 2.317215 0.075000
v 1.030942 1.286660 -0.075000
v 0.181058 1.286660 -0.075000
v 0.181058 2.317215 -0.075000
v 1.030942 2.317215 -0.075000
v 0.181058 1.078047 0.075000
v 1.030942 1.078047 0.075000
v 0.181058 0.921269 0.075000
v 1.030942 0.921270 0.075000
v 1.030942 0.921269 -0.075000
v 0.181058 0.921270 -0.075000
v 0.181058 1.078047 -0.075000
v 1.030942 1.078047 -0.075000
v 1.030942 0.775356 0.075000
v 0.181058 0.775356 0.075000
v 0.181058 0.165188 0.075000
v 1.030942 0.165188 0.075000
v 1.030942 0.165188 -0.075000
v 0.181058 0.165188 -0.075000
v 0.181058 0.775356 -0.075000
v 1.030942 0.775356 -0.075000
v 0.229454 2.258531 0.049651
v 0.229454 1.345344 0.049651
v 0.982546 1.345344 0.049651
v 0.982546 2.258531 0.049651
v 0.982546 1.345344 -0.049651
v 0.229454 1.345344 -0.049651
v 0.229454 2.258531 -0.049651
v 0.982546 2.258531 -0.049651
v 0.229454 1.051798 0.049651
v 0.982546 1.051798 0.049651
v 0.229454 0.947519 0.049651
v 0.982546 0.947519 0.049651
v 0.982546 0.947519 -0.049651
v 0.229454 0.947519 -0.049651
v 0.229454 1.051798 -0.049651
v 0.982546 1.051798 -0.049651
v 0.982546 0.740611 0.049651
v 0.229454 0.740610 0.049651
v 0.229454 0.199934 0.049651
v 0.982546 0.199934 0.049651
v 0.982546 0.199934 -0.049651
v 0.229454 0.199934 -0.049651
v 0.229454 0.740611 -0.049651
v 0.982546 0.740610 -0.049651
v 1.021522 1.298082 -0.070066
v 0.190478 1.298083 -0.070066
v 0.190478 2.305793 -0.070066
v 1.021522 2.305793 -0.070066
v 1.021522 1.298082 0.070066
v 0.190478 1.298082 0.070066
v 0.190478 2.305793 0.070066
v 1.021522 2.305793 0.070066
v 1.011591 0.935862 -0.069687
v 0.200409 0.935862 -0.069687
v 0.200409 1.063455 -0.069687
v 1.011591 1.063455 -0.069687
v 1.011591 0.935862 0.069687
v 0.200409 0.935862 0.069687
v 0.200409 1.063455 0.069687
v 1.011591 1.063455 0.069687
v 1.018188 0.174345 -0.068320
v 0.193812 0.174345 -0.068320
v 0.193812 0.766200 -0.068320
v 1.018188 0.766199 -0.068320
v 1.018188 0.174345 0.068320
v 0.193812 0.174345 0.068320
v 0.193812 0.766199 0.068320
v 1.018188 0.766200 0.068320
v 0.298487 2.174822 0.087732
v 0.298487 1.429053 0.087732
v 0.913513 1.429053 0.087732
v 0.913513 2.174822 0.087732
v 0.913513 1.429053 -0.087732
v 0.298487 1.429053 -0.087732
v 0.298487 2.174822 -0.087732
v 0.913513 2.174822 -0.087732
v 0.298487 1.042239 0.087732
v 0.913513 1.042239 0.087732
v 0.298487 0.957078 0.087732
v 0.913513 0.957078 0.087732
v 0.913513 0.957078 -0.087732
v 0.298487 0.957078 -0.087732
v 0.298487 1.042239 -0.087732
v 0.913513 1.042239 -0.087732
v 0.913513 0.691049 0.087732
v 0.298487 0.691048 0.087732
v 0.298487 0.249496 0.087732
v 0.913513 0.249496 0.087732
v 0.913513 0.249496 -0.087732
v 0.298487 0.249496 -0.087732
v 0.298487 0.691049 -0.087732
v 0.913513 0.691048 -0.087732
vt 0.134942 0.831400
vt 0.149427 0.832085
vt 0.150384 0.850311
vt 0.139793 0.854421
vt 0.163366 0.833980
vt 0.159056 0.855453
vt 0.177675 0.834614
vt 0.169510 0.857271
vt 0.194206 0.832886
vt 0.181893 0.859555
vt 0.212452 0.829974
vt 0.196973 0.863381
vt 0.230664 0.830448
vt 0.089343 0.869692
vt 0.086414 0.823383
vt 0.098945 0.856595
vt 0.103178 0.823698
vt 0.113761 0.855751
vt 0.119566 0.828106
vt 0.127741 0.855087
vt 0.149268 0.881848
vt 0.186673 0.762441
vt 0.168268 0.760144
vt 0.162071 0.586484
vt 0.180427 0.583611
vt 0.149484 0.760417
vt 0.143431 0.587199
vt 0.130885 0.762899
vt 0.125049 0.585307
vt 0.112839 0.767366
vt 0.107222 0.581768
vt 0.095368 0.772578
vt 0.089932 0.577668
vt 0.078091 0.777015
vt 0.072826 0.574589
vt 0.060647 0.779522
vt 0.232872 0.570360
vt 0.221659 0.770446
vt 0.215563 0.574124
vt 0.204438 0.766299
vt 0.198231 0.579101
vt 0.169153 0.501699
vt 0.154678 0.503161
vt 0.153015 0.489533
vt 0.162427 0.484925
vt 0.141720 0.503070
vt 0.143109 0.487264
vt 0.127937 0.503992
vt 0.132057 0.487500
vt 0.111703 0.506789
vt 0.119624 0.487902
vt 0.094787 0.510955
vt 0.104204 0.487655
vt 0.079620 0.513482
vt 0.194362 0.455552
vt 0.063088 0.511599
vt 0.073411 0.483972
vt 0.201770 0.501994
vt 0.186800 0.478503
vt 0.184992 0.501063
vt 0.173749 0.482679
vt 0.146109 0.462530
vt 0.150316 0.776634
vt 0.133153 0.779492
vt 0.116518 0.785308
vt 0.100159 0.793086
vt 0.082873 0.800034
vt 0.233872 0.800972
vt 0.216762 0.794424
vt 0.200825 0.786488
vt 0.184580 0.780276
vt 0.167689 0.776896
vt 0.136073 0.816666
vt 0.150660 0.818431
vt 0.120628 0.813409
vt 0.103911 0.809065
vt 0.084753 0.808358
vt 0.231533 0.811559
vt 0.212425 0.813101
vt 0.195112 0.817210
vt 0.179257 0.819384
vt 0.164719 0.819746
vt 0.135523 0.798392
vt 0.151027 0.797885
vt 0.119817 0.800141
vt 0.102880 0.803570
vt 0.084138 0.804822
vt 0.232138 0.806984
vt 0.213705 0.806720
vt 0.197046 0.802864
vt 0.181688 0.800299
vt 0.166424 0.798716
vt 0.157112 0.526032
vt 0.142437 0.526576
vt 0.127757 0.528221
vt 0.112624 0.531146
vt 0.096434 0.534737
vt 0.077994 0.538522
vt 0.221979 0.530319
vt 0.203464 0.528226
vt 0.187285 0.526594
vt 0.172009 0.525772
vt 0.143249 0.558230
vt 0.159869 0.557528
vt 0.126971 0.556895
vt 0.111218 0.553556
vt 0.095213 0.548668
vt 0.077530 0.543211
vt 0.223164 0.536020
vt 0.206481 0.543192
vt 0.191217 0.549684
vt 0.175939 0.554587
vt 0.153967 0.389569
vt 0.149751 0.411901
vt 0.139435 0.408151
vt 0.139983 0.390526
vt 0.131165 0.413299
vt 0.126553 0.392644
vt 0.121108 0.415274
vt 0.112741 0.393554
vt 0.109200 0.417744
vt 0.096736 0.392230
vt 0.094723 0.421761
vt 0.079051 0.389798
vt 0.081253 0.430993
vt 0.215550 0.385656
vt 0.189267 0.413158
vt 0.200665 0.380832
vt 0.174933 0.412653
vt 0.184477 0.381479
vt 0.161410 0.412301
vt 0.168742 0.386068
vt 0.141202 0.438596
vt 0.102562 0.323977
vt 0.105142 0.151087
vt 0.122934 0.153508
vt 0.120294 0.321369
vt 0.140960 0.153840
vt 0.138446 0.321224
vt 0.158678 0.151659
vt 0.156463 0.323392
vt 0.175831 0.147898
vt 0.173987 0.327311
vt 0.192455 0.143605
vt 0.190973 0.331978
vt 0.208922 0.140302
vt 0.207752 0.335913
vt 0.225699 0.138878
vt 0.052348 0.335245
vt 0.071014 0.142600
vt 0.068928 0.332430
vt 0.087854 0.147074
vt 0.085479 0.328073
vt 0.114471 0.071733
vt 0.120650 0.055400
vt 0.129831 0.059672
vt 0.128483 0.072869
vt 0.139357 0.057290
vt 0.141000 0.072534
vt 0.150039 0.057308
vt 0.154333 0.073161
vt 0.162059 0.057458
vt 0.170070 0.075553
vt 0.176952 0.056926
vt 0.186492 0.079254
vt 0.191684 0.053154
vt 0.201194 0.081405
vt 0.086262 0.042269
vt 0.067488 0.072110
vt 0.096982 0.049660
vt 0.082966 0.072642
vt 0.109670 0.053446
vt 0.099157 0.071421
vt 0.135990 0.033453
vt 0.137953 0.336952
vt 0.154575 0.339406
vt 0.170783 0.344695
vt 0.186755 0.351868
vt 0.203598 0.358223
vt 0.057750 0.362197
vt 0.074145 0.355517
vt 0.089377 0.347517
vt 0.104940 0.341174
vt 0.121181 0.337558
vt 0.138489 0.377367
vt 0.152538 0.375357
vt 0.167395 0.371895
vt 0.183460 0.367366
vt 0.201954 0.366295
vt 0.218668 0.370662
vt 0.078721 0.373486
vt 0.095528 0.377098
vt 0.110887 0.378872
vt 0.124937 0.378924
vt 0.137696 0.357517
vt 0.152679 0.357697
vt 0.167897 0.359072
vt 0.184340 0.362041
vt 0.202474 0.362869
vt 0.219377 0.367185
vt 0.077351 0.367343
vt 0.093361 0.363271
vt 0.108139 0.360475
vt 0.122845 0.358633
vt 0.126567 0.095011
vt 0.140756 0.095256
vt 0.154969 0.096564
vt 0.169645 0.099101
vt 0.185354 0.102260
vt 0.203242 0.105563
vt 0.063981 0.100396
vt 0.081828 0.098018
vt 0.097428 0.096131
vt 0.112171 0.095044
vt 0.124505 0.125491
vt 0.140576 0.125852
vt 0.156276 0.124250
vt 0.171432 0.120722
vt 0.186800 0.115693
vt 0.203780 0.110083
vt 0.221106 0.108106
vt 0.079198 0.112536
vt 0.094069 0.118515
vt 0.108923 0.122959
vt 0.336434 0.428674
vt 0.336434 0.036778
vt 0.401546 0.073451
vt 0.401546 0.392002
vt 0.336434 0.428674
vt 0.401546 0.392002
vt 0.336434 0.036778
vt 0.401546 0.073451
vt 0.271323 0.073451
vt 0.271323 0.073451
vt 0.271323 0.392002
vt 0.271323 0.392002
vt 0.568694 0.949764
vt 0.568694 0.923476
vt 0.919087 0.923476
vt 0.482628 0.500176
vt 0.442182 0.382244
vt 0.919087 0.949764
vt 0.568694 0.923476
vt 0.568694 0.949764
vt 0.919087 0.949764
vt 0.919087 0.923476
vt 0.633036 0.832762
vt 0.633036 0.564425
vt 0.854744 0.564425
vt 0.854744 0.832762
vt 0.854744 0.564425
vt 0.482629 0.513280
vt 0.633036 0.564425
vt 0.482628 0.358950
vt 0.482628 0.367684
vt 0.633036 0.832762
vt 0.854744 0.832762
vt 0.525436 0.923863
vt 0.568694 0.473711
vt 0.525436 0.474849
vt 0.525436 0.949764
vt 0.525436 0.923863
vt 0.525436 0.949764
vt 0.525436 0.474849
vt 0.568694 0.473711
vt 0.958019 0.474849
vt 0.442182 0.207541
vt 0.482629 0.207541
vt 0.442182 0.064360
vt 0.482629 0.064360
vt 0.919087 0.473711
vt 0.958019 0.923863
vt 0.919087 0.473711
vt 0.958019 0.474849
vt 0.958019 0.923863
vt 0.958019 0.949764
vt 0.482629 0.194406
vt 0.958019 0.949764
vt 0.525436 0.435895
vt 0.568694 0.445841
vt 0.919087 0.445841
vt 0.958019 0.435895
vt 0.958019 0.435895
vt 0.442182 0.194406
vt 0.482628 0.177093
vt 0.919087 0.445841
vt 0.568694 0.445841
vt 0.525436 0.435895
vt 0.525436 0.384554
vt 0.568694 0.374007
vt 0.854744 0.425245
vt 0.633036 0.425245
vt 0.633036 0.394603
vt 0.854744 0.394603
vt 0.919087 0.374007
vt 0.958019 0.384554
vt 0.958019 0.384554
vt 0.919087 0.374007
vt 0.854744 0.394603
vt 0.442182 0.177093
vt 0.482628 0.081559
vt 0.633036 0.394603
vt 0.633036 0.425245
vt 0.482628 0.163335
vt 0.854744 0.425245
vt 0.568694 0.374007
vt 0.525436 0.384554
vt 0.525436 0.101239
vt 0.568694 0.086297
vt 0.568694 0.352592
vt 0.525436 0.343751
vt 0.482628 0.799405
vt 0.854744 0.298883
vt 0.442182 0.717629
vt 0.633036 0.298883
vt 0.633036 0.140007
vt 0.854744 0.140007
vt 0.958019 0.343751
vt 0.919087 0.352592
vt 0.919087 0.086297
vt 0.958019 0.101239
vt 0.958019 0.101239
vt 0.919087 0.086297
vt 0.442182 0.081559
vt 0.919087 0.352592
vt 0.958019 0.343751
vt 0.854744 0.140007
vt 0.633036 0.140007
vt 0.633036 0.298883
vt 0.854744 0.298883
vt 0.525436 0.343751
vt 0.568694 0.352592
vt 0.568694 0.086297
vt 0.525436 0.101239
vt 0.525436 0.050235
vt 0.568694 0.050235
vt 0.919087 0.050235
vt 0.958019 0.050235
vt 0.919087 0.050235
vt 0.958019 0.050235
vt 0.568694 0.050235
vt 0.525436 0.050235
vt 0.590705 0.513191
vt 0.590705 0.883996
vt 0.897076 0.513191
vt 0.897076 0.883996
vt 0.590705 0.513191
vt 0.897076 0.513191
vt 0.590705 0.883996
vt 0.897076 0.883996
vt 0.590705 0.438129
vt 0.897076 0.438129
vt 0.590705 0.381719
vt 0.897076 0.381719
vt 0.590705 0.381719
vt 0.897076 0.381719
vt 0.590705 0.438129
vt 0.897076 0.438129
vt 0.590705 0.329218
vt 0.897076 0.329218
vt 0.590705 0.109672
vt 0.897076 0.109672
vt 0.590705 0.109672
vt 0.897076 0.109672
vt 0.590705 0.329218
vt 0.897076 0.329218
vt 0.594100 0.517300
vt 0.594100 0.879886
vt 0.893680 0.517301
vt 0.893680 0.879886
vt 0.893680 0.517301
vt 0.594100 0.517301
vt 0.608151 0.534306
vt 0.879630 0.534306
vt 0.594100 0.879886
vt 0.608151 0.862881
vt 0.893680 0.879886
vt 0.879630 0.862881
vt 0.597680 0.432879
vt 0.890100 0.432879
vt 0.597680 0.386969
vt 0.890100 0.386969
vt 0.890100 0.386969
vt 0.597680 0.386969
vt 0.608151 0.391164
vt 0.879630 0.391164
vt 0.597680 0.432879
vt 0.608151 0.428684
vt 0.890100 0.432879
vt 0.879630 0.428684
vt 0.595302 0.325923
vt 0.892479 0.325923
vt 0.595302 0.112967
vt 0.892479 0.112967
vt 0.892479 0.112967
vt 0.595302 0.112967
vt 0.442182 0.500176
vt 0.608151 0.122174
vt 0.442182 0.367684
vt 0.442182 0.163335
vt 0.879630 0.122174
vt 0.595302 0.325923
vt 0.608151 0.316716
vt 0.892479 0.325923
vt 0.442182 0.358950
vt 0.879630 0.316716
vt 0.482628 0.382244
vt 0.879630 0.534306
vt 0.608151 0.534306
vt 0.608151 0.862881
vt 0.879630 0.862881
vt 0.879630 0.391164
vt 0.608151 0.391164
vt 0.608151 0.428684
vt 0.879630 0.428684
vt 0.879630 0.122174
vt 0.482628 0.829708
vt 0.442182 0.829708
vt 0.442182 0.049801
vt 0.482628 0.947640
vt 0.482628 0.717629
vt 0.482628 0.703871
vt 0.608151 0.122174
vt 0.442182 0.799405
vt 0.442182 0.816604
vt 0.608151 0.316716
vt 0.442182 0.703871
vt 0.482628 0.686558
vt 0.442182 0.686558
vt 0.482628 0.673423
vt 0.442182 0.673423
vt 0.482629 0.522014
vt 0.442182 0.522014
vt 0.879630 0.316716
vt 0.442182 0.513280
vt 0.482628 0.816604
vt 0.482628 0.049801
vt 0.442182 0.947640
vt 0.062945 0.105927
vt 0.220589 0.103831
vt 0.054219 0.139297
vt 0.217129 0.079272
vt 0.059548 0.367979
vt 0.220394 0.362257
vt 0.060230 0.372393
vt 0.061472 0.390645
vt 0.224655 0.337992
vt 0.198828 0.425602
vt 0.060009 0.537084
vt 0.217775 0.501127
vt 0.059561 0.541519
vt 0.055438 0.573460
vt 0.065582 0.804572
vt 0.238875 0.773007
vt 0.066744 0.809657
vt 0.067555 0.813246
vt 0.071123 0.828710
vt 0.211134 0.872620
vt 0.206632 0.052780
vt 0.197742 0.470636
vt 0.089241 0.027632
vt 0.088884 0.484054
vn 0.517679 -0.854809 -0.036189
vn 0.927838 -0.366694 -0.068208
vn 0.682222 -0.279228 0.675726
vn 0.379666 -0.658266 0.650030
vn 0.927839 0.366691 -0.068208
vn 0.682225 0.279227 0.675723
vn 0.517680 0.854809 -0.036186
vn 0.379671 0.658275 0.650018
vn 0.018447 0.999821 -0.004095
vn -0.000000 0.772734 0.634730
vn -0.488474 0.872486 0.012689
vn -0.379672 0.658273 0.650020
vn -0.923555 0.383168 0.015104
vn -0.682225 0.279226 0.675723
vn -0.923554 -0.383172 0.015102
vn -0.682222 -0.279228 0.675726
vn -0.488475 -0.872486 0.012689
vn -0.379667 -0.658265 0.650031
vn 0.018448 -0.999821 -0.004098
vn -0.000000 -0.772726 0.634739
vn -0.000000 0.000000 1.000000
vn 0.003872 0.807221 -0.590236
vn 0.006662 0.307810 -0.951424
vn -0.024869 0.304905 -0.952058
vn -0.014541 0.803321 -0.595369
vn 0.006662 -0.307814 -0.951423
vn -0.024869 -0.304908 -0.952057
vn 0.003872 -0.807222 -0.590236
vn -0.014541 -0.803321 -0.595369
vn 0.000291 -0.999995 -0.003215
vn -0.001596 -0.999965 -0.008271
vn -0.001991 -0.810272 0.586050
vn 0.005042 -0.811105 0.584878
vn -0.002690 -0.309687 0.950835
vn 0.005323 -0.309567 0.950863
vn -0.002690 0.309684 0.950836
vn 0.005323 0.309563 0.950864
vn -0.001991 0.810272 0.586051
vn 0.005042 0.811105 0.584879
vn 0.000291 0.999995 -0.003215
vn -0.001596 0.999965 -0.008269
vn -0.539313 0.841649 0.027730
vn -0.935323 0.352465 -0.030645
vn -0.701823 0.291998 0.649755
vn -0.393926 0.657565 0.642208
vn -0.935322 -0.352468 -0.030645
vn -0.684638 -0.270131 0.676979
vn -0.539312 -0.841649 0.027730
vn -0.390286 -0.687424 0.612475
vn -0.033675 -0.994417 0.100006
vn 0.000000 -0.783580 0.621290
vn 0.481275 -0.861879 0.159809
vn 0.390287 -0.687425 0.612473
vn 0.907625 -0.371386 0.195678
vn 0.684638 -0.270133 0.676978
vn 0.907627 0.371382 0.195675
vn 0.701822 0.291997 0.649757
vn 0.481273 0.861881 0.159806
vn 0.393926 0.657564 0.642209
vn -0.033674 0.994417 0.100006
vn 0.000000 0.805287 0.592885
vn 0.000000 0.001182 0.999999
vn 0.205339 -0.287677 -0.935456
vn 0.131070 -0.772944 -0.620788
vn 0.020226 -0.997100 -0.073367
vn -0.050523 -0.845827 0.531060
vn -0.038893 -0.332007 0.942475
vn -0.038893 0.332002 0.942477
vn -0.050522 0.845825 0.531064
vn 0.020225 0.997101 -0.073359
vn 0.131071 0.772941 -0.620792
vn 0.205339 0.287674 -0.935457
vn 0.525924 -0.800035 -0.288701
vn 0.837116 -0.318035 -0.445072
vn 0.088449 -0.993936 -0.065331
vn -0.386438 -0.915758 0.109781
vn -0.890547 -0.453287 0.038174
vn -0.890549 0.453282 0.038185
vn -0.386431 0.915760 0.109792
vn 0.088443 0.993937 -0.065323
vn 0.525927 0.800034 -0.288697
vn 0.837119 0.318033 -0.445070
vn 0.349850 -0.764805 -0.540998
vn 0.537391 -0.289705 -0.792011
vn 0.071498 -0.990012 -0.121509
vn -0.148756 -0.914726 0.375696
vn 0.072286 -0.466011 0.881821
vn 0.072281 0.465999 0.881828
vn -0.148748 0.914724 0.375705
vn 0.071493 0.990014 -0.121494
vn 0.349852 0.764802 -0.541000
vn 0.537392 0.289703 -0.792012
vn -0.779054 0.305953 -0.547237
vn -0.779054 -0.305955 -0.547235
vn -0.498623 -0.786483 -0.364445
vn -0.082051 -0.993220 -0.082347
vn 0.387102 -0.906516 0.168465
vn 0.865894 -0.432778 0.250860
vn 0.865896 0.432773 0.250861
vn 0.387097 0.906518 0.168468
vn -0.082046 0.993222 -0.082336
vn -0.498625 0.786479 -0.364450
vn -0.391510 -0.281190 -0.876157
vn -0.391510 0.281188 -0.876158
vn -0.257518 -0.759935 -0.596810
vn -0.045941 -0.993892 -0.100342
vn 0.120798 -0.869166 0.479540
vn 0.137608 -0.355865 0.924351
vn 0.137609 0.355860 0.924352
vn 0.120795 0.869164 0.479545
vn -0.045938 0.993894 -0.100326
vn -0.257520 0.759933 -0.596813
vn 0.517681 -0.854808 0.036188
vn 0.379667 -0.658265 -0.650031
vn 0.682222 -0.279228 -0.675726
vn 0.927838 -0.366694 0.068208
vn 0.682225 0.279226 -0.675723
vn 0.927839 0.366691 0.068207
vn 0.379672 0.658272 -0.650020
vn 0.517682 0.854808 0.036186
vn -0.000000 0.772734 -0.634730
vn 0.018447 0.999821 0.004097
vn -0.379673 0.658274 -0.650019
vn -0.488474 0.872486 -0.012687
vn -0.682226 0.279223 -0.675723
vn -0.923556 0.383165 -0.015104
vn -0.682222 -0.279225 -0.675726
vn -0.923555 -0.383169 -0.015102
vn -0.379667 -0.658265 -0.650031
vn -0.488475 -0.872486 -0.012689
vn 0.000000 -0.772726 -0.634739
vn 0.018448 -0.999821 0.004097
vn 0.000000 0.000000 -1.000000
vn 0.003872 0.807221 0.590236
vn -0.014541 0.803321 0.595369
vn -0.024869 0.304904 0.952058
vn 0.006662 0.307810 0.951424
vn -0.024869 -0.304908 0.952057
vn 0.006662 -0.307814 0.951423
vn -0.014541 -0.803321 0.595369
vn 0.003872 -0.807222 0.590236
vn -0.001596 -0.999965 0.008271
vn 0.000291 -0.999995 0.003216
vn 0.005042 -0.811105 -0.584878
vn -0.001991 -0.810272 -0.586051
vn 0.005323 -0.309567 -0.950863
vn -0.002690 -0.309688 -0.950835
vn 0.005323 0.309564 -0.950864
vn -0.002690 0.309684 -0.950836
vn 0.005042 0.811105 -0.584879
vn -0.001991 0.810272 -0.586051
vn -0.001596 0.999965 0.008269
vn 0.000291 0.999995 0.003216
vn -0.539314 0.841648 -0.027727
vn -0.393926 0.657563 -0.642209
vn -0.701823 0.291998 -0.649755
vn -0.935323 0.352465 0.030648
vn -0.684638 -0.270132 -0.676978
vn -0.935322 -0.352468 0.030646
vn -0.390288 -0.687425 -0.612473
vn -0.539313 -0.841649 -0.027728
vn -0.000000 -0.783581 -0.621290
vn -0.033676 -0.994417 -0.100005
vn 0.390286 -0.687424 -0.612475
vn 0.481275 -0.861879 -0.159810
vn 0.684636 -0.270132 -0.676980
vn 0.907625 -0.371385 -0.195679
vn 0.701821 0.291996 -0.649758
vn 0.907627 0.371382 -0.195676
vn 0.393925 0.657564 -0.642209
vn 0.481274 0.861880 -0.159807
vn 0.000000 0.805286 -0.592886
vn -0.033674 0.994417 -0.100006
vn -0.000000 0.001182 -0.999999
vn 0.205339 -0.287677 0.935456
vn 0.131071 -0.772944 0.620788
vn 0.020227 -0.997100 0.073365
vn -0.050523 -0.845825 -0.531062
vn -0.038893 -0.332007 -0.942475
vn -0.038894 0.332003 -0.942476
vn -0.050521 0.845825 -0.531062
vn 0.020225 0.997101 0.073360
vn 0.131071 0.772942 0.620791
vn 0.205339 0.287675 0.935457
vn 0.837117 -0.318035 0.445071
vn 0.525925 -0.800035 0.288698
vn 0.088449 -0.993936 0.065326
vn -0.386437 -0.915759 -0.109781
vn -0.890547 -0.453287 -0.038175
vn -0.890549 0.453282 -0.038182
vn -0.386431 0.915761 -0.109787
vn 0.088443 0.993937 0.065324
vn 0.525928 0.800033 0.288698
vn 0.837119 0.318032 0.445071
vn 0.537392 -0.289705 0.792011
vn 0.349852 -0.764806 0.540995
vn 0.071498 -0.990013 0.121502
vn -0.148754 -0.914725 -0.375700
vn 0.072287 -0.466010 -0.881821
vn 0.072281 0.466000 -0.881828
vn -0.148748 0.914725 -0.375701
vn 0.071493 0.990015 0.121491
vn 0.349852 0.764803 0.540999
vn 0.537392 0.289702 0.792012
vn -0.779053 0.305952 0.547238
vn -0.779054 -0.305955 0.547236
vn -0.498622 -0.786484 0.364444
vn -0.082052 -0.993220 0.082346
vn 0.387103 -0.906516 -0.168467
vn 0.865894 -0.432778 -0.250859
vn 0.865897 0.432773 -0.250861
vn 0.387098 0.906517 -0.168472
vn -0.082046 0.993222 0.082338
vn -0.498624 0.786479 0.364451
vn -0.391509 0.281187 0.876159
vn -0.391510 -0.281190 0.876158
vn -0.257518 -0.759935 0.596811
vn -0.045942 -0.993892 0.100341
vn 0.120798 -0.869166 -0.479540
vn 0.137608 -0.355866 -0.924350
vn 0.137608 0.355861 -0.924352
vn 0.120795 0.869165 -0.479543
vn -0.045938 0.993893 0.100328
vn -0.257519 0.759931 0.596815
vn 0.000000 0.000000 1.000000
vn 0.000000 0.000000 1.000000
vn 0.302861 0.000000 0.953035
vn 0.302861 0.000000 0.953035
vn -0.000000 1.000000 0.000000
vn -0.000000 1.000000 0.000000
vn 0.615324 0.788274 0.000000
vn 0.615324 0.788274 0.000000
vn -0.000000 0.000000 -1.000000
vn -0.000000 0.000000 -1.000000
vn 0.302861 0.000000 -0.953035
vn 0.302861 0.000000 -0.953035
vn -0.000000 -1.000000 0.000000
vn -0.000000 -1.000000 0.000000
vn 0.615325 -0.788274 0.000000
vn 0.615325 -0.788274 0.000000
vn 1.000000 0.000000 0.000000
vn 1.000000 0.000000 0.000000
vn 1.000000 0.000000 0.000000
vn 1.000000 0.000000 0.000000
vn -1.000000 0.000000 0.000000
vn -1.000000 0.000000 0.000000
vn -1.000000 0.000000 0.000000
vn -1.000000 0.000000 0.000000
vn -0.615325 -0.788273 0.000000
vn -0.615325 -0.788273 0.000000
vn -0.302861 0.000000 -0.953035
vn -0.302861 0.000000 -0.953035
vn -0.615324 0.788274 0.000000
vn -0.615324 0.788274 0.000000
vn -0.302861 0.000000 0.953035
vn -0.302861 0.000000 0.953035
vn 0.000000 0.000000 1.000000
vn 0.000000 0.000000 1.000000
vn 0.000000 0.000000 1.000000
vn 0.000000 0.000000 1.000000
vn 0.000000 1.000000 0.000000
vn 0.000000 1.000000 0.000000
vn 0.000000 1.000000 0.000000
vn 0.000000 1.000000 0.000000
vn -0.000000 0.000000 -1.000000
vn 0.000000 0.000000 -1.000000
vn -0.000000 0.000000 -1.000000
vn 0.000000 0.000000 -1.000000
vn 0.000000 -1.000000 0.000000
vn 0.000000 -1.000000 0.000000
vn 0.000000 -1.000000 0.000000
vn 0.000000 -1.000000 0.000000
vn 1.000000 0.000000 0.000000
vn 1.000000 0.000000 0.000000
vn 1.000000 0.000000 0.000000
vn 1.000000 0.000000 0.000000
vn -1.000000 0.000000 0.000000
vn -1.000000 0.000000 0.000000
vn -1.000000 0.000000 0.000000
vn -1.000000 0.000000 0.000000
vn -0.076248 0.058364 0.995379
vn -0.076248 -0.058364 0.995379
vn 0.076248 -0.058364 0.995379
vn 0.076248 0.058364 0.995379
vn 1.000000 0.000000 0.000000
vn 1.000000 0.000000 0.000000
vn 0.076248 -0.058364 -0.995379
vn -0.076248 -0.058364 -0.995379
vn -0.076248 0.058364 -0.995379
vn 0.076248 0.058364 -0.995379
vn -1.000000 0.000000 0.000000
vn -1.000000 0.000000 0.000000
vn 0.000000 -1.000000 0.000000
vn 0.000000 -1.000000 0.000000
vn 0.000000 0.000000 -1.000000
vn -0.000000 0.000000 -1.000000
vn 0.000000 0.000000 -1.000000
vn 0.000000 0.000000 -1.000000
vn 0.000000 1.000000 0.000000
vn 0.000000 1.000000 0.000000
vn 0.000000 0.000000 1.000000
vn 0.000000 0.000000 1.000000
vn -0.000000 0.000000 1.000000
vn -0.000000 0.000000 1.000000
vn 0.000000 0.000000 -1.000000
vn 0.000000 0.000000 -1.000000
vn -0.000000 0.000000 -1.000000
vn 0.000000 -1.000000 0.000000
vn 0.000000 -1.000000 0.000000
vn 0.000000 0.000000 1.000000
vn 0.000000 0.000000 1.000000
vn 0.000000 0.000000 1.000000
vn 0.000000 0.000000 1.000000
vn 0.000000 1.000000 0.000000
vn 0.000000 1.000000 0.000000
vn -0.000000 0.000000 -1.000000
vn -0.000000 0.000000 1.000000
vn -0.000000 0.000000 1.000000
vn 0.000000 0.000000 1.000000
vn 0.000000 0.000000 1.000000
vn 1.000000 0.000000 0.000000
vn 1.000000 0.000000 0.000000
vn 0.000000 0.000000 -1.000000
vn 0.000000 0.000000 -1.000000
vn -0.000000 0.000000 -1.000000
vn -0.000000 0.000000 -1.000000
vn -1.000000 0.000000 0.000000
vn -1.000000 0.000000 0.000000
vn -0.000000 0.000000 1.000000
vn -0.000000 0.000000 1.000000
vn 0.065230 0.000000 0.997870
vn -0.065230 0.000000 0.997870
vn -0.065230 0.000000 0.997870
vn 0.065230 0.000000 0.997870
vn 0.000000 0.000000 1.000000
vn 0.000000 0.000000 1.000000
vn 1.000000 0.000000 0.000000
vn 1.000000 0.000000 0.000000
vn 0.000000 0.000000 -1.000000
vn 0.000000 0.000000 -1.000000
vn 0.065230 0.000000 -0.997870
vn -0.065230 0.000000 -0.997870
vn -0.065230 0.000000 -0.997870
vn 0.065230 0.000000 -0.997870
vn -0.000000 0.000000 -1.000000
vn -0.000000 0.000000 -1.000000
vn -1.000000 0.000000 0.000000
vn -1.000000 0.000000 0.000000
vn 0.000000 0.000000 1.000000
vn 0.000000 0.000000 1.000000
vn 0.000000 0.000000 1.000000
vn 0.000000 0.000000 1.000000
vn 0.079674 0.000000 0.996821
vn -0.079674 0.000000 0.996821
vn -0.079674 0.000000 0.996821
vn 0.079674 0.000000 0.996821
vn 0.000000 0.000000 1.000000
vn 0.000000 0.000000 1.000000
vn 0.000000 0.000000 1.000000
vn 0.000000 0.000000 1.000000
vn 1.000000 0.000000 0.000000
vn 1.000000 0.000000 0.000000
vn 1.000000 0.000000 0.000000
vn 1.000000 0.000000 0.000000
vn -0.000000 0.000000 -1.000000
vn -0.000000 0.000000 -1.000000
vn -0.000000 0.000000 -1.000000
vn -0.000000 0.000000 -1.000000
vn 0.079674 0.000000 -0.996821
vn -0.079674 0.000000 -0.996821
vn -0.079674 0.000000 -0.996821
vn 0.079674 0.000000 -0.996821
vn -0.000000 0.000000 -1.000000
vn -0.000000 0.000000 -1.000000
vn -0.000000 0.000000 -1.000000
vn -0.000000 0.000000 -1.000000
vn -1.000000 0.000000 0.000000
vn -1.000000 0.000000 0.000000
vn -1.000000 0.000000 0.000000
vn -1.000000 0.000000 0.000000
vn 0.000000 0.000000 1.000000
vn 0.000000 0.000000 1.000000
vn 0.000000 0.000000 1.000000
vn 0.000000 0.000000 1.000000
vn 1.000000 0.000000 0.000000
vn 1.000000 0.000000 0.000000
vn 0.000000 0.000000 -1.000000
vn 0.000000 0.000000 -1.000000
vn 0.000000 0.000000 -1.000000
vn 0.000000 0.000000 -1.000000
vn -1.000000 0.000000 0.000000
vn -1.000000 0.000000 0.000000
vn 0.009257 0.009397 0.999913
vn 0.009257 -0.009397 0.999913
vn -0.009257 0.009397 0.999913
vn -0.009257 -0.009397 0.999913
vn 0.009257 0.009397 -0.999913
vn -0.009257 0.009397 -0.999913
vn 0.009257 -0.009397 -0.999913
vn -0.009257 -0.009397 -0.999913
vn 0.009111 0.000000 0.999959
vn -0.009111 0.000000 0.999959
vn 0.009111 0.000000 0.999959
vn -0.009111 0.000000 0.999959
vn 0.009111 0.000000 -0.999959
vn -0.009111 0.000000 -0.999959
vn 0.009111 0.000000 -0.999959
vn -0.009111 0.000000 -0.999959
vn 0.016544 0.000000 0.999863
vn -0.016544 0.000000 0.999863
vn 0.016544 0.000000 0.999863
vn -0.016544 0.000000 0.999863
vn 0.016544 0.000000 -0.999863
vn -0.016544 0.000000 -0.999863
vn 0.016544 0.000000 -0.999863
vn -0.016544 0.000000 -0.999863
vn 0.463984 0.000000 0.885844
vn 0.463984 0.000000 0.885844
vn -0.000000 0.396542 0.918016
vn -0.000000 0.396542 0.918016
vn -0.463984 0.000000 0.885844
vn -0.463984 0.000000 0.885844
vn 0.000000 -0.396540 0.918017
vn 0.000000 -0.396540 0.918017
vn 0.000000 0.396540 -0.918017
vn 0.000000 0.396540 -0.918017
vn 0.000000 0.396540 -0.918018
vn 0.000000 0.396540 -0.918018
vn 0.463984 -0.000000 -0.885844
vn 0.463984 -0.000000 -0.885844
vn 0.463984 -0.000000 -0.885843
vn 0.463984 -0.000000 -0.885843
vn -0.000000 -0.396539 -0.918018
vn -0.000000 -0.396539 -0.918018
vn -0.000000 -0.396537 -0.918019
vn -0.000000 -0.396537 -0.918019
vn -0.463984 0.000000 -0.885844
vn -0.463984 0.000000 -0.885844
vn -0.463985 0.000000 -0.885843
vn -0.463985 0.000000 -0.885843
vn 0.000000 -0.342124 0.939655
vn 0.000000 -0.342124 0.939655
vn 0.000000 -0.511375 0.859357
vn 0.000000 -0.511376 0.859357
vn 0.406589 0.000000 0.913611
vn 0.406590 0.000000 0.913611
vn -0.000000 0.342122 0.939656
vn -0.000000 0.342122 0.939655
vn -0.000000 0.511374 0.859358
vn -0.000000 0.511374 0.859358
vn -0.406590 0.000000 0.913611
vn -0.406590 0.000000 0.913611
vn 0.000000 0.511374 -0.859358
vn 0.000000 0.511374 -0.859358
vn 0.000000 0.864349 -0.502893
vn 0.000000 0.864349 -0.502893
vn 0.406590 0.000000 -0.913611
vn 0.406590 0.000000 -0.913611
vn 0.567831 0.000000 -0.823145
vn 0.567831 0.000000 -0.823145
vn -0.000000 -0.511376 -0.859357
vn -0.000000 -0.511376 -0.859357
vn -0.000000 -0.864349 -0.502892
vn -0.000000 -0.864349 -0.502892
vn -0.406590 0.000000 -0.913611
vn -0.406589 0.000000 -0.913611
vn -0.567831 0.000000 -0.823145
vn -0.567831 0.000000 -0.823145
vn 0.000000 -0.589371 0.807863
vn 0.000000 -0.589371 0.807863
vn 0.000000 -0.589373 0.807861
vn 0.000000 -0.589373 0.807861
vn 0.463984 0.000000 0.885843
vn 0.463984 0.000000 0.885843
vn -0.000000 0.589378 0.807858
vn -0.000000 0.589378 0.807858
vn -0.000000 0.589377 0.807858
vn -0.000000 0.589377 0.807858
vn -0.463984 0.000000 0.885844
vn -0.463984 0.000000 0.885844
vn 0.000000 0.589377 -0.807858
vn 0.000000 0.589377 -0.807858
vn 0.000000 0.589376 -0.807859
vn 0.000000 0.589376 -0.807859
vn 0.463984 0.000000 -0.885844
vn 0.463984 0.000000 -0.885844
vn 0.463985 0.000000 -0.885843
vn 0.463985 0.000000 -0.885843
vn -0.000000 -0.589373 -0.807862
vn -0.000000 -0.589372 -0.807861
vn -0.000000 -0.589376 -0.807859
vn -0.000000 -0.589376 -0.807859
vn -0.463984 0.000000 -0.885843
vn -0.463984 0.000000 -0.885844
vn -0.463985 0.000000 -0.885843
vn -0.463985 0.000000 -0.885843
vn -0.000000 0.396541 0.918017
vn -0.000000 0.396541 0.918017
vn 0.463984 0.000000 0.885843
vn 0.463984 0.000000 0.885843
vn 0.000000 -0.396538 0.918019
vn 0.000000 -0.396538 0.918019
vn -0.463985 0.000000 0.885843
vn -0.463985 0.000000 0.885843
vn 0.000000 0.342122 -0.939656
vn 0.000000 0.342122 -0.939655
vn -0.000000 -0.342124 -0.939655
vn -0.000000 -0.342124 -0.939655
vn -0.000000 0.864350 0.502892
vn -0.000000 0.864350 0.502892
vn 0.567830 0.000000 0.823146
vn 0.567830 0.000000 0.823146
vn 0.000000 -0.864349 0.502893
vn 0.000000 -0.864349 0.502893
vn -0.567831 0.000000 0.823145
vn -0.567831 0.000000 0.823145
vn 0.000000 0.589378 -0.807857
vn 0.000000 0.589378 -0.807857
vn -0.000000 -0.589370 -0.807863
vn -0.000000 -0.589370 -0.807863
vn -0.000000 0.589376 0.807859
vn -0.000000 0.589376 0.807859
vn 0.463985 0.000000 0.885843
vn 0.463985 0.000000 0.885843
vn 0.000000 -0.589377 0.807858
vn 0.000000 -0.589377 0.807858
vn -0.463985 0.000000 0.885843
vn -0.463985 0.000000 0.885843
vn -0.483011 0.000000 0.875614
vn -0.483011 0.000000 0.875614
vn 0.000000 -0.414084 0.910239
vn 0.000000 -0.414084 0.910239
vn 0.483011 0.000000 0.875614
vn 0.483011 0.000000 0.875614
vn -0.000000 0.414085 0.910238
vn -0.000000 0.414085 0.910238
vn -0.000000 -0.414084 -0.910239
vn -0.000000 -0.414084 -0.910239
vn -0.483011 0.000000 -0.875614
vn -0.483011 0.000000 -0.875614
vn 0.000000 0.414084 -0.910239
vn 0.000000 0.414084 -0.910239
vn 0.483011 0.000000 -0.875614
vn 0.483011 0.000000 -0.875614
vn 0.000000 0.969909 0.243467
vn 0.000000 0.969909 0.243467
vn 0.000000 0.969909 0.243467
vn 0.000000 0.969909 0.243467
vn -0.483011 0.000000 0.875614
vn -0.483011 0.000000 0.875614
vn 0.000000 -0.969910 0.243462
vn 0.000000 -0.969911 0.243462
vn 0.000000 -0.969910 0.243462
vn 0.000000 -0.969911 0.243462
vn 0.483011 0.000000 0.875614
vn 0.483011 0.000000 0.875614
vn -0.000000 -0.969910 -0.243463
vn -0.000000 -0.969910 -0.243463
vn -0.000000 -0.969910 -0.243463
vn -0.000000 -0.969910 -0.243463
vn -0.483011 0.000000 -0.875614
vn -0.483011 0.000000 -0.875614
vn 0.000000 0.969909 -0.243466
vn 0.000000 0.969909 -0.243466
vn 0.000000 0.969909 -0.243466
vn 0.000000 0.969909 -0.243466
vn 0.483011 0.000000 -0.875614
vn 0.483011 0.000000 -0.875614
vn -0.000000 0.609268 0.792965
vn -0.000000 0.609268 0.792965
vn -0.000000 0.609268 0.792965
vn -0.000000 0.609268 0.792965
vn -0.483011 0.000000 0.875614
vn -0.483011 0.000000 0.875614
vn 0.000000 -0.609268 0.792964
vn 0.000000 -0.609268 0.792964
vn 0.000000 -0.609268 0.792964
vn 0.000000 -0.609268 0.792964
vn 0.483011 0.000000 0.875614
vn 0.483011 0.000000 0.875614
vn 0.000000 -0.609268 -0.792964
vn 0.000000 -0.609268 -0.792964
vn 0.000000 -0.609268 -0.792964
vn 0.000000 -0.609268 -0.792964
vn -0.483011 0.000000 -0.875614
vn -0.483011 0.000000 -0.875614
vn 0.000000 0.609268 -0.792965
vn 0.000000 0.609268 -0.792965
vn 0.000000 0.609268 -0.792965
vn 0.000000 0.609268 -0.792965
vn 0.483011 0.000000 -0.875614
vn 0.483011 0.000000 -0.875614
s 1
g pCylinder5
usemtl initialShadingGroup
f 1/1/1 2/2/2 12/3/3 11/4/4
f 2/2/2 3/5/5 13/6/6 12/3/3
f 3/5/5 4/7/7 14/8/8 13/6/6
f 4/7/7 5/9/9 15/10/10 14/8/8
f 5/9/9 6/11/11 16/12/12 15/10/10
f 6/11/11 7/13/13 17/458/14 16/12/12
f 7/457/13 8/15/15 18/16/16 17/14/14
f 8/15/15 9/17/17 19/18/18 18/16/16
f 9/17/17 10/19/19 20/20/20 19/18/18
f 10/19/19 1/1/1 11/4/4 20/20/20
f 21/21/21 11/4/4 12/3/3 13/6/6
f 21/21/21 13/6/6 14/8/8 15/10/10
f 21/21/21 15/10/10 16/12/12 17/458/14
f 21/21/21 17/14/14 18/16/16 19/18/18
f 21/21/21 19/18/18 20/20/20 11/4/4
f 22/22/22 23/23/23 33/24/24 32/25/25
f 23/23/23 24/26/26 34/27/27 33/24/24
f 24/26/26 25/28/28 35/29/29 34/27/27
f 25/28/28 26/30/30 36/31/31 35/29/29
f 26/30/30 27/32/32 37/33/33 36/31/31
f 27/32/32 28/34/34 38/35/35 37/33/33
f 28/34/34 29/36/36 39/452/37 38/35/35
f 29/454/36 30/38/38 40/39/39 39/37/37
f 30/38/38 31/40/40 41/41/41 40/39/39
f 31/40/40 22/22/22 32/25/25 41/41/41
f 42/42/42 43/43/43 53/44/44 52/45/45
f 43/43/43 44/46/46 54/47/47 53/44/44
f 44/46/46 45/48/48 55/49/49 54/47/47
f 45/48/48 46/50/50 56/51/51 55/49/49
f 46/50/50 47/52/52 57/53/53 56/51/51
f 47/52/52 48/54/54 58/462/55 57/53/53
f 48/54/54 49/56/56 59/57/57 58/462/55
f 49/450/56 50/58/58 60/59/59 59/460/57
f 50/58/58 51/60/60 61/61/61 60/59/59
f 51/60/60 42/42/42 52/45/45 61/61/61
f 62/62/62 52/45/45 53/44/44 54/47/47
f 62/62/62 54/47/47 55/49/49 56/51/51
f 62/62/62 56/51/51 57/53/53 58/462/55
f 62/62/62 58/55/55 59/460/57 60/59/59
f 62/62/62 60/59/59 61/61/61 52/45/45
f 83/63/63 84/64/64 25/28/28 24/26/26
f 84/64/64 85/65/65 26/30/30 25/28/28
f 85/65/65 86/66/66 27/32/32 26/30/30
f 86/66/66 87/67/67 28/34/34 27/32/32
f 87/67/67 88/453/68 29/36/36 28/34/34
f 88/68/68 89/69/69 30/38/38 29/454/36
f 89/69/69 90/70/70 31/40/40 30/38/38
f 90/70/70 91/71/71 22/22/22 31/40/40
f 91/71/71 92/72/72 23/23/23 22/22/22
f 92/72/72 83/63/63 24/26/26 23/23/23
f 2/2/2 1/1/1 64/73/73 63/74/74
f 1/1/1 10/19/19 65/75/75 64/73/73
f 10/19/19 9/17/17 66/76/76 65/75/75
f 9/17/17 8/15/15 67/77/77 66/76/76
f 8/15/15 7/457/13 68/456/78 67/77/77
f 7/13/13 6/11/11 69/79/79 68/78/78
f 6/11/11 5/9/9 70/80/80 69/79/79
f 5/9/9 4/7/7 71/81/81 70/80/80
f 4/7/7 3/5/5 72/82/82 71/81/81
f 3/5/5 2/2/2 63/74/74 72/82/82
f 63/74/74 64/73/73 74/83/83 73/84/84
f 64/73/73 65/75/75 75/85/85 74/83/83
f 65/75/75 66/76/76 76/86/86 75/85/85
f 66/76/76 67/77/77 77/87/87 76/86/86
f 67/77/77 68/456/78 78/455/88 77/87/87
f 68/78/78 69/79/79 79/89/89 78/88/88
f 69/79/79 70/80/80 80/90/90 79/89/89
f 70/80/80 71/81/81 81/91/91 80/90/90
f 71/81/81 72/82/82 82/92/92 81/91/91
f 72/82/82 63/74/74 73/84/84 82/92/92
f 73/84/84 74/83/83 84/64/64 83/63/63
f 74/83/83 75/85/85 85/65/65 84/64/64
f 75/85/85 76/86/86 86/66/66 85/65/65
f 76/86/86 77/87/87 87/67/67 86/66/66
f 77/87/87 78/455/88 88/453/68 87/67/67
f 78/88/88 79/89/89 89/69/69 88/68/68
f 79/89/89 80/90/90 90/70/70 89/69/69
f 80/90/90 81/91/91 91/71/71 90/70/70
f 81/91/91 82/92/92 92/72/72 91/71/71
f 82/92/92 73/84/84 83/63/63 92/72/72
f 103/93/93 104/94/94 44/46/46 43/43/43
f 104/94/94 105/95/95 45/48/48 44/46/46
f 105/95/95 106/96/96 46/50/50 45/48/48
f 106/96/96 107/97/97 47/52/52 46/50/50
f 107/97/97 108/98/98 48/54/54 47/52/52
f 108/98/98 109/449/99 49/56/56 48/54/54
f 109/99/99 110/100/100 50/58/58 49/450/56
f 110/100/100 111/101/101 51/60/60 50/58/58
f 111/101/101 112/102/102 42/42/42 51/60/60
f 112/102/102 103/93/93 43/43/43 42/42/42
f 33/24/24 34/27/27 94/103/103 93/104/104
f 34/27/27 35/29/29 95/105/105 94/103/103
f 35/29/29 36/31/31 96/106/106 95/105/105
f 36/31/31 37/33/33 97/107/107 96/106/106
f 37/33/33 38/35/35 98/108/108 97/107/107
f 38/35/35 39/452/37 99/451/109 98/108/108
f 39/37/37 40/39/39 100/110/110 99/109/109
f 40/39/39 41/41/41 101/111/111 100/110/110
f 41/41/41 32/25/25 102/112/112 101/111/111
f 32/25/25 33/24/24 93/104/104 102/112/112
f 93/104/104 94/103/103 104/94/94 103/93/93
f 94/103/103 95/105/105 105/95/95 104/94/94
f 95/105/105 96/106/106 106/96/96 105/95/95
f 96/106/106 97/107/107 107/97/97 106/96/96
f 97/107/107 98/108/108 108/98/98 107/97/97
f 98/108/108 99/451/109 109/449/99 108/98/98
f 99/109/109 100/110/110 110/100/100 109/99/99
f 100/110/110 101/111/111 111/101/101 110/100/100
f 101/111/111 102/112/112 112/102/102 111/101/101
f 102/112/112 93/104/104 103/93/93 112/102/102
s 4
f 113/113/113 123/114/114 124/115/115 114/116/116
f 114/116/116 124/115/115 125/117/117 115/118/118
f 115/118/118 125/117/117 126/119/119 116/120/120
f 116/120/120 126/119/119 127/121/121 117/122/122
f 117/122/122 127/121/121 128/123/123 118/124/124
f 118/124/124 128/123/123 129/125/125 119/446/126
f 119/126/126 129/448/125 130/127/127 120/128/128
f 120/128/128 130/127/127 131/129/129 121/130/130
f 121/130/130 131/129/129 132/131/131 122/132/132
f 122/132/132 132/131/131 123/114/114 113/113/113
f 133/133/133 125/117/117 124/115/115 123/114/114
f 133/133/133 127/121/121 126/119/119 125/117/117
f 133/133/133 129/125/125 128/123/123 127/121/121
f 133/133/133 131/129/129 130/127/127 129/448/125
f 133/133/133 123/114/114 132/131/131 131/129/129
f 134/134/134 144/135/135 145/136/136 135/137/137
f 135/137/137 145/136/136 146/138/138 136/139/139
f 136/139/139 146/138/138 147/140/140 137/141/141
f 137/141/141 147/140/140 148/142/142 138/143/143
f 138/143/143 148/142/142 149/144/144 139/145/145
f 139/145/145 149/144/144 150/146/146 140/147/147
f 140/147/147 150/146/146 151/148/148 141/447/149
f 141/149/149 151/441/148 152/150/150 142/151/151
f 142/151/151 152/150/150 153/152/152 143/153/153
f 143/153/153 153/152/152 144/135/135 134/134/134
f 154/154/154 164/155/155 165/156/156 155/157/157
f 155/157/157 165/156/156 166/158/158 156/159/159
f 156/159/159 166/158/158 167/160/160 157/161/161
f 157/161/161 167/160/160 168/162/162 158/163/163
f 158/163/163 168/162/162 169/164/164 159/165/165
f 159/165/165 169/164/164 170/166/166 160/167/167
f 160/167/167 170/166/166 171/459/168 161/442/169
f 161/169/169 171/168/168 172/170/170 162/171/171
f 162/171/171 172/170/170 173/172/172 163/173/173
f 163/173/173 173/172/172 164/155/155 154/154/154
f 174/174/174 166/158/158 165/156/156 164/155/155
f 174/174/174 168/162/162 167/160/160 166/158/158
f 174/174/174 170/166/166 169/164/164 168/162/162
f 174/174/174 172/170/170 171/168/168 170/461/166
f 174/174/174 164/155/155 173/172/172 172/170/170
f 195/175/175 136/139/139 137/141/141 196/176/176
f 196/176/176 137/141/141 138/143/143 197/177/177
f 197/177/177 138/143/143 139/145/145 198/178/178
f 198/178/178 139/145/145 140/147/147 199/179/179
f 199/179/179 140/147/147 141/447/149 200/444/180
f 200/180/180 141/149/149 142/151/151 201/181/181
f 201/181/181 142/151/151 143/153/153 202/182/182
f 202/182/182 143/153/153 134/134/134 203/183/183
f 203/183/183 134/134/134 135/137/137 204/184/184
f 204/184/184 135/137/137 136/139/139 195/175/175
f 114/116/116 175/185/185 176/186/186 113/113/113
f 113/113/113 176/186/186 177/187/187 122/132/132
f 122/132/132 177/187/187 178/188/188 121/130/130
f 121/130/130 178/188/188 179/189/189 120/128/128
f 120/128/128 179/189/189 180/190/190 119/126/126
f 119/446/126 180/445/190 181/191/191 118/124/124
f 118/124/124 181/191/191 182/192/192 117/122/122
f 117/122/122 182/192/192 183/193/193 116/120/120
f 116/120/120 183/193/193 184/194/194 115/118/118
f 115/118/118 184/194/194 175/185/185 114/116/116
f 175/185/185 185/195/195 186/196/196 176/186/186
f 176/186/186 186/196/196 187/197/197 177/187/187
f 177/187/187 187/197/197 188/198/198 178/188/188
f 178/188/188 188/198/198 189/199/199 179/189/189
f 179/189/189 189/199/199 190/200/200 180/190/190
f 180/445/190 190/443/200 191/201/201 181/191/191
f 181/191/191 191/201/201 192/202/202 182/192/192
f 182/192/192 192/202/202 193/203/203 183/193/193
f 183/193/193 193/203/203 194/204/204 184/194/194
f 184/194/194 194/204/204 185/195/195 175/185/185
f 185/195/195 195/175/175 196/176/176 186/196/196
f 186/196/196 196/176/176 197/177/177 187/197/197
f 187/197/197 197/177/177 198/178/178 188/198/198
f 188/198/198 198/178/178 199/179/179 189/199/199
f 189/199/199 199/179/179 200/444/180 190/200/200
f 190/443/200 200/180/180 201/181/181 191/201/201
f 191/201/201 201/181/181 202/182/182 192/202/202
f 192/202/202 202/182/182 203/183/183 193/203/203
f 193/203/203 203/183/183 204/184/184 194/204/204
f 194/204/204 204/184/184 195/175/175 185/195/195
f 215/205/205 155/157/157 156/159/159 216/206/206
f 216/206/206 156/159/159 157/161/161 217/207/207
f 217/207/207 157/161/161 158/163/163 218/208/208
f 218/208/208 158/163/163 159/165/165 219/209/209
f 219/209/209 159/165/165 160/167/167 220/210/210
f 220/210/210 160/167/167 161/442/169 221/440/211
f 221/211/211 161/169/169 162/171/171 222/212/212
f 222/212/212 162/171/171 163/173/173 223/213/213
f 223/213/213 163/173/173 154/154/154 224/214/214
f 224/214/214 154/154/154 155/157/157 215/205/205
f 145/136/136 205/215/215 206/216/216 146/138/138
f 146/138/138 206/216/216 207/217/217 147/140/140
f 147/140/140 207/217/217 208/218/218 148/142/142
f 148/142/142 208/218/218 209/219/219 149/144/144
f 149/144/144 209/219/219 210/220/220 150/146/146
f 150/146/146 210/220/220 211/221/221 151/148/148
f 151/441/148 211/439/221 212/222/222 152/150/150
f 152/150/150 212/222/222 213/223/223 153/152/152
f 153/152/152 213/223/223 214/224/224 144/135/135
f 144/135/135 214/224/224 205/215/215 145/136/136
f 205/215/215 215/205/205 216/206/206 206/216/216
f 206/216/216 216/206/206 217/207/207 207/217/217
f 207/217/217 217/207/207 218/208/208 208/218/218
f 208/218/218 218/208/208 219/209/209 209/219/219
f 209/219/219 219/209/209 220/210/210 210/220/220
f 210/220/220 220/210/210 221/440/211 211/221/221
f 211/439/221 221/211/211 222/212/212 212/222/222
f 212/222/222 222/212/212 223/213/213 213/223/223
f 213/223/223 223/213/213 224/214/214 214/224/224
f 214/224/224 224/214/214 215/205/205 205/215/215
s 7
f 236/225/225 233/226/226 226/227/227 228/228/228
s 8
f 235/229/229 236/225/230 228/228/231 230/230/232
s 9
f 234/231/233 235/229/234 230/230/235 232/232/236
s 10
f 233/226/237 234/231/238 232/232/239 226/227/240
s off
f 226/227/241 232/232/242 230/230/243 228/228/244
f 231/233/245 225/234/246 227/235/247 229/236/248
s 10
f 231/233/249 234/231/238 233/226/237 225/234/250
s 9
f 229/236/251 235/229/234 234/231/233 231/233/252
s 8
f 227/235/253 236/225/230 235/229/229 229/236/254
s 7
f 225/234/255 233/226/226 236/225/225 227/235/256
s 11
f 253/237/257 254/238/258 258/239/259 259/242/260
s 12
f 252/241/261 253/407/262 259/240/263 260/397/264
s 13
f 251/243/265 252/244/266 260/245/267 255/246/268
s 14
f 249/420/269 250/438/270 256/418/271 257/417/272
s 15
f 246/432/273 247/433/274 242/435/275 240/252/276
s 16
f 248/405/277 245/254/278 239/255/279 241/399/280
s 17
f 373/247/281 374/248/282 375/249/283 376/250/284
s 15
f 264/430/285 265/431/286 247/433/274 246/432/273
s 18
f 377/251/287 378/253/288 379/256/289 380/257/290
s 16
f 268/267/291 261/268/292 245/254/278 248/405/277
s 14
f 243/269/293 250/419/270 249/437/269 237/270/294
s 13
f 248/258/295 251/243/265 267/259/296 268/260/297
f 241/261/298 252/244/266 251/243/265 248/258/295
s 12
f 239/255/299 253/407/262 252/241/261 241/399/300
s 11
f 245/262/301 254/238/258 253/237/257 239/263/302
f 261/264/303 262/265/304 254/238/258 245/262/301
s 13
f 265/266/305 266/271/306 255/246/268 247/272/307
s 14
f 257/417/272 256/418/271 244/425/308 238/436/309
s 11
f 258/239/259 263/273/310 264/274/311 246/275/312
f 259/242/260 258/239/259 246/275/312 240/276/313
s 12
f 260/397/264 259/240/263 240/252/314 242/435/315
s 13
f 255/246/268 260/245/267 242/278/316 247/272/307
s 11
f 269/279/317 270/280/318 262/265/304 261/264/303
f 263/273/310 262/265/304 270/280/318 271/281/319
f 264/274/311 263/273/310 271/281/319 272/282/320
s 15
f 272/428/321 273/429/322 265/431/286 264/430/285
s 13
f 273/283/323 274/286/324 266/271/306 265/266/305
f 274/286/324 275/287/325 267/259/296 266/271/306
f 268/260/297 267/259/296 275/287/325 276/288/326
s 16
f 276/284/327 269/277/328 261/268/292 268/267/291
s 11
f 277/289/329 278/290/330 270/280/318 269/279/317
s 21
f 382/291/331 381/292/332 383/293/333 384/294/334
s 11
f 272/282/320 271/281/319 279/295/335 280/296/336
s 15
f 280/422/337 281/427/338 273/429/322 272/428/321
s 13
f 281/297/339 282/298/340 274/286/324 273/283/323
s 22
f 385/299/341 386/302/342 387/303/343 388/305/344
s 13
f 276/288/326 275/287/325 283/306/345 284/307/346
s 16
f 284/300/347 277/285/348 269/277/328 276/284/327
s 11
f 285/308/349 286/309/350 293/310/351 294/311/352
s 24
f 389/313/353 390/315/354 391/316/355 392/317/356
s 11
f 299/318/357 300/319/358 287/320/359 288/321/360
s 15
f 288/312/361 289/424/362 298/314/363 299/421/364
s 13
f 289/322/365 290/323/366 297/325/367 298/326/368
s 27
f 393/327/369 394/328/370 395/329/371 396/330/372
s 13
f 295/331/373 296/332/374 291/333/375 292/334/376
s 16
f 292/324/377 285/301/378 294/304/379 295/400/380
s 11
f 237/335/381 249/336/382 286/309/350 285/308/349
f 287/320/359 286/309/350 249/336/382 257/337/383
f 288/321/360 287/320/359 257/337/383 238/338/384
s 15
f 238/436/385 244/425/386 289/424/362 288/312/361
s 13
f 256/339/387 290/323/366 289/322/365 244/340/388
f 250/341/389 291/333/375 290/323/366 256/339/387
f 292/334/376 291/333/375 250/341/389 243/342/390
s 16
f 243/269/391 237/270/392 285/301/378 292/324/377
s 11
f 294/311/352 293/310/351 278/290/330 277/289/329
s 16
f 295/400/380 294/304/379 277/285/348 284/300/347
s 13
f 284/307/346 283/306/345 296/332/374 295/331/373
f 297/325/367 296/332/374 283/306/345 282/298/340
f 298/326/368 297/325/367 282/298/340 281/297/339
s 15
f 299/421/364 298/314/363 281/427/338 280/422/337
s 11
f 280/296/336 279/295/335 300/319/358 299/318/357
f 279/295/335 278/290/330 293/310/351 300/319/358
f 254/238/258 262/265/304 302/343/393 301/344/394
f 262/265/304 263/273/310 303/345/395 302/343/393
f 263/273/310 258/239/259 304/346/396 303/345/395
f 258/239/259 254/238/258 301/344/394 304/346/396
s 13
f 266/271/306 267/259/296 306/347/397 305/348/398
f 267/259/296 251/243/265 307/349/399 306/347/397
f 251/243/265 255/246/268 308/350/400 307/349/399
f 255/246/268 266/271/306 305/348/398 308/350/400
s 11
f 271/281/319 270/280/318 309/351/401 310/352/402
f 270/280/318 278/290/330 311/353/403 309/351/401
f 278/290/330 279/295/335 312/354/404 311/353/403
f 279/295/335 271/281/319 310/352/402 312/354/404
s 13
f 282/298/340 283/306/345 314/355/405 313/356/406
f 283/306/345 275/287/325 315/357/407 314/355/405
f 275/287/325 274/286/324 316/358/408 315/357/407
f 274/286/324 282/298/340 313/356/406 316/358/408
s 11
f 300/319/358 293/310/351 318/359/409 317/360/410
f 293/310/351 286/309/350 319/361/411 318/359/409
f 286/309/350 287/320/359 320/362/412 319/361/411
f 287/320/359 300/319/358 317/360/410 320/362/412
s 13
f 290/323/366 291/333/375 322/363/413 321/364/414
f 291/333/375 296/332/374 323/365/415 322/363/413
f 296/332/374 297/325/367 324/366/416 323/365/415
f 297/325/367 290/323/366 321/364/414 324/366/416
s 11
f 301/344/394 302/343/393 354/367/417 355/368/418
f 302/343/393 303/345/395 353/369/419 354/367/420
f 303/345/395 304/346/396 356/370/421 353/369/422
f 304/346/396 301/344/394 355/368/423 356/370/424
s 13
f 349/371/425 350/372/426 330/373/427 329/374/428
f 350/372/429 351/375/430 331/376/431 330/373/432
f 351/375/433 352/377/434 332/378/435 331/376/436
f 352/377/437 349/371/438 329/374/439 332/378/440
s 29
f 310/352/441 309/351/442 363/379/443 364/380/444
s 11
f 309/351/401 311/353/403 362/381/445 363/379/446
s 30
f 311/353/447 312/354/448 361/382/449 362/381/450
s 11
f 312/354/404 310/352/402 364/380/451 361/382/452
s 31
f 357/383/453 358/384/454 338/385/455 337/386/456
s 13
f 358/384/457 359/387/458 339/388/459 338/385/460
s 32
f 359/387/461 360/389/462 340/390/463 339/388/464
s 13
f 360/389/465 357/383/466 337/386/467 340/390/468
s 33
f 317/360/469 318/359/470 371/391/471 372/392/472
s 11
f 318/359/409 319/361/411 370/393/473 371/391/474
s 34
f 319/361/475 320/362/476 369/394/477 370/393/478
s 11
f 320/362/412 317/360/410 372/392/479 369/394/480
s 35
f 365/395/481 366/396/482 346/398/483 345/401/484
s 13
f 366/396/485 367/402/486 347/403/487 346/398/488
s 36
f 367/402/489 368/404/490 348/406/491 347/403/492
s 13
f 368/404/493 365/395/494 345/401/495 348/406/496
f 305/348/398 306/347/397 350/372/426 349/371/425
f 306/347/397 307/349/399 351/375/430 350/372/429
f 307/349/399 308/350/400 352/377/434 351/375/433
f 308/350/400 305/348/398 349/371/438 352/377/437
s 11
f 354/367/420 353/369/419 327/408/497 326/409/498
f 355/368/418 354/367/417 326/409/499 325/410/500
f 356/370/424 355/368/423 325/410/501 328/411/502
f 353/369/422 356/370/421 328/411/503 327/408/504
s 31
f 313/356/505 314/355/506 358/384/454 357/383/453
s 13
f 314/355/405 315/357/407 359/387/458 358/384/457
s 32
f 315/357/507 316/358/508 360/389/462 359/387/461
s 13
f 316/358/408 313/356/406 357/383/466 360/389/465
s 30
f 362/381/450 361/382/449 336/412/509 335/413/510
s 11
f 363/379/446 362/381/445 335/413/511 333/414/512
s 29
f 364/380/444 363/379/443 333/414/513 334/415/514
s 11
f 361/382/452 364/380/451 334/415/515 336/412/516
s 35
f 321/364/517 322/363/518 366/396/482 365/395/481
s 13
f 322/363/413 323/365/415 367/402/486 366/396/485
s 36
f 323/365/519 324/366/520 368/404/490 367/402/489
s 13
f 324/366/416 321/364/414 365/395/494 368/404/493
s 34
f 370/393/478 369/394/477 344/416/521 343/423/522
s 11
f 371/391/474 370/393/473 343/423/523 342/426/524
s 33
f 372/392/472 371/391/471 342/426/525 341/434/526
s 11
f 369/394/480 372/392/479 341/434/527 344/416/528
s 17
f 325/410/529 326/409/530 374/248/282 373/247/281
f 326/409/531 327/408/532 375/249/283 374/248/282
f 327/408/533 328/411/534 376/250/284 375/249/283
f 328/411/535 325/410/536 373/247/281 376/250/284
s 18
f 329/374/537 330/373/538 378/253/288 377/251/287
f 330/373/539 331/376/540 379/256/289 378/253/288
f 331/376/541 332/378/542 380/257/290 379/256/289
f 332/378/543 329/374/544 377/251/287 380/257/290
s off
f 334/415/545 333/414/546 381/292/547 382/291/548
s 21
f 333/414/549 335/413/550 383/293/333 381/292/332
s off
f 335/413/551 336/412/552 384/294/553 383/293/554
s 21
f 336/412/555 334/415/556 382/291/331 384/294/334
s off
f 337/386/557 338/385/558 386/302/559 385/299/560
s 22
f 338/385/561 339/388/562 387/303/343 386/302/342
s off
f 339/388/563 340/390/564 388/305/565 387/303/566
s 22
f 340/390/567 337/386/568 385/299/341 388/305/344
s off
f 341/434/569 342/426/570 390/315/571 389/313/572
s 24
f 342/426/573 343/423/574 391/316/355 390/315/354
s off
f 343/423/575 344/416/576 392/317/577 391/316/578
s 24
f 344/416/579 341/434/580 389/313/353 392/317/356
s off
f 345/401/581 346/398/582 394/328/583 393/327/584
s 27
f 346/398/585 347/403/586 395/329/371 394/328/370
s off
f 347/403/587 348/406/588 396/330/589 395/329/590
s 27
f 348/406/591 345/401/592 393/327/369 396/330/372
